# Blender v2.79 (sub 0) OBJ File: ''
# www.blender.org
mtllib car0.mtl
o car0
v -0.200000 0.200000 0.300000
v -0.200000 0.100000 -0.300000
v -0.200000 0.100000 0.300000
v -0.200000 0.200000 0.100000
v -0.200000 0.200000 0.000000
v -0.200000 0.200000 -0.100000
v -0.200000 0.200000 -0.200000
v -0.200000 0.200000 -0.300000
v -0.200000 0.300000 0.100000
v -0.200000 0.300000 0.000000
v -0.200000 0.300000 -0.100000
v -0.200000 0.300000 -0.200000
v -0.200000 0.400000 0.100000
v -0.200000 0.400000 -0.200000
v 0.200000 0.100000 0.300000
v 0.200000 0.100000 -0.300000
v 0.200000 0.200000 0.300000
v 0.200000 0.200000 0.100000
v 0.200000 0.200000 0.000000
v 0.200000 0.200000 -0.100000
v 0.200000 0.200000 -0.200000
v 0.200000 0.200000 -0.300000
v 0.200000 0.300000 0.100000
v 0.200000 0.300000 0.000000
v 0.200000 0.300000 -0.100000
v 0.200000 0.300000 -0.200000
v 0.200000 0.400000 0.100000
v 0.200000 0.400000 -0.200000
v 0.200000 0.100000 0.300000
v -0.200000 0.200000 0.300000
v -0.200000 0.100000 0.300000
v 0.200000 0.200000 0.300000
v 0.200000 0.200000 0.100000
v -0.200000 0.300000 0.100000
v -0.200000 0.200000 0.100000
v 0.200000 0.300000 0.100000
v -0.200000 0.400000 0.100000
v 0.200000 0.400000 0.100000
v -0.200000 0.200000 -0.200000
v -0.200000 0.300000 -0.200000
v 0.200000 0.200000 -0.200000
v -0.200000 0.400000 -0.200000
v 0.200000 0.300000 -0.200000
v 0.200000 0.400000 -0.200000
v -0.200000 0.100000 -0.300000
v -0.200000 0.200000 -0.300000
v 0.200000 0.100000 -0.300000
v 0.200000 0.200000 -0.300000
v -0.200000 0.100000 -0.300000
v 0.200000 0.100000 0.300000
v -0.200000 0.100000 0.300000
v 0.200000 0.100000 -0.300000
v -0.200000 0.200000 0.300000
v 0.200000 0.200000 0.300000
v -0.200000 0.200000 0.100000
v 0.200000 0.200000 0.100000
v -0.200000 0.200000 -0.200000
v 0.200000 0.200000 -0.200000
v -0.200000 0.200000 -0.300000
v 0.200000 0.200000 -0.300000
v -0.200000 0.400000 0.100000
v 0.200000 0.400000 0.100000
v -0.200000 0.400000 -0.200000
v 0.200000 0.400000 -0.200000
vt 0.115234 0.500000
vt 0.115234 0.500000
vt 0.115234 0.500000
vt 0.115234 0.500000
vt 0.115234 0.500000
vt 0.115234 0.500000
vt 0.115234 0.500000
vt 0.115234 0.500000
vt 0.060547 0.500000
vt 0.060547 0.500000
vt 0.060547 0.500000
vt 0.115234 0.500000
vt 0.060547 0.500000
vt 0.060547 0.500000
vt 0.060547 0.500000
vt 0.060547 0.500000
vt 0.115234 0.500000
vt 0.060547 0.500000
vt 0.115234 0.500000
vt 0.115234 0.500000
vt 0.115234 0.500000
vt 0.115234 0.500000
vt 0.115234 0.500000
vt 0.115234 0.500000
vt 0.115234 0.500000
vt 0.115234 0.500000
vt 0.115234 0.500000
vt 0.115234 0.500000
vt 0.115234 0.500000
vt 0.115234 0.500000
vt 0.060547 0.500000
vt 0.060547 0.500000
vt 0.060547 0.500000
vt 0.115234 0.500000
vt 0.060547 0.500000
vt 0.060547 0.500000
vt 0.060547 0.500000
vt 0.060547 0.500000
vt 0.115234 0.500000
vt 0.060547 0.500000
vt 0.115234 0.500000
vt 0.115234 0.500000
vt 0.115234 0.500000
vt 0.115234 0.500000
vt 0.115234 0.500000
vt 0.115234 0.500000
vt 0.115234 0.500000
vt 0.115234 0.500000
vt 0.060547 0.500000
vt 0.060547 0.500000
vt 0.060547 0.500000
vt 0.115234 0.500000
vt 0.115234 0.500000
vt 0.115234 0.500000
vt 0.060547 0.500000
vt 0.115234 0.500000
vt 0.060547 0.500000
vt 0.060547 0.500000
vt 0.060547 0.500000
vt 0.115234 0.500000
vt 0.115234 0.500000
vt 0.115234 0.500000
vt 0.060547 0.500000
vt 0.115234 0.500000
vt 0.115234 0.500000
vt 0.115234 0.500000
vt 0.115234 0.500000
vt 0.115234 0.500000
vt 0.115234 0.500000
vt 0.115234 0.500000
vt 0.115234 0.500000
vt 0.115234 0.500000
vt 0.115234 0.500000
vt 0.115234 0.500000
vt 0.115234 0.500000
vt 0.115234 0.500000
vt 0.115234 0.500000
vt 0.115234 0.500000
vt 0.115234 0.500000
vt 0.115234 0.500000
vt 0.115234 0.500000
vt 0.115234 0.500000
vt 0.115234 0.500000
vt 0.115234 0.500000
vn -1.0000 -0.0000 0.0000
vn 1.0000 0.0000 0.0000
vn 0.0000 0.0000 1.0000
vn 0.0000 0.0000 -1.0000
vn 0.0000 -1.0000 -0.0000
vn 0.0000 1.0000 0.0000
usemtl palette.035
s 1
f 1/1/1 2/2/1 3/3/1
f 4/4/1 2/2/1 1/1/1
f 5/5/1 2/2/1 4/4/1
f 6/6/1 2/2/1 5/5/1
f 7/7/1 2/2/1 6/6/1
f 8/8/1 2/2/1 7/7/1
f 9/9/1 5/10/1 4/11/1
f 10/12/1 6/6/1 5/5/1
f 10/13/1 5/10/1 9/9/1
f 11/14/1 7/15/1 6/16/1
f 11/17/1 6/6/1 10/12/1
f 12/18/1 7/15/1 11/14/1
f 13/19/1 10/12/1 9/20/1
f 13/19/1 11/17/1 10/12/1
f 13/19/1 12/21/1 11/17/1
f 14/22/1 12/21/1 13/19/1
f 15/23/2 16/24/2 17/25/2
f 17/25/2 16/24/2 18/26/2
f 18/26/2 16/24/2 19/27/2
f 19/27/2 16/24/2 20/28/2
f 20/28/2 16/24/2 21/29/2
f 21/29/2 16/24/2 22/30/2
f 18/31/2 19/32/2 23/33/2
f 19/27/2 20/28/2 24/34/2
f 23/33/2 19/32/2 24/35/2
f 20/36/2 21/37/2 25/38/2
f 24/34/2 20/28/2 25/39/2
f 25/38/2 21/37/2 26/40/2
f 23/41/2 24/34/2 27/42/2
f 24/34/2 25/39/2 27/42/2
f 25/39/2 26/43/2 27/42/2
f 27/42/2 26/43/2 28/44/2
f 29/45/3 30/46/3 31/47/3
f 32/48/3 30/46/3 29/45/3
f 33/49/3 34/50/3 35/51/3
f 36/52/3 37/53/3 34/54/3
f 36/55/3 34/50/3 33/49/3
f 38/56/3 37/53/3 36/52/3
f 39/57/4 40/58/4 41/59/4
f 40/60/4 42/61/4 43/62/4
f 41/59/4 40/58/4 43/63/4
f 43/62/4 42/61/4 44/64/4
f 45/65/4 46/66/4 47/67/4
f 47/67/4 46/66/4 48/68/4
f 49/69/5 50/70/5 51/71/5
f 52/72/5 50/70/5 49/69/5
f 53/73/6 54/74/6 55/75/6
f 55/75/6 54/74/6 56/76/6
f 57/77/6 58/78/6 59/79/6
f 59/79/6 58/78/6 60/80/6
f 61/81/6 62/82/6 63/83/6
f 63/83/6 62/82/6 64/84/6
