# Blender v2.79 (sub 0) OBJ File: ''
# www.blender.org
mtllib deco_1x1_02.mtl
o deco_1x1_02
v -0.800000 0.600000 0.800000
v -0.800000 0.000000 -0.800000
v -0.800000 -0.000000 0.800000
v -0.800000 0.600000 -0.800000
v -0.800000 1.000000 0.800000
v -0.800000 1.000000 -0.800000
v -0.800000 1.200000 0.800000
v -0.800000 1.200000 -0.800000
v -0.800000 1.600000 0.800001
v -0.800000 1.600000 -0.799999
v -0.700000 2.700000 0.100001
v -0.700000 2.500000 -0.099999
v -0.700000 2.500000 0.100001
v -0.700000 2.700000 -0.099999
v -0.700000 3.200000 0.100001
v -0.700000 3.100000 -0.099999
v -0.700000 3.100000 0.100001
v -0.700000 3.200000 -0.099999
v -0.700000 3.300000 0.100001
v -0.700000 3.300000 -0.099999
v -0.600000 1.700000 0.200001
v -0.600000 1.600000 -0.199999
v -0.600000 1.600000 0.200001
v -0.600000 1.700000 -0.199999
v -0.600000 3.100000 0.100001
v -0.600000 3.000000 -0.099999
v -0.600000 3.000000 0.100001
v -0.600000 3.100000 -0.099999
v -0.500000 2.400000 0.100001
v -0.500000 1.700000 -0.099999
v -0.500000 1.700000 0.100001
v -0.500000 2.400000 -0.099999
v -0.500000 2.500000 0.100001
v -0.500000 2.500000 -0.099999
v -0.500000 2.800000 0.100001
v -0.500000 2.700000 -0.099999
v -0.500000 2.700000 0.100001
v -0.500000 2.800000 -0.099999
v -0.500000 3.000000 0.100001
v -0.500000 3.000000 -0.099999
v 0.200000 1.700000 0.200001
v 0.200000 1.600000 -0.199999
v 0.200000 1.600000 0.200001
v 0.200000 1.700000 -0.199999
v 0.300000 2.400000 0.100001
v 0.300000 1.700000 -0.099999
v 0.300000 1.700000 0.100001
v 0.300000 2.400000 -0.099999
v 0.300000 2.500000 0.100001
v 0.300000 2.500000 -0.099999
v 0.300000 2.800000 0.100001
v 0.300000 2.700000 -0.099999
v 0.300000 2.700000 0.100001
v 0.300000 2.800000 -0.099999
v 0.300000 2.900000 0.100001
v 0.300000 2.900000 -0.099999
v 0.300000 3.300000 0.100001
v 0.300000 3.200000 -0.099999
v 0.300000 3.200000 0.100001
v 0.300000 3.300000 -0.099999
v -0.300000 1.700000 0.100001
v -0.300000 1.700000 -0.099999
v -0.300000 2.400000 0.100001
v -0.300000 2.400000 -0.099999
v -0.300000 2.500000 0.100001
v -0.300000 2.500000 -0.099999
v -0.300000 2.700000 0.100001
v -0.300000 2.700000 -0.099999
v -0.300000 2.800000 0.100001
v -0.300000 2.800000 -0.099999
v -0.300000 2.900000 0.100001
v -0.300000 2.900000 -0.099999
v -0.300000 3.200000 0.100001
v -0.300000 3.200000 -0.099999
v -0.300000 3.300000 0.100001
v -0.300000 3.300000 -0.099999
v -0.200000 1.600000 0.200001
v -0.200000 1.600000 -0.199999
v -0.200000 1.700000 0.200001
v -0.200000 1.700000 -0.199999
v 0.500000 1.700000 0.100001
v 0.500000 1.700000 -0.099999
v 0.500000 2.400000 0.100001
v 0.500000 2.400000 -0.099999
v 0.500000 2.500000 0.100001
v 0.500000 2.500000 -0.099999
v 0.500000 2.700000 0.100001
v 0.500000 2.700000 -0.099999
v 0.500000 2.800000 0.100001
v 0.500000 2.800000 -0.099999
v 0.500000 3.000000 0.100001
v 0.500000 3.000000 -0.099999
v 0.600000 1.600000 0.200001
v 0.600000 1.600000 -0.199999
v 0.600000 1.700000 0.200001
v 0.600000 1.700000 -0.199999
v 0.600000 3.000000 0.100001
v 0.600000 3.000000 -0.099999
v 0.600000 3.100000 0.100001
v 0.600000 3.100000 -0.099999
v 0.700000 2.500000 0.100001
v 0.700000 2.500000 -0.099999
v 0.700000 2.700000 0.100001
v 0.700000 2.700000 -0.099999
v 0.700000 3.100000 0.100001
v 0.700000 3.100000 -0.099999
v 0.700000 3.200000 0.100001
v 0.700000 3.200000 -0.099999
v 0.700000 3.300000 0.100001
v 0.700000 3.300000 -0.099999
v 0.800000 -0.000000 0.800000
v 0.800000 0.000000 -0.800000
v 0.800000 0.600000 0.800000
v 0.800000 0.600000 -0.800000
v 0.800000 1.000000 0.800000
v 0.800000 1.000000 -0.800000
v 0.800000 1.200000 0.800000
v 0.800000 1.200000 -0.800000
v 0.800000 1.600000 0.800001
v 0.800000 1.600000 -0.799999
v 0.800000 -0.000000 0.800000
v -0.800000 0.600000 0.800000
v -0.800000 -0.000000 0.800000
v 0.800000 0.600000 0.800000
v -0.800000 1.000000 0.800000
v 0.800000 1.000000 0.800000
v -0.800000 1.200000 0.800000
v 0.800000 1.200000 0.800000
v -0.800000 1.600000 0.800001
v 0.800000 1.600000 0.800001
v -0.200000 1.600000 0.200001
v -0.600000 1.700000 0.200001
v -0.600000 1.600000 0.200001
v -0.200000 1.700000 0.200001
v 0.600000 1.600000 0.200001
v 0.200000 1.700000 0.200001
v 0.200000 1.600000 0.200001
v 0.600000 1.700000 0.200001
v -0.600000 3.100000 0.100001
v -0.700000 3.200000 0.100001
v -0.700000 3.100000 0.100001
v -0.500000 2.500000 0.100001
v -0.700000 2.700000 0.100001
v -0.700000 2.500000 0.100001
v -0.500000 2.700000 0.100001
v -0.500000 3.000000 0.100001
v -0.600000 3.000000 0.100001
v -0.400000 2.900000 0.100001
v -0.500000 2.800000 0.100001
v -0.400000 3.000000 0.100001
v -0.300000 1.700000 0.100001
v -0.500000 2.400000 0.100001
v -0.500000 1.700000 0.100001
v -0.300000 2.400000 0.100001
v -0.300000 2.500000 0.100001
v -0.300000 2.700000 0.100001
v -0.300000 2.800000 0.100001
v -0.300000 2.900000 0.100001
v -0.300000 3.100000 0.100001
v -0.300000 3.200000 0.100001
v -0.700000 3.300000 0.100001
v -0.300000 3.300000 0.100001
v 0.300000 2.500000 0.100001
v 0.300000 2.700000 0.100001
v 0.300000 2.900000 0.100001
v 0.300000 3.100000 0.100001
v 0.300000 3.200000 0.100001
v 0.400000 2.900000 0.100001
v 0.300000 2.800000 0.100001
v 0.400000 3.000000 0.100001
v 0.500000 1.700000 0.100001
v 0.300000 2.400000 0.100001
v 0.300000 1.700000 0.100001
v 0.500000 2.400000 0.100001
v 0.500000 2.500000 0.100001
v 0.500000 2.700000 0.100001
v 0.500000 2.800000 0.100001
v 0.500000 3.000000 0.100001
v 0.600000 3.000000 0.100001
v 0.600000 3.100000 0.100001
v 0.700000 2.500000 0.100001
v 0.700000 2.700000 0.100001
v 0.700000 3.100000 0.100001
v 0.700000 3.200000 0.100001
v 0.300000 3.300000 0.100001
v 0.700000 3.300000 0.100001
v -0.700000 3.100000 -0.099999
v -0.700000 3.200000 -0.099999
v -0.600000 3.100000 -0.099999
v -0.700000 2.500000 -0.099999
v -0.700000 2.700000 -0.099999
v -0.500000 2.500000 -0.099999
v -0.500000 2.700000 -0.099999
v -0.600000 3.000000 -0.099999
v -0.500000 3.000000 -0.099999
v -0.500000 2.800000 -0.099999
v -0.400000 2.900000 -0.099999
v -0.400000 3.000000 -0.099999
v -0.500000 1.700000 -0.099999
v -0.500000 2.400000 -0.099999
v -0.300000 1.700000 -0.099999
v -0.300000 2.400000 -0.099999
v -0.300000 2.500000 -0.099999
v -0.300000 2.700000 -0.099999
v -0.300000 2.800000 -0.099999
v -0.300000 2.900000 -0.099999
v -0.300000 3.100000 -0.099999
v -0.700000 3.300000 -0.099999
v -0.300000 3.200000 -0.099999
v -0.300000 3.300000 -0.099999
v 0.300000 2.500000 -0.099999
v 0.300000 2.700000 -0.099999
v 0.300000 2.900000 -0.099999
v 0.300000 3.100000 -0.099999
v 0.300000 3.200000 -0.099999
v 0.300000 2.800000 -0.099999
v 0.400000 2.900000 -0.099999
v 0.400000 3.000000 -0.099999
v 0.300000 1.700000 -0.099999
v 0.300000 2.400000 -0.099999
v 0.500000 1.700000 -0.099999
v 0.500000 2.400000 -0.099999
v 0.500000 2.500000 -0.099999
v 0.500000 2.700000 -0.099999
v 0.500000 2.800000 -0.099999
v 0.500000 3.000000 -0.099999
v 0.600000 3.000000 -0.099999
v 0.600000 3.100000 -0.099999
v 0.700000 2.500000 -0.099999
v 0.700000 2.700000 -0.099999
v 0.700000 3.100000 -0.099999
v 0.300000 3.300000 -0.099999
v 0.700000 3.200000 -0.099999
v 0.700000 3.300000 -0.099999
v -0.600000 1.600000 -0.199999
v -0.600000 1.700000 -0.199999
v -0.200000 1.600000 -0.199999
v -0.200000 1.700000 -0.199999
v 0.200000 1.600000 -0.199999
v 0.200000 1.700000 -0.199999
v 0.600000 1.600000 -0.199999
v 0.600000 1.700000 -0.199999
v -0.800000 0.000000 -0.800000
v -0.800000 0.600000 -0.800000
v 0.800000 0.000000 -0.800000
v -0.800000 1.000000 -0.800000
v 0.800000 0.600000 -0.800000
v -0.800000 1.200000 -0.800000
v 0.800000 1.000000 -0.800000
v -0.800000 1.600000 -0.799999
v 0.800000 1.200000 -0.800000
v 0.800000 1.600000 -0.799999
v -0.800000 0.000000 -0.800000
v 0.800000 -0.000000 0.800000
v -0.800000 -0.000000 0.800000
v 0.800000 0.000000 -0.800000
v -0.700000 2.500000 -0.099999
v -0.500000 2.500000 0.100001
v -0.700000 2.500000 0.100001
v -0.500000 2.500000 -0.099999
v -0.300000 2.500000 -0.099999
v 0.300000 2.500000 0.100001
v -0.300000 2.500000 0.100001
v 0.300000 2.500000 -0.099999
v 0.500000 2.500000 -0.099999
v 0.700000 2.500000 0.100001
v 0.500000 2.500000 0.100001
v 0.700000 2.500000 -0.099999
v -0.300000 2.900000 -0.099999
v 0.300000 2.900000 0.100001
v -0.300000 2.900000 0.100001
v 0.300000 2.900000 -0.099999
v -0.600000 3.000000 -0.099999
v -0.500000 3.000000 0.100001
v -0.600000 3.000000 0.100001
v -0.500000 3.000000 -0.099999
v 0.500000 3.000000 -0.099999
v 0.600000 3.000000 0.100001
v 0.500000 3.000000 0.100001
v 0.600000 3.000000 -0.099999
v -0.700000 3.100000 -0.099999
v -0.600000 3.100000 0.100001
v -0.700000 3.100000 0.100001
v -0.600000 3.100000 -0.099999
v 0.600000 3.100000 -0.099999
v 0.700000 3.100000 0.100001
v 0.600000 3.100000 0.100001
v 0.700000 3.100000 -0.099999
v -0.800000 1.600000 0.800001
v 0.800000 1.600000 0.800001
v -0.600000 1.600000 0.200001
v -0.200000 1.600000 0.200001
v 0.200000 1.600000 0.200001
v 0.600000 1.600000 0.200001
v -0.600000 1.600000 -0.199999
v -0.200000 1.600000 -0.199999
v 0.200000 1.600000 -0.199999
v 0.600000 1.600000 -0.199999
v -0.800000 1.600000 -0.799999
v 0.800000 1.600000 -0.799999
v -0.600000 1.700000 0.200001
v -0.200000 1.700000 0.200001
v -0.500000 1.700000 0.100001
v -0.300000 1.700000 0.100001
v 0.200000 1.700000 0.200001
v 0.600000 1.700000 0.200001
v 0.300000 1.700000 0.100001
v 0.500000 1.700000 0.100001
v -0.500000 1.700000 -0.099999
v -0.300000 1.700000 -0.099999
v 0.300000 1.700000 -0.099999
v 0.500000 1.700000 -0.099999
v -0.600000 1.700000 -0.199999
v -0.200000 1.700000 -0.199999
v 0.200000 1.700000 -0.199999
v 0.600000 1.700000 -0.199999
v -0.700000 2.700000 0.100001
v -0.500000 2.700000 0.100001
v -0.700000 2.700000 -0.099999
v -0.500000 2.700000 -0.099999
v -0.300000 2.700000 0.100001
v 0.300000 2.700000 0.100001
v -0.300000 2.700000 -0.099999
v 0.300000 2.700000 -0.099999
v 0.500000 2.700000 0.100001
v 0.700000 2.700000 0.100001
v 0.500000 2.700000 -0.099999
v 0.700000 2.700000 -0.099999
v -0.300000 3.200000 0.100001
v 0.300000 3.200000 0.100001
v -0.300000 3.200000 -0.099999
v 0.300000 3.200000 -0.099999
v -0.700000 3.300000 0.100001
v -0.300000 3.300000 0.100001
v -0.700000 3.300000 -0.099999
v -0.300000 3.300000 -0.099999
v 0.300000 3.300000 0.100001
v 0.700000 3.300000 0.100001
v 0.300000 3.300000 -0.099999
v 0.700000 3.300000 -0.099999
vt 0.087891 0.500000
vt 0.087891 0.500000
vt 0.087891 0.500000
vt 0.087891 0.500000
vt 0.083984 0.500000
vt 0.083984 0.500000
vt 0.083984 0.500000
vt 0.083984 0.500000
vt 0.080078 0.500000
vt 0.080078 0.500000
vt 0.080078 0.500000
vt 0.080078 0.500000
vt 0.005859 0.500000
vt 0.005859 0.500000
vt 0.005859 0.500000
vt 0.005859 0.500000
vt 0.115234 0.500000
vt 0.115234 0.500000
vt 0.115234 0.500000
vt 0.115234 0.500000
vt 0.115234 0.500000
vt 0.115234 0.500000
vt 0.115234 0.500000
vt 0.115234 0.500000
vt 0.025391 0.500000
vt 0.025391 0.500000
vt 0.025391 0.500000
vt 0.025391 0.500000
vt 0.025391 0.500000
vt 0.025391 0.500000
vt 0.025391 0.500000
vt 0.025391 0.500000
vt 0.115234 0.500000
vt 0.115234 0.500000
vt 0.115234 0.500000
vt 0.115234 0.500000
vt 0.115234 0.500000
vt 0.115234 0.500000
vt 0.115234 0.500000
vt 0.115234 0.500000
vt 0.119141 0.500000
vt 0.119141 0.500000
vt 0.119141 0.500000
vt 0.119141 0.500000
vt 0.115234 0.500000
vt 0.115234 0.500000
vt 0.115234 0.500000
vt 0.115234 0.500000
vt 0.119141 0.500000
vt 0.119141 0.500000
vt 0.119141 0.500000
vt 0.119141 0.500000
vt 0.025391 0.500000
vt 0.025391 0.500000
vt 0.025391 0.500000
vt 0.025391 0.500000
vt 0.115234 0.500000
vt 0.115234 0.500000
vt 0.115234 0.500000
vt 0.115234 0.500000
vt 0.119141 0.500000
vt 0.119141 0.500000
vt 0.119141 0.500000
vt 0.119141 0.500000
vt 0.115234 0.500000
vt 0.115234 0.500000
vt 0.115234 0.500000
vt 0.115234 0.500000
vt 0.119141 0.500000
vt 0.119141 0.500000
vt 0.119141 0.500000
vt 0.119141 0.500000
vt 0.025391 0.500000
vt 0.025391 0.500000
vt 0.025391 0.500000
vt 0.025391 0.500000
vt 0.115234 0.500000
vt 0.115234 0.500000
vt 0.115234 0.500000
vt 0.115234 0.500000
vt 0.119141 0.500000
vt 0.119141 0.500000
vt 0.119141 0.500000
vt 0.119141 0.500000
vt 0.115234 0.500000
vt 0.115234 0.500000
vt 0.115234 0.500000
vt 0.115234 0.500000
vt 0.119141 0.500000
vt 0.119141 0.500000
vt 0.119141 0.500000
vt 0.119141 0.500000
vt 0.025391 0.500000
vt 0.025391 0.500000
vt 0.025391 0.500000
vt 0.025391 0.500000
vt 0.025391 0.500000
vt 0.025391 0.500000
vt 0.025391 0.500000
vt 0.025391 0.500000
vt 0.115234 0.500000
vt 0.115234 0.500000
vt 0.115234 0.500000
vt 0.115234 0.500000
vt 0.119141 0.500000
vt 0.119141 0.500000
vt 0.119141 0.500000
vt 0.119141 0.500000
vt 0.115234 0.500000
vt 0.115234 0.500000
vt 0.115234 0.500000
vt 0.115234 0.500000
vt 0.119141 0.500000
vt 0.119141 0.500000
vt 0.119141 0.500000
vt 0.119141 0.500000
vt 0.025391 0.500000
vt 0.025391 0.500000
vt 0.025391 0.500000
vt 0.025391 0.500000
vt 0.115234 0.500000
vt 0.115234 0.500000
vt 0.115234 0.500000
vt 0.115234 0.500000
vt 0.115234 0.500000
vt 0.115234 0.500000
vt 0.115234 0.500000
vt 0.115234 0.500000
vt 0.115234 0.500000
vt 0.115234 0.500000
vt 0.115234 0.500000
vt 0.115234 0.500000
vt 0.025391 0.500000
vt 0.025391 0.500000
vt 0.025391 0.500000
vt 0.025391 0.500000
vt 0.087891 0.500000
vt 0.087891 0.500000
vt 0.087891 0.500000
vt 0.087891 0.500000
vt 0.083984 0.500000
vt 0.083984 0.500000
vt 0.083984 0.500000
vt 0.083984 0.500000
vt 0.080078 0.500000
vt 0.080078 0.500000
vt 0.080078 0.500000
vt 0.080078 0.500000
vt 0.005859 0.500000
vt 0.005859 0.500000
vt 0.005859 0.500000
vt 0.005859 0.500000
vt 0.087891 0.500000
vt 0.087891 0.500000
vt 0.087891 0.500000
vt 0.083984 0.500000
vt 0.083984 0.500000
vt 0.083984 0.500000
vt 0.087891 0.500000
vt 0.080078 0.500000
vt 0.080078 0.500000
vt 0.080078 0.500000
vt 0.083984 0.500000
vt 0.005859 0.500000
vt 0.005859 0.500000
vt 0.005859 0.500000
vt 0.080078 0.500000
vt 0.005859 0.500000
vt 0.025391 0.500000
vt 0.025391 0.500000
vt 0.025391 0.500000
vt 0.025391 0.500000
vt 0.025391 0.500000
vt 0.025391 0.500000
vt 0.025391 0.500000
vt 0.025391 0.500000
vt 0.115234 0.500000
vt 0.115234 0.500000
vt 0.115234 0.500000
vt 0.115234 0.500000
vt 0.115234 0.500000
vt 0.115234 0.500000
vt 0.115234 0.500000
vt 0.115234 0.500000
vt 0.115234 0.500000
vt 0.119141 0.500000
vt 0.119141 0.500000
vt 0.119141 0.500000
vt 0.115234 0.500000
vt 0.119141 0.500000
vt 0.115234 0.500000
vt 0.115234 0.500000
vt 0.115234 0.500000
vt 0.119141 0.500000
vt 0.119141 0.500000
vt 0.119141 0.500000
vt 0.115234 0.500000
vt 0.115234 0.500000
vt 0.115234 0.500000
vt 0.119141 0.500000
vt 0.115234 0.500000
vt 0.119141 0.500000
vt 0.115234 0.500000
vt 0.115234 0.500000
vt 0.115234 0.500000
vt 0.119141 0.500000
vt 0.115234 0.500000
vt 0.025391 0.500000
vt 0.025391 0.500000
vt 0.025391 0.500000
vt 0.115234 0.500000
vt 0.025391 0.500000
vt 0.115234 0.500000
vt 0.115234 0.500000
vt 0.115234 0.500000
vt 0.025391 0.500000
vt 0.025391 0.500000
vt 0.115234 0.500000
vt 0.025391 0.500000
vt 0.119141 0.500000
vt 0.119141 0.500000
vt 0.119141 0.500000
vt 0.115234 0.500000
vt 0.115234 0.500000
vt 0.115234 0.500000
vt 0.115234 0.500000
vt 0.115234 0.500000
vt 0.115234 0.500000
vt 0.119141 0.500000
vt 0.119141 0.500000
vt 0.119141 0.500000
vt 0.115234 0.500000
vt 0.115234 0.500000
vt 0.115234 0.500000
vt 0.119141 0.500000
vt 0.115234 0.500000
vt 0.119141 0.500000
vt 0.119141 0.500000
vt 0.115234 0.500000
vt 0.115234 0.500000
vt 0.119141 0.500000
vt 0.115234 0.500000
vt 0.115234 0.500000
vt 0.115234 0.500000
vt 0.115234 0.500000
vt 0.115234 0.500000
vt 0.025391 0.500000
vt 0.025391 0.500000
vt 0.115234 0.500000
vt 0.025391 0.500000
vt 0.115234 0.500000
vt 0.115234 0.500000
vt 0.115234 0.500000
vt 0.115234 0.500000
vt 0.115234 0.500000
vt 0.115234 0.500000
vt 0.115234 0.500000
vt 0.115234 0.500000
vt 0.115234 0.500000
vt 0.119141 0.500000
vt 0.119141 0.500000
vt 0.119141 0.500000
vt 0.115234 0.500000
vt 0.119141 0.500000
vt 0.115234 0.500000
vt 0.115234 0.500000
vt 0.115234 0.500000
vt 0.119141 0.500000
vt 0.119141 0.500000
vt 0.119141 0.500000
vt 0.115234 0.500000
vt 0.115234 0.500000
vt 0.115234 0.500000
vt 0.119141 0.500000
vt 0.115234 0.500000
vt 0.119141 0.500000
vt 0.115234 0.500000
vt 0.115234 0.500000
vt 0.115234 0.500000
vt 0.119141 0.500000
vt 0.115234 0.500000
vt 0.025391 0.500000
vt 0.025391 0.500000
vt 0.025391 0.500000
vt 0.115234 0.500000
vt 0.025391 0.500000
vt 0.115234 0.500000
vt 0.115234 0.500000
vt 0.115234 0.500000
vt 0.025391 0.500000
vt 0.025391 0.500000
vt 0.115234 0.500000
vt 0.025391 0.500000
vt 0.119141 0.500000
vt 0.119141 0.500000
vt 0.119141 0.500000
vt 0.115234 0.500000
vt 0.115234 0.500000
vt 0.115234 0.500000
vt 0.115234 0.500000
vt 0.115234 0.500000
vt 0.115234 0.500000
vt 0.119141 0.500000
vt 0.119141 0.500000
vt 0.119141 0.500000
vt 0.115234 0.500000
vt 0.115234 0.500000
vt 0.115234 0.500000
vt 0.119141 0.500000
vt 0.115234 0.500000
vt 0.119141 0.500000
vt 0.119141 0.500000
vt 0.115234 0.500000
vt 0.115234 0.500000
vt 0.119141 0.500000
vt 0.115234 0.500000
vt 0.115234 0.500000
vt 0.115234 0.500000
vt 0.115234 0.500000
vt 0.115234 0.500000
vt 0.025391 0.500000
vt 0.025391 0.500000
vt 0.115234 0.500000
vt 0.025391 0.500000
vt 0.025391 0.500000
vt 0.025391 0.500000
vt 0.025391 0.500000
vt 0.025391 0.500000
vt 0.025391 0.500000
vt 0.025391 0.500000
vt 0.025391 0.500000
vt 0.025391 0.500000
vt 0.087891 0.500000
vt 0.087891 0.500000
vt 0.087891 0.500000
vt 0.083984 0.500000
vt 0.083984 0.500000
vt 0.083984 0.500000
vt 0.087891 0.500000
vt 0.080078 0.500000
vt 0.080078 0.500000
vt 0.080078 0.500000
vt 0.083984 0.500000
vt 0.005859 0.500000
vt 0.005859 0.500000
vt 0.005859 0.500000
vt 0.080078 0.500000
vt 0.005859 0.500000
vt 0.087891 0.500000
vt 0.087891 0.500000
vt 0.087891 0.500000
vt 0.087891 0.500000
vt 0.115234 0.500000
vt 0.115234 0.500000
vt 0.115234 0.500000
vt 0.115234 0.500000
vt 0.115234 0.500000
vt 0.115234 0.500000
vt 0.115234 0.500000
vt 0.115234 0.500000
vt 0.115234 0.500000
vt 0.115234 0.500000
vt 0.115234 0.500000
vt 0.115234 0.500000
vt 0.115234 0.500000
vt 0.115234 0.500000
vt 0.115234 0.500000
vt 0.115234 0.500000
vt 0.115234 0.500000
vt 0.115234 0.500000
vt 0.115234 0.500000
vt 0.115234 0.500000
vt 0.115234 0.500000
vt 0.115234 0.500000
vt 0.115234 0.500000
vt 0.115234 0.500000
vt 0.115234 0.500000
vt 0.115234 0.500000
vt 0.115234 0.500000
vt 0.115234 0.500000
vt 0.115234 0.500000
vt 0.115234 0.500000
vt 0.115234 0.500000
vt 0.115234 0.500000
vt 0.005859 0.500000
vt 0.005859 0.500000
vt 0.005859 0.500000
vt 0.005859 0.500000
vt 0.005859 0.500000
vt 0.005859 0.500000
vt 0.005859 0.500000
vt 0.005859 0.500000
vt 0.005859 0.500000
vt 0.005859 0.500000
vt 0.005859 0.500000
vt 0.005859 0.500000
vt 0.025391 0.500000
vt 0.025391 0.500000
vt 0.025391 0.500000
vt 0.025391 0.500000
vt 0.025391 0.500000
vt 0.025391 0.500000
vt 0.025391 0.500000
vt 0.025391 0.500000
vt 0.025391 0.500000
vt 0.025391 0.500000
vt 0.025391 0.500000
vt 0.025391 0.500000
vt 0.025391 0.500000
vt 0.025391 0.500000
vt 0.025391 0.500000
vt 0.025391 0.500000
vt 0.115234 0.500000
vt 0.115234 0.500000
vt 0.115234 0.500000
vt 0.115234 0.500000
vt 0.115234 0.500000
vt 0.115234 0.500000
vt 0.115234 0.500000
vt 0.115234 0.500000
vt 0.115234 0.500000
vt 0.115234 0.500000
vt 0.115234 0.500000
vt 0.115234 0.500000
vt 0.025391 0.500000
vt 0.025391 0.500000
vt 0.025391 0.500000
vt 0.025391 0.500000
vt 0.025391 0.500000
vt 0.025391 0.500000
vt 0.025391 0.500000
vt 0.025391 0.500000
vt 0.025391 0.500000
vt 0.025391 0.500000
vt 0.025391 0.500000
vt 0.025391 0.500000
vn -1.0000 0.0000 0.0000
vn 1.0000 0.0000 0.0000
vn 0.0000 -0.0000 1.0000
vn 0.0000 0.0000 -1.0000
vn 0.0000 -1.0000 -0.0000
vn -0.0000 1.0000 0.0000
usemtl palette.016
s 1
f 1/1/1 2/2/1 3/3/1
f 4/4/1 2/2/1 1/1/1
f 5/5/1 4/6/1 1/7/1
f 6/8/1 4/6/1 5/5/1
f 7/9/1 6/10/1 5/11/1
f 8/12/1 6/10/1 7/9/1
f 9/13/1 8/14/1 7/15/1
f 10/16/1 8/14/1 9/13/1
f 11/17/1 12/18/1 13/19/1
f 14/20/1 12/18/1 11/17/1
f 15/21/1 16/22/1 17/23/1
f 18/24/1 16/22/1 15/21/1
f 19/25/1 18/26/1 15/27/1
f 20/28/1 18/26/1 19/25/1
f 21/29/1 22/30/1 23/31/1
f 24/32/1 22/30/1 21/29/1
f 25/33/1 26/34/1 27/35/1
f 28/36/1 26/34/1 25/33/1
f 29/37/1 30/38/1 31/39/1
f 32/40/1 30/38/1 29/37/1
f 33/41/1 32/42/1 29/43/1
f 34/44/1 32/42/1 33/41/1
f 35/45/1 36/46/1 37/47/1
f 38/48/1 36/46/1 35/45/1
f 39/49/1 38/50/1 35/51/1
f 40/52/1 38/50/1 39/49/1
f 41/53/1 42/54/1 43/55/1
f 44/56/1 42/54/1 41/53/1
f 45/57/1 46/58/1 47/59/1
f 48/60/1 46/58/1 45/57/1
f 49/61/1 48/62/1 45/63/1
f 50/64/1 48/62/1 49/61/1
f 51/65/1 52/66/1 53/67/1
f 54/68/1 52/66/1 51/65/1
f 55/69/1 54/70/1 51/71/1
f 56/72/1 54/70/1 55/69/1
f 57/73/1 58/74/1 59/75/1
f 60/76/1 58/74/1 57/73/1
f 61/77/2 62/78/2 63/79/2
f 63/79/2 62/78/2 64/80/2
f 63/81/2 64/82/2 65/83/2
f 65/83/2 64/82/2 66/84/2
f 67/85/2 68/86/2 69/87/2
f 69/87/2 68/86/2 70/88/2
f 69/89/2 70/90/2 71/91/2
f 71/91/2 70/90/2 72/92/2
f 73/93/2 74/94/2 75/95/2
f 75/95/2 74/94/2 76/96/2
f 77/97/2 78/98/2 79/99/2
f 79/99/2 78/98/2 80/100/2
f 81/101/2 82/102/2 83/103/2
f 83/103/2 82/102/2 84/104/2
f 83/105/2 84/106/2 85/107/2
f 85/107/2 84/106/2 86/108/2
f 87/109/2 88/110/2 89/111/2
f 89/111/2 88/110/2 90/112/2
f 89/113/2 90/114/2 91/115/2
f 91/115/2 90/114/2 92/116/2
f 93/117/2 94/118/2 95/119/2
f 95/119/2 94/118/2 96/120/2
f 97/121/2 98/122/2 99/123/2
f 99/123/2 98/122/2 100/124/2
f 101/125/2 102/126/2 103/127/2
f 103/127/2 102/126/2 104/128/2
f 105/129/2 106/130/2 107/131/2
f 107/131/2 106/130/2 108/132/2
f 107/133/2 108/134/2 109/135/2
f 109/135/2 108/134/2 110/136/2
f 111/137/2 112/138/2 113/139/2
f 113/139/2 112/138/2 114/140/2
f 113/141/2 114/142/2 115/143/2
f 115/143/2 114/142/2 116/144/2
f 115/145/2 116/146/2 117/147/2
f 117/147/2 116/146/2 118/148/2
f 117/149/2 118/150/2 119/151/2
f 119/151/2 118/150/2 120/152/2
f 121/153/3 122/154/3 123/155/3
f 124/156/3 125/157/3 122/158/3
f 124/159/3 122/154/3 121/153/3
f 126/160/3 127/161/3 125/162/3
f 126/163/3 125/157/3 124/156/3
f 128/164/3 129/165/3 127/166/3
f 128/167/3 127/161/3 126/160/3
f 130/168/3 129/165/3 128/164/3
f 131/169/3 132/170/3 133/171/3
f 134/172/3 132/170/3 131/169/3
f 135/173/3 136/174/3 137/175/3
f 138/176/3 136/174/3 135/173/3
f 139/177/3 140/178/3 141/179/3
f 142/180/3 143/181/3 144/182/3
f 145/183/3 143/181/3 142/180/3
f 146/184/3 139/177/3 147/185/3
f 148/186/3 146/187/3 149/188/3
f 150/189/3 139/177/3 146/184/3
f 150/190/3 146/187/3 148/186/3
f 151/191/3 152/192/3 153/193/3
f 154/194/3 142/195/3 152/196/3
f 154/197/3 152/192/3 151/191/3
f 155/198/3 149/199/3 145/183/3
f 155/200/3 142/195/3 154/194/3
f 155/198/3 145/183/3 142/180/3
f 156/201/3 149/199/3 155/198/3
f 157/202/3 148/186/3 149/188/3
f 157/203/3 149/199/3 156/201/3
f 158/204/3 150/189/3 148/205/3
f 158/206/3 148/186/3 157/202/3
f 159/207/3 139/177/3 150/189/3
f 159/207/3 150/189/3 158/204/3
f 159/207/3 140/178/3 139/177/3
f 160/208/3 161/209/3 140/210/3
f 160/211/3 140/178/3 159/207/3
f 162/212/3 161/209/3 160/208/3
f 163/213/3 156/201/3 155/198/3
f 164/214/3 156/201/3 163/213/3
f 165/215/3 159/207/3 158/204/3
f 166/216/3 160/208/3 159/217/3
f 166/218/3 159/207/3 165/215/3
f 167/219/3 160/208/3 166/216/3
f 168/220/3 165/221/3 169/222/3
f 168/223/3 166/218/3 165/215/3
f 168/223/3 167/224/3 166/218/3
f 170/225/3 167/224/3 168/223/3
f 171/226/3 172/227/3 173/228/3
f 174/229/3 163/230/3 172/231/3
f 174/232/3 172/227/3 171/226/3
f 175/233/3 169/234/3 164/214/3
f 175/235/3 163/230/3 174/229/3
f 175/233/3 164/214/3 163/213/3
f 176/236/3 169/234/3 175/233/3
f 177/237/3 170/238/3 168/220/3
f 177/239/3 169/234/3 176/236/3
f 177/237/3 168/220/3 169/222/3
f 178/240/3 167/224/3 170/225/3
f 178/241/3 170/238/3 177/237/3
f 179/242/3 167/224/3 178/240/3
f 180/243/3 167/224/3 179/242/3
f 181/244/3 176/236/3 175/233/3
f 182/245/3 176/236/3 181/244/3
f 183/246/3 167/224/3 180/243/3
f 184/247/3 185/248/3 167/219/3
f 184/249/3 167/224/3 183/246/3
f 186/250/3 185/248/3 184/247/3
f 187/251/4 188/252/4 189/253/4
f 190/254/4 191/255/4 192/256/4
f 192/256/4 191/255/4 193/257/4
f 194/258/4 189/253/4 195/259/4
f 196/260/4 195/261/4 197/262/4
f 195/259/4 189/253/4 198/263/4
f 197/262/4 195/261/4 198/264/4
f 199/265/4 200/266/4 201/267/4
f 200/268/4 192/269/4 202/270/4
f 201/267/4 200/266/4 202/271/4
f 193/257/4 196/272/4 203/273/4
f 202/270/4 192/269/4 203/274/4
f 192/256/4 193/257/4 203/273/4
f 203/273/4 196/272/4 204/275/4
f 196/260/4 197/262/4 205/276/4
f 204/275/4 196/272/4 205/277/4
f 197/278/4 198/263/4 206/279/4
f 205/276/4 197/262/4 206/280/4
f 198/263/4 189/253/4 207/281/4
f 206/279/4 198/263/4 207/281/4
f 189/253/4 188/252/4 207/281/4
f 188/282/4 208/283/4 209/284/4
f 207/281/4 188/252/4 209/285/4
f 209/284/4 208/283/4 210/286/4
f 203/273/4 204/275/4 211/287/4
f 211/287/4 204/275/4 212/288/4
f 206/279/4 207/281/4 213/289/4
f 207/290/4 209/284/4 214/291/4
f 213/289/4 207/281/4 214/292/4
f 214/291/4 209/284/4 215/293/4
f 216/294/4 213/295/4 217/296/4
f 213/289/4 214/292/4 217/297/4
f 214/292/4 215/298/4 217/297/4
f 217/297/4 215/298/4 218/299/4
f 219/300/4 220/301/4 221/302/4
f 220/303/4 211/304/4 222/305/4
f 221/302/4 220/301/4 222/306/4
f 212/288/4 216/307/4 223/308/4
f 222/305/4 211/304/4 223/309/4
f 211/287/4 212/288/4 223/308/4
f 223/308/4 216/307/4 224/310/4
f 217/296/4 218/311/4 225/312/4
f 224/310/4 216/307/4 225/313/4
f 216/294/4 217/296/4 225/312/4
f 218/299/4 215/298/4 226/314/4
f 225/312/4 218/311/4 226/315/4
f 226/314/4 215/298/4 227/316/4
f 227/316/4 215/298/4 228/317/4
f 223/308/4 224/310/4 229/318/4
f 229/318/4 224/310/4 230/319/4
f 228/317/4 215/298/4 231/320/4
f 215/293/4 232/321/4 233/322/4
f 231/320/4 215/298/4 233/323/4
f 233/322/4 232/321/4 234/324/4
f 235/325/4 236/326/4 237/327/4
f 237/327/4 236/326/4 238/328/4
f 239/329/4 240/330/4 241/331/4
f 241/331/4 240/330/4 242/332/4
f 243/333/4 244/334/4 245/335/4
f 244/336/4 246/337/4 247/338/4
f 245/335/4 244/334/4 247/339/4
f 246/340/4 248/341/4 249/342/4
f 247/338/4 246/337/4 249/343/4
f 248/344/4 250/345/4 251/346/4
f 249/342/4 248/341/4 251/347/4
f 251/346/4 250/345/4 252/348/4
f 253/349/5 254/350/5 255/351/5
f 256/352/5 254/350/5 253/349/5
f 257/353/5 258/354/5 259/355/5
f 260/356/5 258/354/5 257/353/5
f 261/357/5 262/358/5 263/359/5
f 264/360/5 262/358/5 261/357/5
f 265/361/5 266/362/5 267/363/5
f 268/364/5 266/362/5 265/361/5
f 269/365/5 270/366/5 271/367/5
f 272/368/5 270/366/5 269/365/5
f 273/369/5 274/370/5 275/371/5
f 276/372/5 274/370/5 273/369/5
f 277/373/5 278/374/5 279/375/5
f 280/376/5 278/374/5 277/373/5
f 281/377/5 282/378/5 283/379/5
f 284/380/5 282/378/5 281/377/5
f 285/381/5 286/382/5 287/383/5
f 288/384/5 286/382/5 285/381/5
f 289/385/6 290/386/6 291/387/6
f 291/387/6 290/386/6 292/388/6
f 292/388/6 290/386/6 293/389/6
f 293/389/6 290/386/6 294/390/6
f 289/385/6 291/387/6 295/391/6
f 292/388/6 293/389/6 296/392/6
f 296/392/6 293/389/6 297/393/6
f 294/390/6 290/386/6 298/394/6
f 296/392/6 297/393/6 299/395/6
f 297/393/6 298/394/6 299/395/6
f 289/385/6 295/391/6 299/395/6
f 295/391/6 296/392/6 299/395/6
f 298/394/6 290/386/6 300/396/6
f 299/395/6 298/394/6 300/396/6
f 301/397/6 302/398/6 303/399/6
f 303/399/6 302/398/6 304/400/6
f 305/401/6 306/402/6 307/403/6
f 307/403/6 306/402/6 308/404/6
f 301/397/6 303/399/6 309/405/6
f 304/400/6 302/398/6 310/406/6
f 305/401/6 307/403/6 311/407/6
f 308/404/6 306/402/6 312/408/6
f 301/397/6 309/405/6 313/409/6
f 309/405/6 310/406/6 313/409/6
f 310/406/6 302/398/6 314/410/6
f 313/409/6 310/406/6 314/410/6
f 311/407/6 312/408/6 315/411/6
f 305/401/6 311/407/6 315/411/6
f 312/408/6 306/402/6 316/412/6
f 315/411/6 312/408/6 316/412/6
f 317/413/6 318/414/6 319/415/6
f 319/415/6 318/414/6 320/416/6
f 321/417/6 322/418/6 323/419/6
f 323/419/6 322/418/6 324/420/6
f 325/421/6 326/422/6 327/423/6
f 327/423/6 326/422/6 328/424/6
f 329/425/6 330/426/6 331/427/6
f 331/427/6 330/426/6 332/428/6
f 333/429/6 334/430/6 335/431/6
f 335/431/6 334/430/6 336/432/6
f 337/433/6 338/434/6 339/435/6
f 339/435/6 338/434/6 340/436/6
