# Blender v2.79 (sub 0) OBJ File: ''
# www.blender.org
mtllib food_1x1_01.mtl
o food_1x1_01.001
v -0.800000 0.600000 0.800000
v -0.800000 0.000000 -0.800000
v -0.800000 -0.000000 0.800000
v -0.800000 0.600000 -0.800000
v -0.800000 1.200000 0.800000
v -0.800000 1.200000 -0.800000
v -0.800000 1.600000 0.800001
v -0.800000 1.600000 -0.799999
v -0.600000 2.300000 0.600001
v -0.600000 1.600000 -0.599999
v -0.600000 1.600000 0.600001
v -0.600000 2.400000 0.800001
v -0.600000 2.300000 0.800001
v -0.600000 2.400000 0.700001
v -0.600000 2.500000 0.700001
v -0.600000 2.500000 0.600001
v -0.600000 2.500000 -0.599999
v -0.600000 2.600000 0.600001
v -0.600000 2.600000 -0.599999
v -0.500000 2.700000 0.400001
v -0.500000 2.600000 -0.499999
v -0.500000 2.600000 0.400001
v -0.500000 2.700000 -0.499999
v -0.400000 2.300000 0.600001
v -0.400000 1.900000 0.500001
v -0.400000 1.900000 0.600001
v -0.400000 2.300000 0.500001
v -0.400000 2.900000 0.600001
v -0.400000 2.800000 0.500001
v -0.400000 2.800000 0.600001
v -0.400000 2.900000 0.500001
v -0.400000 3.000000 0.600001
v -0.400000 3.000000 0.500001
v -0.300000 2.800000 0.600001
v -0.300000 2.700000 0.500001
v -0.300000 2.700000 0.600001
v -0.300000 2.800000 0.500001
v -0.300000 2.800000 0.200001
v -0.300000 2.700000 -0.299999
v -0.300000 2.700000 0.200001
v -0.300000 2.800000 -0.299999
v -0.300000 3.400000 0.600001
v -0.300000 3.000000 0.500001
v -0.300000 3.000000 0.600001
v -0.300000 3.400000 0.500001
v -0.200000 2.700000 0.600001
v -0.200000 2.600000 0.500001
v -0.200000 2.600000 0.600001
v -0.200000 2.700000 0.500001
v -0.200000 2.800000 0.300001
v -0.200000 2.700000 0.200001
v -0.200000 2.700000 0.300001
v -0.200000 2.800000 0.200001
v -0.200000 2.900000 0.400001
v -0.200000 2.800000 0.400001
v -0.200000 2.900000 0.300001
v -0.200000 2.900000 0.000001
v -0.200000 2.800000 -0.099999
v -0.200000 2.800000 0.000001
v -0.200000 2.900000 -0.099999
v -0.200000 3.000000 0.500001
v -0.200000 2.900000 0.500001
v -0.200000 3.000000 0.400001
v -0.200000 3.500000 0.600001
v -0.200000 3.400000 0.500001
v -0.200000 3.400000 0.600001
v -0.200000 3.500000 0.500001
v 0.000000 2.300000 0.600001
v 0.000000 1.900000 0.500001
v 0.000000 1.900000 0.600001
v 0.000000 2.300000 0.500001
v 0.100000 2.800000 0.300001
v 0.100000 2.700000 0.200001
v 0.100000 2.700000 0.300001
v 0.100000 2.800000 0.200001
v 0.100000 2.900000 0.400001
v 0.100000 2.800000 0.400001
v 0.100000 2.900000 0.300001
v 0.100000 3.000000 0.500001
v 0.100000 2.900000 0.500001
v 0.100000 3.000000 0.400001
v 0.500000 1.700000 0.500001
v 0.500000 1.600000 0.500001
v 0.500000 1.600000 0.600001
v 0.500000 2.100000 0.400001
v 0.500000 1.700000 0.400001
v 0.500000 2.300000 0.600001
v 0.500000 2.300000 0.400001
v -0.500000 1.700000 0.600001
v -0.500000 1.700000 0.400001
v -0.500000 2.100000 0.400001
v -0.500000 2.300000 0.600001
v -0.500000 2.300000 0.400001
v -0.100000 1.900000 0.600001
v -0.100000 1.900000 0.500001
v -0.100000 2.300000 0.600001
v -0.100000 2.300000 0.500001
v -0.100000 2.700000 0.300001
v -0.100000 2.700000 0.200001
v -0.100000 2.800000 0.300001
v -0.100000 2.800000 0.200001
v -0.100000 2.800000 0.400001
v -0.100000 2.900000 0.400001
v -0.100000 2.900000 0.300001
v -0.100000 2.900000 0.500001
v -0.100000 3.000000 0.500001
v -0.100000 3.000000 0.400001
v 0.000000 3.000000 0.600001
v 0.000000 3.000000 0.500001
v 0.000000 3.200000 0.600001
v 0.000000 3.200000 0.500001
v 0.000000 3.300000 0.600001
v 0.000000 3.300000 0.500001
v 0.000000 3.400000 0.600001
v 0.000000 3.400000 0.500001
v 0.100000 1.600000 0.600001
v 0.100000 1.600000 0.500001
v 0.100000 1.700000 0.600001
v 0.100000 1.700000 0.500001
v 0.200000 2.600000 0.600001
v 0.200000 2.600000 0.500001
v 0.200000 2.700000 0.600001
v 0.200000 2.700000 0.500001
v 0.200000 2.700000 0.300001
v 0.200000 2.700000 0.200001
v 0.200000 2.800000 0.300001
v 0.200000 2.800000 0.200001
v 0.200000 2.800000 0.400001
v 0.200000 2.900000 0.400001
v 0.200000 2.900000 0.300001
v 0.200000 2.800000 0.000001
v 0.200000 2.800000 -0.099999
v 0.200000 2.900000 0.000001
v 0.200000 2.900000 -0.099999
v 0.200000 2.900000 0.500001
v 0.200000 3.000000 0.500001
v 0.200000 3.000000 0.400001
v 0.300000 1.900000 0.600001
v 0.300000 1.900000 0.500001
v 0.300000 2.300000 0.600001
v 0.300000 2.300000 0.500001
v 0.300000 2.700000 0.600001
v 0.300000 2.700000 0.500001
v 0.300000 2.800000 0.600001
v 0.300000 2.800000 0.500001
v 0.300000 2.700000 0.200001
v 0.300000 2.700000 -0.299999
v 0.300000 2.800000 0.200001
v 0.300000 2.800000 -0.299999
v 0.300000 3.400000 0.600001
v 0.300000 3.400000 0.500001
v 0.300000 3.500000 0.600001
v 0.300000 3.500000 0.500001
v 0.400000 2.800000 0.600001
v 0.400000 2.800000 0.500001
v 0.400000 2.900000 0.600001
v 0.400000 2.900000 0.500001
v 0.400000 3.000000 0.600001
v 0.400000 3.000000 0.500001
v 0.400000 3.200000 0.600001
v 0.400000 3.200000 0.500001
v 0.400000 3.300000 0.600001
v 0.400000 3.300000 0.500001
v 0.500000 2.600000 0.400001
v 0.500000 2.600000 -0.499999
v 0.500000 2.700000 0.400001
v 0.500000 2.700000 -0.499999
v 0.600000 1.600000 0.600001
v 0.600000 1.600000 -0.599999
v 0.600000 2.300000 0.600001
v 0.600000 2.300000 0.800001
v 0.600000 2.400000 0.800001
v 0.600000 2.400000 0.700001
v 0.600000 2.500000 0.700001
v 0.600000 2.500000 0.600001
v 0.600000 2.500000 -0.599999
v 0.600000 2.600000 0.600001
v 0.600000 2.600000 -0.599999
v 0.800000 -0.000000 0.800000
v 0.800000 0.000000 -0.800000
v 0.800000 0.600000 0.800000
v 0.800000 0.600000 -0.800000
v 0.800000 1.200000 0.800000
v 0.800000 1.200000 -0.800000
v 0.800000 1.600000 0.800001
v 0.800000 1.600000 -0.799999
v 0.600000 2.300000 0.800001
v -0.600000 2.400000 0.800001
v -0.600000 2.300000 0.800001
v 0.600000 2.400000 0.800001
v 0.800000 -0.000000 0.800000
v -0.800000 0.600000 0.800000
v -0.800000 -0.000000 0.800000
v 0.800000 0.600000 0.800000
v -0.800000 1.200000 0.800000
v 0.800000 1.200000 0.800000
v -0.800000 1.600000 0.800001
v 0.800000 1.600000 0.800001
v 0.600000 2.400000 0.700001
v -0.600000 2.500000 0.700001
v -0.600000 2.400000 0.700001
v 0.600000 2.500000 0.700001
v -0.500000 1.700000 0.600001
v -0.600000 2.300000 0.600001
v -0.600000 1.600000 0.600001
v -0.500000 2.300000 0.600001
v -0.300000 2.800000 0.600001
v -0.400000 2.900000 0.600001
v -0.400000 2.800000 0.600001
v -0.300000 3.000000 0.600001
v -0.400000 3.000000 0.600001
v -0.200000 2.600000 0.600001
v -0.600000 2.600000 0.600001
v -0.600000 2.500000 0.600001
v -0.200000 2.700000 0.600001
v -0.300000 2.700000 0.600001
v -0.200000 3.000000 0.600001
v -0.300000 3.400000 0.600001
v -0.200000 3.400000 0.600001
v -0.100000 1.900000 0.600001
v -0.400000 2.300000 0.600001
v -0.400000 1.900000 0.600001
v -0.100000 2.300000 0.600001
v -0.100000 3.000000 0.600001
v -0.100000 3.400000 0.600001
v -0.200000 3.500000 0.600001
v -0.100000 3.500000 0.600001
v 0.000000 3.000000 0.600001
v 0.000000 3.200000 0.600001
v 0.000000 3.300000 0.600001
v 0.000000 3.400000 0.600001
v 0.100000 1.600000 0.600001
v 0.100000 1.700000 0.600001
v 0.200000 2.600000 0.600001
v 0.200000 2.700000 0.600001
v 0.300000 1.900000 0.600001
v 0.000000 2.300000 0.600001
v 0.000000 1.900000 0.600001
v 0.300000 2.300000 0.600001
v 0.300000 2.700000 0.600001
v 0.300000 2.800000 0.600001
v 0.300000 3.400000 0.600001
v 0.300000 3.500000 0.600001
v 0.400000 2.800000 0.600001
v 0.400000 2.900000 0.600001
v 0.400000 3.000000 0.600001
v 0.400000 3.200000 0.600001
v 0.400000 3.300000 0.600001
v 0.600000 1.600000 0.600001
v 0.500000 2.300000 0.600001
v 0.500000 1.600000 0.600001
v 0.600000 2.300000 0.600001
v 0.600000 2.500000 0.600001
v 0.600000 2.600000 0.600001
v 0.500000 1.600000 0.500001
v 0.100000 1.700000 0.500001
v 0.100000 1.600000 0.500001
v 0.500000 1.700000 0.500001
v -0.200000 1.700000 0.400001
v -0.500000 2.100000 0.400001
v -0.500000 1.700000 0.400001
v -0.200000 2.100000 0.400001
v -0.500000 2.300000 0.400001
v -0.200000 2.200000 0.400001
v -0.100000 1.800000 0.400001
v -0.100000 2.100000 0.400001
v -0.100000 2.800000 0.400001
v -0.200000 2.900000 0.400001
v -0.200000 2.800000 0.400001
v -0.100000 2.900000 0.400001
v 0.000000 2.000000 0.400001
v 0.000000 2.100000 0.400001
v 0.100000 1.700000 0.400001
v 0.100000 1.800000 0.400001
v 0.100000 2.000000 0.400001
v 0.200000 1.700000 0.400001
v 0.200000 2.100000 0.400001
v 0.200000 2.200000 0.400001
v 0.200000 2.800000 0.400001
v 0.100000 2.900000 0.400001
v 0.100000 2.800000 0.400001
v 0.200000 2.900000 0.400001
v 0.500000 1.700000 0.400001
v 0.500000 2.100000 0.400001
v 0.500000 2.300000 0.400001
v 0.500000 2.600000 0.400001
v -0.500000 2.700000 0.400001
v -0.500000 2.600000 0.400001
v 0.500000 2.700000 0.400001
v -0.100000 2.700000 0.300001
v -0.200000 2.800000 0.300001
v -0.200000 2.700000 0.300001
v -0.100000 2.800000 0.300001
v 0.200000 2.700000 0.300001
v 0.100000 2.800000 0.300001
v 0.100000 2.700000 0.300001
v 0.200000 2.800000 0.300001
v -0.200000 2.700000 0.200001
v -0.300000 2.800000 0.200001
v -0.300000 2.700000 0.200001
v -0.200000 2.800000 0.200001
v 0.100000 2.700000 0.200001
v -0.100000 2.800000 0.200001
v -0.100000 2.700000 0.200001
v 0.100000 2.800000 0.200001
v 0.300000 2.700000 0.200001
v 0.200000 2.800000 0.200001
v 0.200000 2.700000 0.200001
v 0.300000 2.800000 0.200001
v 0.200000 2.800000 0.000001
v -0.200000 2.900000 0.000001
v -0.200000 2.800000 0.000001
v 0.200000 2.900000 0.000001
v -0.400000 2.800000 0.500001
v -0.400000 2.900000 0.500001
v -0.300000 2.800000 0.500001
v -0.400000 3.000000 0.500001
v -0.300000 3.000000 0.500001
v -0.300000 2.700000 0.500001
v -0.200000 2.700000 0.500001
v -0.200000 2.900000 0.500001
v -0.300000 3.400000 0.500001
v -0.200000 3.000000 0.500001
v -0.200000 3.400000 0.500001
v -0.400000 1.900000 0.500001
v -0.400000 2.300000 0.500001
v -0.100000 1.900000 0.500001
v -0.100000 2.300000 0.500001
v -0.100000 2.900000 0.500001
v -0.100000 3.000000 0.500001
v -0.200000 3.500000 0.500001
v -0.100000 3.400000 0.500001
v -0.100000 3.500000 0.500001
v 0.000000 3.000000 0.500001
v 0.000000 3.200000 0.500001
v 0.000000 3.300000 0.500001
v 0.000000 3.400000 0.500001
v 0.100000 2.900000 0.500001
v 0.100000 3.000000 0.500001
v -0.200000 2.600000 0.500001
v 0.200000 2.600000 0.500001
v 0.200000 2.700000 0.500001
v 0.200000 2.900000 0.500001
v 0.000000 1.900000 0.500001
v 0.000000 2.300000 0.500001
v 0.300000 1.900000 0.500001
v 0.300000 2.300000 0.500001
v 0.300000 2.700000 0.500001
v 0.300000 2.800000 0.500001
v 0.300000 3.400000 0.500001
v 0.300000 3.500000 0.500001
v 0.400000 2.800000 0.500001
v 0.200000 3.000000 0.500001
v 0.400000 2.900000 0.500001
v 0.400000 3.000000 0.500001
v 0.400000 3.200000 0.500001
v 0.400000 3.300000 0.500001
v -0.200000 2.900000 0.400001
v -0.200000 3.000000 0.400001
v -0.100000 2.900000 0.400001
v -0.100000 3.000000 0.400001
v 0.100000 2.900000 0.400001
v 0.100000 3.000000 0.400001
v 0.200000 2.900000 0.400001
v 0.200000 3.000000 0.400001
v -0.200000 2.800000 0.300001
v -0.200000 2.900000 0.300001
v -0.100000 2.800000 0.300001
v -0.100000 2.900000 0.300001
v 0.100000 2.800000 0.300001
v 0.100000 2.900000 0.300001
v 0.200000 2.800000 0.300001
v 0.200000 2.900000 0.300001
v -0.200000 2.800000 -0.099999
v -0.200000 2.900000 -0.099999
v 0.200000 2.800000 -0.099999
v 0.200000 2.900000 -0.099999
v -0.300000 2.700000 -0.299999
v -0.300000 2.800000 -0.299999
v 0.300000 2.700000 -0.299999
v 0.300000 2.800000 -0.299999
v -0.500000 2.600000 -0.499999
v -0.500000 2.700000 -0.499999
v 0.500000 2.600000 -0.499999
v 0.500000 2.700000 -0.499999
v -0.600000 1.600000 -0.599999
v -0.600000 2.500000 -0.599999
v 0.600000 1.600000 -0.599999
v -0.600000 2.600000 -0.599999
v 0.600000 2.500000 -0.599999
v 0.600000 2.600000 -0.599999
v -0.800000 0.000000 -0.800000
v -0.800000 0.600000 -0.800000
v 0.800000 0.000000 -0.800000
v -0.800000 1.200000 -0.800000
v 0.800000 0.600000 -0.800000
v -0.800000 1.600000 -0.799999
v 0.800000 1.200000 -0.800000
v 0.800000 1.600000 -0.799999
v -0.800000 0.000000 -0.800000
v 0.800000 -0.000000 0.800000
v -0.800000 -0.000000 0.800000
v 0.800000 0.000000 -0.800000
v -0.400000 1.900000 0.500001
v -0.100000 1.900000 0.600001
v -0.400000 1.900000 0.600001
v -0.100000 1.900000 0.500001
v 0.000000 1.900000 0.500001
v 0.300000 1.900000 0.600001
v 0.000000 1.900000 0.600001
v 0.300000 1.900000 0.500001
v -0.600000 2.300000 0.600001
v 0.600000 2.300000 0.800001
v -0.600000 2.300000 0.800001
v -0.500000 2.300000 0.600001
v -0.400000 2.300000 0.600001
v -0.100000 2.300000 0.600001
v 0.000000 2.300000 0.600001
v 0.300000 2.300000 0.600001
v 0.500000 2.300000 0.600001
v 0.600000 2.300000 0.600001
v -0.400000 2.300000 0.500001
v -0.100000 2.300000 0.500001
v 0.000000 2.300000 0.500001
v 0.300000 2.300000 0.500001
v -0.500000 2.300000 0.400001
v 0.500000 2.300000 0.400001
v -0.300000 2.700000 0.500001
v -0.200000 2.700000 0.600001
v -0.300000 2.700000 0.600001
v -0.200000 2.700000 0.500001
v 0.200000 2.700000 0.500001
v 0.300000 2.700000 0.600001
v 0.200000 2.700000 0.600001
v 0.300000 2.700000 0.500001
v -0.400000 2.800000 0.500001
v -0.300000 2.800000 0.600001
v -0.400000 2.800000 0.600001
v -0.300000 2.800000 0.500001
v 0.300000 2.800000 0.500001
v 0.400000 2.800000 0.600001
v 0.300000 2.800000 0.600001
v 0.400000 2.800000 0.500001
v -0.200000 2.800000 0.300001
v -0.100000 2.800000 0.400001
v -0.200000 2.800000 0.400001
v -0.100000 2.800000 0.300001
v 0.100000 2.800000 0.300001
v 0.200000 2.800000 0.400001
v 0.100000 2.800000 0.400001
v 0.200000 2.800000 0.300001
v -0.200000 2.900000 0.400001
v -0.100000 2.900000 0.500001
v -0.200000 2.900000 0.500001
v -0.100000 2.900000 0.400001
v 0.100000 2.900000 0.400001
v 0.200000 2.900000 0.500001
v 0.100000 2.900000 0.500001
v 0.200000 2.900000 0.400001
v 0.000000 3.200000 0.500001
v 0.400000 3.200000 0.600001
v 0.000000 3.200000 0.600001
v 0.400000 3.200000 0.500001
v 0.000000 3.400000 0.500001
v 0.300000 3.400000 0.600001
v 0.000000 3.400000 0.600001
v 0.300000 3.400000 0.500001
v -0.800000 1.600000 0.800001
v 0.800000 1.600000 0.800001
v -0.600000 1.600000 0.600001
v 0.100000 1.600000 0.600001
v 0.500000 1.600000 0.600001
v 0.600000 1.600000 0.600001
v 0.100000 1.600000 0.500001
v 0.500000 1.600000 0.500001
v -0.600000 1.600000 -0.599999
v 0.600000 1.600000 -0.599999
v -0.800000 1.600000 -0.799999
v 0.800000 1.600000 -0.799999
v -0.500000 1.700000 0.600001
v 0.100000 1.700000 0.600001
v 0.100000 1.700000 0.500001
v -0.500000 1.700000 0.400001
v -0.200000 1.700000 0.400001
v 0.500000 1.700000 0.500001
v 0.100000 1.700000 0.400001
v 0.200000 1.700000 0.400001
v 0.500000 1.700000 0.400001
v -0.600000 2.400000 0.800001
v 0.600000 2.400000 0.800001
v -0.600000 2.400000 0.700001
v 0.600000 2.400000 0.700001
v -0.600000 2.500000 0.700001
v 0.600000 2.500000 0.700001
v -0.600000 2.500000 0.600001
v 0.600000 2.500000 0.600001
v -0.600000 2.600000 0.600001
v -0.200000 2.600000 0.600001
v -0.200000 2.600000 0.500001
v 0.200000 2.600000 0.600001
v 0.600000 2.600000 0.600001
v 0.200000 2.600000 0.500001
v -0.500000 2.600000 0.400001
v 0.500000 2.600000 0.400001
v -0.500000 2.600000 -0.499999
v 0.500000 2.600000 -0.499999
v -0.600000 2.600000 -0.599999
v 0.600000 2.600000 -0.599999
v -0.500000 2.700000 0.400001
v 0.500000 2.700000 0.400001
v -0.200000 2.700000 0.300001
v -0.100000 2.700000 0.300001
v 0.100000 2.700000 0.300001
v 0.200000 2.700000 0.300001
v -0.300000 2.700000 0.200001
v -0.200000 2.700000 0.200001
v -0.100000 2.700000 0.200001
v 0.100000 2.700000 0.200001
v 0.200000 2.700000 0.200001
v 0.300000 2.700000 0.200001
v -0.300000 2.700000 -0.299999
v 0.300000 2.700000 -0.299999
v -0.500000 2.700000 -0.499999
v 0.500000 2.700000 -0.499999
v -0.200000 2.800000 0.300001
v -0.100000 2.800000 0.300001
v -0.200000 2.800000 0.200001
v -0.100000 2.800000 0.200001
v 0.100000 2.800000 0.300001
v 0.200000 2.800000 0.300001
v 0.100000 2.800000 0.200001
v 0.200000 2.800000 0.200001
v -0.200000 2.800000 0.000001
v 0.300000 2.800000 0.200001
v -0.300000 2.800000 0.200001
v 0.200000 2.800000 0.000001
v -0.200000 2.800000 -0.099999
v 0.200000 2.800000 -0.099999
v -0.300000 2.800000 -0.299999
v 0.300000 2.800000 -0.299999
v -0.200000 2.900000 0.400001
v -0.100000 2.900000 0.400001
v -0.200000 2.900000 0.300001
v -0.100000 2.900000 0.300001
v 0.100000 2.900000 0.400001
v 0.200000 2.900000 0.400001
v 0.100000 2.900000 0.300001
v 0.200000 2.900000 0.300001
v -0.200000 2.900000 0.000001
v 0.200000 2.900000 0.000001
v -0.200000 2.900000 -0.099999
v 0.200000 2.900000 -0.099999
v -0.400000 3.000000 0.600001
v -0.300000 3.000000 0.600001
v -0.400000 3.000000 0.500001
v -0.300000 3.000000 0.500001
v 0.000000 3.000000 0.600001
v 0.400000 3.000000 0.600001
v 0.000000 3.000000 0.500001
v 0.100000 3.000000 0.500001
v 0.200000 3.000000 0.500001
v 0.400000 3.000000 0.500001
v -0.200000 3.000000 0.500001
v -0.100000 3.000000 0.500001
v -0.200000 3.000000 0.400001
v -0.100000 3.000000 0.400001
v 0.100000 3.000000 0.400001
v 0.200000 3.000000 0.400001
v 0.000000 3.300000 0.600001
v 0.400000 3.300000 0.600001
v 0.000000 3.300000 0.500001
v 0.400000 3.300000 0.500001
v -0.300000 3.400000 0.600001
v -0.200000 3.400000 0.600001
v -0.300000 3.400000 0.500001
v -0.200000 3.400000 0.500001
v -0.200000 3.500000 0.600001
v -0.100000 3.500000 0.600001
v -0.200000 3.500000 0.500001
v 0.300000 3.500000 0.600001
v -0.100000 3.500000 0.500001
v 0.300000 3.500000 0.500001
vt 0.087891 0.500000
vt 0.087891 0.500000
vt 0.087891 0.500000
vt 0.087891 0.500000
vt 0.080078 0.500000
vt 0.080078 0.500000
vt 0.080078 0.500000
vt 0.080078 0.500000
vt 0.005859 0.500000
vt 0.005859 0.500000
vt 0.005859 0.500000
vt 0.005859 0.500000
vt 0.072266 0.500000
vt 0.072266 0.500000
vt 0.072266 0.500000
vt 0.052734 0.500000
vt 0.052734 0.500000
vt 0.052734 0.500000
vt 0.052734 0.500000
vt 0.052734 0.500000
vt 0.072266 0.500000
vt 0.052734 0.500000
vt 0.072266 0.500000
vt 0.115234 0.500000
vt 0.115234 0.500000
vt 0.115234 0.500000
vt 0.115234 0.500000
vt 0.115234 0.500000
vt 0.115234 0.500000
vt 0.115234 0.500000
vt 0.115234 0.500000
vt 0.001953 0.500000
vt 0.001953 0.500000
vt 0.001953 0.500000
vt 0.001953 0.500000
vt 0.107422 0.500000
vt 0.107422 0.500000
vt 0.107422 0.500000
vt 0.107422 0.500000
vt 0.068359 0.500000
vt 0.068359 0.500000
vt 0.068359 0.500000
vt 0.068359 0.500000
vt 0.068359 0.500000
vt 0.068359 0.500000
vt 0.068359 0.500000
vt 0.068359 0.500000
vt 0.115234 0.500000
vt 0.115234 0.500000
vt 0.115234 0.500000
vt 0.115234 0.500000
vt 0.099609 0.500000
vt 0.099609 0.500000
vt 0.099609 0.500000
vt 0.099609 0.500000
vt 0.068359 0.500000
vt 0.068359 0.500000
vt 0.068359 0.500000
vt 0.068359 0.500000
vt 0.087891 0.500000
vt 0.087891 0.500000
vt 0.087891 0.500000
vt 0.087891 0.500000
vt 0.087891 0.500000
vt 0.087891 0.500000
vt 0.087891 0.500000
vt 0.115234 0.500000
vt 0.115234 0.500000
vt 0.115234 0.500000
vt 0.115234 0.500000
vt 0.087891 0.500000
vt 0.087891 0.500000
vt 0.087891 0.500000
vt 0.099609 0.500000
vt 0.099609 0.500000
vt 0.099609 0.500000
vt 0.099609 0.500000
vt 0.001953 0.500000
vt 0.001953 0.500000
vt 0.001953 0.500000
vt 0.001953 0.500000
vt 0.087891 0.500000
vt 0.087891 0.500000
vt 0.087891 0.500000
vt 0.087891 0.500000
vt 0.087891 0.500000
vt 0.087891 0.500000
vt 0.087891 0.500000
vt 0.087891 0.500000
vt 0.087891 0.500000
vt 0.087891 0.500000
vt 0.072266 0.500000
vt 0.072266 0.500000
vt 0.072266 0.500000
vt 0.072266 0.500000
vt 0.072266 0.500000
vt 0.072266 0.500000
vt 0.072266 0.500000
vt 0.072266 0.500000
vt 0.072266 0.500000
vt 0.072266 0.500000
vt 0.072266 0.500000
vt 0.072266 0.500000
vt 0.001953 0.500000
vt 0.001953 0.500000
vt 0.001953 0.500000
vt 0.001953 0.500000
vt 0.087891 0.500000
vt 0.087891 0.500000
vt 0.087891 0.500000
vt 0.087891 0.500000
vt 0.087891 0.500000
vt 0.087891 0.500000
vt 0.087891 0.500000
vt 0.087891 0.500000
vt 0.087891 0.500000
vt 0.087891 0.500000
vt 0.099609 0.500000
vt 0.099609 0.500000
vt 0.099609 0.500000
vt 0.099609 0.500000
vt 0.099609 0.500000
vt 0.099609 0.500000
vt 0.099609 0.500000
vt 0.099609 0.500000
vt 0.072266 0.500000
vt 0.072266 0.500000
vt 0.072266 0.500000
vt 0.072266 0.500000
vt 0.068359 0.500000
vt 0.068359 0.500000
vt 0.068359 0.500000
vt 0.068359 0.500000
vt 0.087891 0.500000
vt 0.087891 0.500000
vt 0.087891 0.500000
vt 0.087891 0.500000
vt 0.087891 0.500000
vt 0.087891 0.500000
vt 0.087891 0.500000
vt 0.115234 0.500000
vt 0.115234 0.500000
vt 0.115234 0.500000
vt 0.115234 0.500000
vt 0.087891 0.500000
vt 0.087891 0.500000
vt 0.087891 0.500000
vt 0.001953 0.500000
vt 0.001953 0.500000
vt 0.001953 0.500000
vt 0.001953 0.500000
vt 0.068359 0.500000
vt 0.068359 0.500000
vt 0.068359 0.500000
vt 0.068359 0.500000
vt 0.115234 0.500000
vt 0.115234 0.500000
vt 0.115234 0.500000
vt 0.115234 0.500000
vt 0.091797 0.500000
vt 0.091797 0.500000
vt 0.091797 0.500000
vt 0.091797 0.500000
vt 0.107422 0.500000
vt 0.107422 0.500000
vt 0.107422 0.500000
vt 0.107422 0.500000
vt 0.068359 0.500000
vt 0.068359 0.500000
vt 0.068359 0.500000
vt 0.068359 0.500000
vt 0.091797 0.500000
vt 0.091797 0.500000
vt 0.091797 0.500000
vt 0.091797 0.500000
vt 0.115234 0.500000
vt 0.115234 0.500000
vt 0.115234 0.500000
vt 0.115234 0.500000
vt 0.072266 0.500000
vt 0.072266 0.500000
vt 0.072266 0.500000
vt 0.052734 0.500000
vt 0.052734 0.500000
vt 0.052734 0.500000
vt 0.052734 0.500000
vt 0.052734 0.500000
vt 0.072266 0.500000
vt 0.052734 0.500000
vt 0.072266 0.500000
vt 0.115234 0.500000
vt 0.115234 0.500000
vt 0.115234 0.500000
vt 0.115234 0.500000
vt 0.087891 0.500000
vt 0.087891 0.500000
vt 0.087891 0.500000
vt 0.087891 0.500000
vt 0.080078 0.500000
vt 0.080078 0.500000
vt 0.080078 0.500000
vt 0.080078 0.500000
vt 0.005859 0.500000
vt 0.005859 0.500000
vt 0.005859 0.500000
vt 0.005859 0.500000
vt 0.052734 0.500000
vt 0.052734 0.500000
vt 0.052734 0.500000
vt 0.052734 0.500000
vt 0.087891 0.500000
vt 0.087891 0.500000
vt 0.087891 0.500000
vt 0.080078 0.500000
vt 0.080078 0.500000
vt 0.080078 0.500000
vt 0.087891 0.500000
vt 0.005859 0.500000
vt 0.005859 0.500000
vt 0.005859 0.500000
vt 0.080078 0.500000
vt 0.005859 0.500000
vt 0.052734 0.500000
vt 0.052734 0.500000
vt 0.052734 0.500000
vt 0.052734 0.500000
vt 0.072266 0.500000
vt 0.072266 0.500000
vt 0.072266 0.500000
vt 0.072266 0.500000
vt 0.107422 0.500000
vt 0.107422 0.500000
vt 0.107422 0.500000
vt 0.068359 0.500000
vt 0.068359 0.500000
vt 0.068359 0.500000
vt 0.115234 0.500000
vt 0.115234 0.500000
vt 0.115234 0.500000
vt 0.068359 0.500000
vt 0.068359 0.500000
vt 0.068359 0.500000
vt 0.099609 0.500000
vt 0.099609 0.500000
vt 0.099609 0.500000
vt 0.068359 0.500000
vt 0.099609 0.500000
vt 0.001953 0.500000
vt 0.001953 0.500000
vt 0.001953 0.500000
vt 0.001953 0.500000
vt 0.068359 0.500000
vt 0.095703 0.500000
vt 0.095703 0.500000
vt 0.095703 0.500000
vt 0.099609 0.500000
vt 0.099609 0.500000
vt 0.095703 0.500000
vt 0.099609 0.500000
vt 0.068359 0.500000
vt 0.099609 0.500000
vt 0.099609 0.500000
vt 0.099609 0.500000
vt 0.099609 0.500000
vt 0.091797 0.500000
vt 0.091797 0.500000
vt 0.091797 0.500000
vt 0.099609 0.500000
vt 0.072266 0.500000
vt 0.072266 0.500000
vt 0.068359 0.500000
vt 0.068359 0.500000
vt 0.115234 0.500000
vt 0.068359 0.500000
vt 0.001953 0.500000
vt 0.001953 0.500000
vt 0.001953 0.500000
vt 0.001953 0.500000
vt 0.068359 0.500000
vt 0.107422 0.500000
vt 0.068359 0.500000
vt 0.091797 0.500000
vt 0.091797 0.500000
vt 0.107422 0.500000
vt 0.068359 0.500000
vt 0.107422 0.500000
vt 0.068359 0.500000
vt 0.091797 0.500000
vt 0.091797 0.500000
vt 0.091797 0.500000
vt 0.091797 0.500000
vt 0.072266 0.500000
vt 0.072266 0.500000
vt 0.072266 0.500000
vt 0.072266 0.500000
vt 0.115234 0.500000
vt 0.115234 0.500000
vt 0.115234 0.500000
vt 0.115234 0.500000
vt 0.115234 0.500000
vt 0.115234 0.500000
vt 0.068359 0.500000
vt 0.068359 0.500000
vt 0.068359 0.500000
vt 0.072266 0.500000
vt 0.072266 0.500000
vt 0.072266 0.500000
vt 0.068359 0.500000
vt 0.072266 0.500000
vt 0.091797 0.500000
vt 0.091797 0.500000
vt 0.091797 0.500000
vt 0.091797 0.500000
vt 0.091797 0.500000
vt 0.087891 0.500000
vt 0.087891 0.500000
vt 0.087891 0.500000
vt 0.087891 0.500000
vt 0.072266 0.500000
vt 0.072266 0.500000
vt 0.072266 0.500000
vt 0.091797 0.500000
vt 0.072266 0.500000
vt 0.091797 0.500000
vt 0.072266 0.500000
vt 0.091797 0.500000
vt 0.091797 0.500000
vt 0.091797 0.500000
vt 0.072266 0.500000
vt 0.091797 0.500000
vt 0.091797 0.500000
vt 0.072266 0.500000
vt 0.091797 0.500000
vt 0.087891 0.500000
vt 0.087891 0.500000
vt 0.087891 0.500000
vt 0.087891 0.500000
vt 0.025391 0.500000
vt 0.025391 0.500000
vt 0.025391 0.500000
vt 0.072266 0.500000
vt 0.072266 0.500000
vt 0.025391 0.500000
vt 0.072266 0.500000
vt 0.115234 0.500000
vt 0.115234 0.500000
vt 0.115234 0.500000
vt 0.115234 0.500000
vt 0.087891 0.500000
vt 0.087891 0.500000
vt 0.087891 0.500000
vt 0.087891 0.500000
vt 0.087891 0.500000
vt 0.087891 0.500000
vt 0.087891 0.500000
vt 0.087891 0.500000
vt 0.115234 0.500000
vt 0.115234 0.500000
vt 0.115234 0.500000
vt 0.115234 0.500000
vt 0.115234 0.500000
vt 0.115234 0.500000
vt 0.115234 0.500000
vt 0.115234 0.500000
vt 0.115234 0.500000
vt 0.115234 0.500000
vt 0.115234 0.500000
vt 0.115234 0.500000
vt 0.115234 0.500000
vt 0.115234 0.500000
vt 0.115234 0.500000
vt 0.115234 0.500000
vt 0.107422 0.500000
vt 0.107422 0.500000
vt 0.107422 0.500000
vt 0.068359 0.500000
vt 0.068359 0.500000
vt 0.068359 0.500000
vt 0.068359 0.500000
vt 0.068359 0.500000
vt 0.068359 0.500000
vt 0.107422 0.500000
vt 0.068359 0.500000
vt 0.099609 0.500000
vt 0.099609 0.500000
vt 0.099609 0.500000
vt 0.068359 0.500000
vt 0.099609 0.500000
vt 0.001953 0.500000
vt 0.001953 0.500000
vt 0.001953 0.500000
vt 0.001953 0.500000
vt 0.107422 0.500000
vt 0.095703 0.500000
vt 0.095703 0.500000
vt 0.095703 0.500000
vt 0.099609 0.500000
vt 0.099609 0.500000
vt 0.095703 0.500000
vt 0.099609 0.500000
vt 0.068359 0.500000
vt 0.068359 0.500000
vt 0.068359 0.500000
vt 0.099609 0.500000
vt 0.099609 0.500000
vt 0.099609 0.500000
vt 0.099609 0.500000
vt 0.091797 0.500000
vt 0.091797 0.500000
vt 0.091797 0.500000
vt 0.099609 0.500000
vt 0.107422 0.500000
vt 0.068359 0.500000
vt 0.068359 0.500000
vt 0.068359 0.500000
vt 0.068359 0.500000
vt 0.068359 0.500000
vt 0.107422 0.500000
vt 0.001953 0.500000
vt 0.001953 0.500000
vt 0.001953 0.500000
vt 0.001953 0.500000
vt 0.068359 0.500000
vt 0.107422 0.500000
vt 0.068359 0.500000
vt 0.091797 0.500000
vt 0.091797 0.500000
vt 0.107422 0.500000
vt 0.068359 0.500000
vt 0.068359 0.500000
vt 0.068359 0.500000
vt 0.107422 0.500000
vt 0.068359 0.500000
vt 0.091797 0.500000
vt 0.091797 0.500000
vt 0.091797 0.500000
vt 0.091797 0.500000
vt 0.087891 0.500000
vt 0.087891 0.500000
vt 0.087891 0.500000
vt 0.087891 0.500000
vt 0.087891 0.500000
vt 0.087891 0.500000
vt 0.087891 0.500000
vt 0.087891 0.500000
vt 0.087891 0.500000
vt 0.087891 0.500000
vt 0.087891 0.500000
vt 0.087891 0.500000
vt 0.087891 0.500000
vt 0.087891 0.500000
vt 0.087891 0.500000
vt 0.087891 0.500000
vt 0.115234 0.500000
vt 0.115234 0.500000
vt 0.115234 0.500000
vt 0.115234 0.500000
vt 0.115234 0.500000
vt 0.115234 0.500000
vt 0.115234 0.500000
vt 0.115234 0.500000
vt 0.115234 0.500000
vt 0.115234 0.500000
vt 0.115234 0.500000
vt 0.115234 0.500000
vt 0.072266 0.500000
vt 0.072266 0.500000
vt 0.072266 0.500000
vt 0.115234 0.500000
vt 0.115234 0.500000
vt 0.115234 0.500000
vt 0.072266 0.500000
vt 0.115234 0.500000
vt 0.087891 0.500000
vt 0.087891 0.500000
vt 0.087891 0.500000
vt 0.080078 0.500000
vt 0.080078 0.500000
vt 0.080078 0.500000
vt 0.087891 0.500000
vt 0.005859 0.500000
vt 0.005859 0.500000
vt 0.005859 0.500000
vt 0.080078 0.500000
vt 0.005859 0.500000
vt 0.087891 0.500000
vt 0.087891 0.500000
vt 0.087891 0.500000
vt 0.087891 0.500000
vt 0.001953 0.500000
vt 0.001953 0.500000
vt 0.001953 0.500000
vt 0.001953 0.500000
vt 0.001953 0.500000
vt 0.001953 0.500000
vt 0.001953 0.500000
vt 0.001953 0.500000
vt 0.052734 0.500000
vt 0.052734 0.500000
vt 0.052734 0.500000
vt 0.052734 0.500000
vt 0.052734 0.500000
vt 0.052734 0.500000
vt 0.052734 0.500000
vt 0.052734 0.500000
vt 0.052734 0.500000
vt 0.052734 0.500000
vt 0.072266 0.500000
vt 0.072266 0.500000
vt 0.072266 0.500000
vt 0.072266 0.500000
vt 0.072266 0.500000
vt 0.072266 0.500000
vt 0.072266 0.500000
vt 0.072266 0.500000
vt 0.072266 0.500000
vt 0.072266 0.500000
vt 0.072266 0.500000
vt 0.072266 0.500000
vt 0.068359 0.500000
vt 0.068359 0.500000
vt 0.068359 0.500000
vt 0.068359 0.500000
vt 0.068359 0.500000
vt 0.068359 0.500000
vt 0.068359 0.500000
vt 0.068359 0.500000
vt 0.107422 0.500000
vt 0.107422 0.500000
vt 0.107422 0.500000
vt 0.107422 0.500000
vt 0.107422 0.500000
vt 0.107422 0.500000
vt 0.107422 0.500000
vt 0.107422 0.500000
vt 0.087891 0.500000
vt 0.087891 0.500000
vt 0.087891 0.500000
vt 0.087891 0.500000
vt 0.087891 0.500000
vt 0.087891 0.500000
vt 0.087891 0.500000
vt 0.087891 0.500000
vt 0.087891 0.500000
vt 0.087891 0.500000
vt 0.087891 0.500000
vt 0.087891 0.500000
vt 0.087891 0.500000
vt 0.087891 0.500000
vt 0.087891 0.500000
vt 0.087891 0.500000
vt 0.091797 0.500000
vt 0.091797 0.500000
vt 0.091797 0.500000
vt 0.091797 0.500000
vt 0.091797 0.500000
vt 0.091797 0.500000
vt 0.091797 0.500000
vt 0.091797 0.500000
vt 0.005859 0.500000
vt 0.005859 0.500000
vt 0.005859 0.500000
vt 0.005859 0.500000
vt 0.005859 0.500000
vt 0.005859 0.500000
vt 0.115234 0.500000
vt 0.115234 0.500000
vt 0.115234 0.500000
vt 0.115234 0.500000
vt 0.005859 0.500000
vt 0.005859 0.500000
vt 0.005859 0.500000
vt 0.005859 0.500000
vt 0.072266 0.500000
vt 0.072266 0.500000
vt 0.072266 0.500000
vt 0.072266 0.500000
vt 0.072266 0.500000
vt 0.115234 0.500000
vt 0.115234 0.500000
vt 0.115234 0.500000
vt 0.072266 0.500000
vt 0.115234 0.500000
vt 0.115234 0.500000
vt 0.052734 0.500000
vt 0.052734 0.500000
vt 0.052734 0.500000
vt 0.052734 0.500000
vt 0.052734 0.500000
vt 0.052734 0.500000
vt 0.052734 0.500000
vt 0.052734 0.500000
vt 0.115234 0.500000
vt 0.115234 0.500000
vt 0.115234 0.500000
vt 0.115234 0.500000
vt 0.115234 0.500000
vt 0.115234 0.500000
vt 0.115234 0.500000
vt 0.115234 0.500000
vt 0.115234 0.500000
vt 0.115234 0.500000
vt 0.115234 0.500000
vt 0.115234 0.500000
vt 0.115234 0.500000
vt 0.115234 0.500000
vt 0.115234 0.500000
vt 0.115234 0.500000
vt 0.115234 0.500000
vt 0.115234 0.500000
vt 0.115234 0.500000
vt 0.115234 0.500000
vt 0.115234 0.500000
vt 0.115234 0.500000
vt 0.115234 0.500000
vt 0.115234 0.500000
vt 0.115234 0.500000
vt 0.115234 0.500000
vt 0.115234 0.500000
vt 0.115234 0.500000
vt 0.087891 0.500000
vt 0.087891 0.500000
vt 0.087891 0.500000
vt 0.087891 0.500000
vt 0.087891 0.500000
vt 0.087891 0.500000
vt 0.087891 0.500000
vt 0.087891 0.500000
vt 0.115234 0.500000
vt 0.115234 0.500000
vt 0.115234 0.500000
vt 0.115234 0.500000
vt 0.115234 0.500000
vt 0.115234 0.500000
vt 0.115234 0.500000
vt 0.115234 0.500000
vt 0.115234 0.500000
vt 0.115234 0.500000
vt 0.115234 0.500000
vt 0.115234 0.500000
vt 0.087891 0.500000
vt 0.087891 0.500000
vt 0.087891 0.500000
vt 0.087891 0.500000
vt 0.087891 0.500000
vt 0.087891 0.500000
vt 0.087891 0.500000
vt 0.087891 0.500000
vt 0.115234 0.500000
vt 0.115234 0.500000
vt 0.115234 0.500000
vt 0.115234 0.500000
vt 0.068359 0.500000
vt 0.068359 0.500000
vt 0.068359 0.500000
vt 0.068359 0.500000
vt 0.068359 0.500000
vt 0.068359 0.500000
vt 0.068359 0.500000
vt 0.068359 0.500000
vt 0.068359 0.500000
vt 0.068359 0.500000
vt 0.087891 0.500000
vt 0.087891 0.500000
vt 0.087891 0.500000
vt 0.087891 0.500000
vt 0.087891 0.500000
vt 0.087891 0.500000
vt 0.087891 0.500000
vt 0.087891 0.500000
vt 0.091797 0.500000
vt 0.091797 0.500000
vt 0.091797 0.500000
vt 0.091797 0.500000
vt 0.099609 0.500000
vt 0.099609 0.500000
vt 0.099609 0.500000
vt 0.099609 0.500000
vt 0.099609 0.500000
vt 0.099609 0.500000
vt 0.099609 0.500000
vt 0.091797 0.500000
vt 0.091797 0.500000
vt 0.091797 0.500000
vt 0.099609 0.500000
vt 0.091797 0.500000
vn -1.0000 0.0000 0.0000
vn 1.0000 0.0000 0.0000
vn 0.0000 -0.0000 1.0000
vn 0.0000 0.0000 -1.0000
vn 0.0000 -1.0000 -0.0000
vn 0.0000 1.0000 0.0000
usemtl palette.018
s 1
f 1/1/1 2/2/1 3/3/1
f 4/4/1 2/2/1 1/1/1
f 5/5/1 4/6/1 1/7/1
f 6/8/1 4/6/1 5/5/1
f 7/9/1 6/10/1 5/11/1
f 8/12/1 6/10/1 7/9/1
f 9/13/1 10/14/1 11/15/1
f 12/16/1 9/17/1 13/18/1
f 14/19/1 9/17/1 12/16/1
f 15/20/1 9/17/1 14/19/1
f 16/21/1 10/14/1 9/13/1
f 16/22/1 9/17/1 15/20/1
f 17/23/1 10/14/1 16/21/1
f 18/24/1 17/25/1 16/26/1
f 19/27/1 17/25/1 18/24/1
f 20/28/1 21/29/1 22/30/1
f 23/31/1 21/29/1 20/28/1
f 24/32/1 25/33/1 26/34/1
f 27/35/1 25/33/1 24/32/1
f 28/36/1 29/37/1 30/38/1
f 31/39/1 29/37/1 28/36/1
f 32/40/1 31/41/1 28/42/1
f 33/43/1 31/41/1 32/40/1
f 34/44/1 35/45/1 36/46/1
f 37/47/1 35/45/1 34/44/1
f 38/48/1 39/49/1 40/50/1
f 41/51/1 39/49/1 38/48/1
f 42/52/1 43/53/1 44/54/1
f 45/55/1 43/53/1 42/52/1
f 46/56/1 47/57/1 48/58/1
f 49/59/1 47/57/1 46/56/1
f 50/60/1 51/61/1 52/62/1
f 53/63/1 51/61/1 50/60/1
f 54/64/1 50/60/1 55/65/1
f 56/66/1 50/60/1 54/64/1
f 57/67/1 58/68/1 59/69/1
f 60/70/1 58/68/1 57/67/1
f 61/71/1 54/64/1 62/72/1
f 63/73/1 54/64/1 61/71/1
f 64/74/1 65/75/1 66/76/1
f 67/77/1 65/75/1 64/74/1
f 68/78/1 69/79/1 70/80/1
f 71/81/1 69/79/1 68/78/1
f 72/82/1 73/83/1 74/84/1
f 75/85/1 73/83/1 72/82/1
f 76/86/1 72/82/1 77/87/1
f 78/88/1 72/82/1 76/86/1
f 79/89/1 76/86/1 80/90/1
f 81/91/1 76/86/1 79/89/1
f 82/92/1 83/93/1 84/94/1
f 85/95/1 86/96/1 82/92/1
f 87/97/1 82/92/1 84/94/1
f 87/97/1 85/95/1 82/92/1
f 88/98/1 85/95/1 87/97/1
f 89/99/2 90/100/2 91/101/2
f 89/99/2 91/101/2 92/102/2
f 92/102/2 91/101/2 93/103/2
f 94/104/2 95/105/2 96/106/2
f 96/106/2 95/105/2 97/107/2
f 98/108/2 99/109/2 100/110/2
f 100/110/2 99/109/2 101/111/2
f 102/112/2 100/110/2 103/113/2
f 103/113/2 100/110/2 104/114/2
f 105/115/2 103/113/2 106/116/2
f 106/116/2 103/113/2 107/117/2
f 108/118/2 109/119/2 110/120/2
f 110/120/2 109/119/2 111/121/2
f 112/122/2 113/123/2 114/124/2
f 114/124/2 113/123/2 115/125/2
f 116/126/2 117/127/2 118/128/2
f 118/128/2 117/127/2 119/129/2
f 120/130/2 121/131/2 122/132/2
f 122/132/2 121/131/2 123/133/2
f 124/134/2 125/135/2 126/136/2
f 126/136/2 125/135/2 127/137/2
f 128/138/2 126/136/2 129/139/2
f 129/139/2 126/136/2 130/140/2
f 131/141/2 132/142/2 133/143/2
f 133/143/2 132/142/2 134/144/2
f 135/145/2 129/139/2 136/146/2
f 136/146/2 129/139/2 137/147/2
f 138/148/2 139/149/2 140/150/2
f 140/150/2 139/149/2 141/151/2
f 142/152/2 143/153/2 144/154/2
f 144/154/2 143/153/2 145/155/2
f 146/156/2 147/157/2 148/158/2
f 148/158/2 147/157/2 149/159/2
f 150/160/2 151/161/2 152/162/2
f 152/162/2 151/161/2 153/163/2
f 154/164/2 155/165/2 156/166/2
f 156/166/2 155/165/2 157/167/2
f 156/168/2 157/169/2 158/170/2
f 158/170/2 157/169/2 159/171/2
f 160/172/2 161/173/2 162/174/2
f 162/174/2 161/173/2 163/175/2
f 164/176/2 165/177/2 166/178/2
f 166/178/2 165/177/2 167/179/2
f 168/180/2 169/181/2 170/182/2
f 171/183/2 170/184/2 172/185/2
f 172/185/2 170/184/2 173/186/2
f 173/186/2 170/184/2 174/187/2
f 170/182/2 169/181/2 175/188/2
f 174/187/2 170/184/2 175/189/2
f 175/188/2 169/181/2 176/190/2
f 175/191/2 176/192/2 177/193/2
f 177/193/2 176/192/2 178/194/2
f 179/195/2 180/196/2 181/197/2
f 181/197/2 180/196/2 182/198/2
f 181/199/2 182/200/2 183/201/2
f 183/201/2 182/200/2 184/202/2
f 183/203/2 184/204/2 185/205/2
f 185/205/2 184/204/2 186/206/2
f 187/207/3 188/208/3 189/209/3
f 190/210/3 188/208/3 187/207/3
f 191/211/3 192/212/3 193/213/3
f 194/214/3 195/215/3 192/216/3
f 194/217/3 192/212/3 191/211/3
f 196/218/3 197/219/3 195/220/3
f 196/221/3 195/215/3 194/214/3
f 198/222/3 197/219/3 196/218/3
f 199/223/3 200/224/3 201/225/3
f 202/226/3 200/224/3 199/223/3
f 203/227/3 204/228/3 205/229/3
f 206/230/3 204/228/3 203/227/3
f 207/231/3 208/232/3 209/233/3
f 210/234/3 211/235/3 208/236/3
f 212/237/3 213/238/3 214/239/3
f 215/240/3 207/241/3 216/242/3
f 217/243/3 218/244/3 210/245/3
f 217/246/3 210/234/3 208/236/3
f 219/247/3 218/244/3 217/243/3
f 220/248/3 221/249/3 222/250/3
f 223/251/3 221/249/3 220/248/3
f 224/252/3 217/246/3 208/236/3
f 224/253/3 219/254/3 217/255/3
f 225/256/3 226/257/3 219/247/3
f 225/258/3 219/254/3 224/253/3
f 227/259/3 226/257/3 225/256/3
f 228/260/3 224/252/3 208/236/3
f 228/261/3 225/256/3 224/262/3
f 229/263/3 225/256/3 228/261/3
f 230/264/3 225/256/3 229/263/3
f 231/265/3 227/266/3 225/267/3
f 231/268/3 225/256/3 230/264/3
f 232/269/3 203/227/3 205/229/3
f 233/270/3 203/227/3 232/269/3
f 234/271/3 215/240/3 212/272/3
f 234/273/3 212/237/3 214/239/3
f 235/274/3 207/241/3 215/240/3
f 235/274/3 215/240/3 234/271/3
f 236/275/3 237/276/3 238/277/3
f 239/278/3 237/276/3 236/275/3
f 240/279/3 207/241/3 235/274/3
f 241/280/3 208/232/3 207/231/3
f 241/281/3 207/241/3 240/279/3
f 242/282/3 227/266/3 231/265/3
f 243/283/3 227/266/3 242/282/3
f 244/284/3 208/232/3 241/280/3
f 245/285/3 228/260/3 208/236/3
f 245/286/3 208/232/3 244/284/3
f 246/287/3 228/260/3 245/285/3
f 247/288/3 230/289/3 229/290/3
f 248/291/3 230/289/3 247/288/3
f 249/292/3 250/293/3 251/294/3
f 252/295/3 250/293/3 249/292/3
f 253/296/3 234/273/3 214/239/3
f 254/297/3 234/273/3 253/296/3
f 255/298/3 256/299/3 257/300/3
f 258/301/3 256/299/3 255/298/3
f 259/302/3 260/303/3 261/304/3
f 262/305/3 263/306/3 260/307/3
f 262/308/3 260/303/3 259/302/3
f 264/309/3 263/306/3 262/305/3
f 265/310/3 262/311/3 259/312/3
f 265/310/3 264/313/3 262/311/3
f 266/314/3 264/313/3 265/310/3
f 267/315/3 268/316/3 269/317/3
f 270/318/3 268/316/3 267/315/3
f 271/319/3 266/320/3 265/321/3
f 272/322/3 264/313/3 266/314/3
f 272/323/3 266/320/3 271/319/3
f 273/324/3 265/310/3 259/312/3
f 274/325/3 271/319/3 265/321/3
f 274/326/3 265/310/3 273/324/3
f 275/327/3 272/322/3 271/328/3
f 275/329/3 271/319/3 274/325/3
f 276/330/3 274/326/3 273/324/3
f 276/330/3 275/327/3 274/326/3
f 277/331/3 264/313/3 272/322/3
f 277/331/3 275/327/3 276/330/3
f 277/331/3 272/322/3 275/327/3
f 278/332/3 263/306/3 264/309/3
f 278/333/3 264/313/3 277/331/3
f 279/334/3 280/335/3 281/336/3
f 282/337/3 280/335/3 279/334/3
f 283/338/3 277/339/3 276/340/3
f 284/341/3 278/332/3 277/342/3
f 284/343/3 277/339/3 283/338/3
f 285/344/3 263/306/3 278/332/3
f 285/344/3 278/332/3 284/341/3
f 286/345/3 287/346/3 288/347/3
f 289/348/3 287/346/3 286/345/3
f 290/349/3 291/350/3 292/351/3
f 293/352/3 291/350/3 290/349/3
f 294/353/3 295/354/3 296/355/3
f 297/356/3 295/354/3 294/353/3
f 298/357/3 299/358/3 300/359/3
f 301/360/3 299/358/3 298/357/3
f 302/361/3 303/362/3 304/363/3
f 305/364/3 303/362/3 302/361/3
f 306/365/3 307/366/3 308/367/3
f 309/368/3 307/366/3 306/365/3
f 310/369/3 311/370/3 312/371/3
f 313/372/3 311/370/3 310/369/3
f 314/373/4 315/374/4 316/375/4
f 315/376/4 317/377/4 318/378/4
f 319/379/4 316/380/4 320/381/4
f 316/375/4 315/374/4 321/382/4
f 315/376/4 318/378/4 321/383/4
f 318/384/4 322/385/4 323/386/4
f 321/383/4 318/378/4 323/387/4
f 323/386/4 322/385/4 324/388/4
f 325/389/4 326/390/4 327/391/4
f 327/391/4 326/390/4 328/392/4
f 316/375/4 321/382/4 329/393/4
f 323/394/4 324/395/4 330/396/4
f 324/388/4 331/397/4 332/398/4
f 330/396/4 324/395/4 332/399/4
f 332/398/4 331/397/4 333/400/4
f 329/401/4 330/402/4 334/403/4
f 330/404/4 332/398/4 334/405/4
f 334/405/4 332/398/4 335/406/4
f 335/406/4 332/398/4 336/407/4
f 332/408/4 333/409/4 337/410/4
f 336/407/4 332/398/4 337/411/4
f 316/375/4 329/393/4 338/412/4
f 329/401/4 334/403/4 338/413/4
f 338/413/4 334/403/4 339/414/4
f 340/415/4 320/381/4 341/416/4
f 320/381/4 316/380/4 342/417/4
f 341/416/4 320/381/4 342/417/4
f 316/375/4 338/412/4 343/418/4
f 344/419/4 345/420/4 346/421/4
f 346/421/4 345/420/4 347/422/4
f 342/417/4 316/380/4 348/423/4
f 316/375/4 343/418/4 349/424/4
f 348/423/4 316/380/4 349/425/4
f 337/410/4 333/409/4 350/426/4
f 350/426/4 333/409/4 351/427/4
f 349/424/4 343/418/4 352/428/4
f 343/429/4 353/430/4 354/431/4
f 352/428/4 343/418/4 354/432/4
f 354/431/4 353/430/4 355/433/4
f 335/434/4 336/435/4 356/436/4
f 356/436/4 336/435/4 357/437/4
f 358/438/4 359/439/4 360/440/4
f 360/440/4 359/439/4 361/441/4
f 362/442/4 363/443/4 364/444/4
f 364/444/4 363/443/4 365/445/4
f 366/446/4 367/447/4 368/448/4
f 368/448/4 367/447/4 369/449/4
f 370/450/4 371/451/4 372/452/4
f 372/452/4 371/451/4 373/453/4
f 374/454/4 375/455/4 376/456/4
f 376/456/4 375/455/4 377/457/4
f 378/458/4 379/459/4 380/460/4
f 380/460/4 379/459/4 381/461/4
f 382/462/4 383/463/4 384/464/4
f 384/464/4 383/463/4 385/465/4
f 386/466/4 387/467/4 388/468/4
f 387/469/4 389/470/4 390/471/4
f 388/468/4 387/467/4 390/472/4
f 390/471/4 389/470/4 391/473/4
f 392/474/4 393/475/4 394/476/4
f 393/477/4 395/478/4 396/479/4
f 394/476/4 393/475/4 396/480/4
f 395/481/4 397/482/4 398/483/4
f 396/479/4 395/478/4 398/484/4
f 398/483/4 397/482/4 399/485/4
f 400/486/5 401/487/5 402/488/5
f 403/489/5 401/487/5 400/486/5
f 404/490/5 405/491/5 406/492/5
f 407/493/5 405/491/5 404/490/5
f 408/494/5 409/495/5 410/496/5
f 411/497/5 409/495/5 408/494/5
f 412/498/5 413/499/5 414/500/5
f 415/501/5 413/499/5 412/498/5
f 416/502/5 413/499/5 415/501/5
f 417/503/5 413/499/5 416/502/5
f 418/504/5 413/499/5 417/503/5
f 419/505/5 413/499/5 418/504/5
f 420/506/5 413/499/5 419/505/5
f 421/507/5 413/499/5 420/506/5
f 422/508/5 416/509/5 415/510/5
f 423/511/5 418/512/5 417/513/5
f 424/514/5 418/512/5 423/511/5
f 425/515/5 420/516/5 419/517/5
f 426/518/5 424/514/5 423/511/5
f 426/518/5 425/515/5 424/514/5
f 426/518/5 422/508/5 415/510/5
f 426/518/5 423/511/5 422/508/5
f 427/519/5 420/516/5 425/515/5
f 427/519/5 425/515/5 426/518/5
f 428/520/5 429/521/5 430/522/5
f 431/523/5 429/521/5 428/520/5
f 432/524/5 433/525/5 434/526/5
f 435/527/5 433/525/5 432/524/5
f 436/528/5 437/529/5 438/530/5
f 439/531/5 437/529/5 436/528/5
f 440/532/5 441/533/5 442/534/5
f 443/535/5 441/533/5 440/532/5
f 444/536/5 445/537/5 446/538/5
f 447/539/5 445/537/5 444/536/5
f 448/540/5 449/541/5 450/542/5
f 451/543/5 449/541/5 448/540/5
f 452/544/5 453/545/5 454/546/5
f 455/547/5 453/545/5 452/544/5
f 456/548/5 457/549/5 458/550/5
f 459/551/5 457/549/5 456/548/5
f 460/552/5 461/553/5 462/554/5
f 463/555/5 461/553/5 460/552/5
f 464/556/5 465/557/5 466/558/5
f 467/559/5 465/557/5 464/556/5
f 468/560/6 469/561/6 470/562/6
f 470/562/6 469/561/6 471/563/6
f 471/563/6 469/561/6 472/564/6
f 472/564/6 469/561/6 473/565/6
f 471/566/6 472/567/6 474/568/6
f 474/568/6 472/567/6 475/569/6
f 468/560/6 470/562/6 476/570/6
f 473/565/6 469/561/6 477/571/6
f 468/560/6 476/570/6 478/572/6
f 476/570/6 477/571/6 478/572/6
f 477/571/6 469/561/6 479/573/6
f 478/572/6 477/571/6 479/573/6
f 480/574/6 481/575/6 482/576/6
f 480/574/6 482/576/6 483/577/6
f 483/577/6 482/576/6 484/578/6
f 482/579/6 485/580/6 486/581/6
f 484/578/6 482/576/6 486/582/6
f 486/581/6 485/580/6 487/583/6
f 487/583/6 485/580/6 488/584/6
f 489/585/6 490/586/6 491/587/6
f 491/587/6 490/586/6 492/588/6
f 493/589/6 494/590/6 495/591/6
f 495/591/6 494/590/6 496/592/6
f 497/593/6 498/594/6 499/595/6
f 500/596/6 501/597/6 502/598/6
f 497/593/6 499/595/6 503/599/6
f 499/595/6 502/598/6 503/599/6
f 502/598/6 501/597/6 504/600/6
f 503/599/6 502/598/6 504/600/6
f 497/593/6 503/599/6 505/601/6
f 504/600/6 501/597/6 506/602/6
f 497/593/6 505/601/6 507/603/6
f 505/601/6 506/602/6 507/603/6
f 506/602/6 501/597/6 508/604/6
f 507/603/6 506/602/6 508/604/6
f 509/605/6 510/606/6 511/607/6
f 511/607/6 510/606/6 512/608/6
f 512/608/6 510/606/6 513/609/6
f 513/609/6 510/606/6 514/610/6
f 509/605/6 511/607/6 515/611/6
f 515/611/6 511/607/6 516/612/6
f 512/608/6 513/609/6 517/613/6
f 517/613/6 513/609/6 518/614/6
f 514/610/6 510/606/6 519/615/6
f 519/615/6 510/606/6 520/616/6
f 509/605/6 515/611/6 521/617/6
f 520/616/6 510/606/6 522/618/6
f 509/605/6 521/617/6 523/619/6
f 521/617/6 522/618/6 523/619/6
f 522/618/6 510/606/6 524/620/6
f 523/619/6 522/618/6 524/620/6
f 525/621/6 526/622/6 527/623/6
f 527/623/6 526/622/6 528/624/6
f 529/625/6 530/626/6 531/627/6
f 531/627/6 530/626/6 532/628/6
f 527/629/6 528/630/6 533/631/6
f 532/632/6 534/633/6 533/631/6
f 531/634/6 532/632/6 533/631/6
f 528/630/6 531/634/6 533/631/6
f 535/635/6 527/629/6 533/631/6
f 533/631/6 534/633/6 536/636/6
f 535/635/6 533/631/6 537/637/6
f 536/636/6 534/633/6 538/638/6
f 535/635/6 537/637/6 539/639/6
f 537/637/6 538/638/6 539/639/6
f 538/638/6 534/633/6 540/640/6
f 539/639/6 538/638/6 540/640/6
f 541/641/6 542/642/6 543/643/6
f 543/643/6 542/642/6 544/644/6
f 545/645/6 546/646/6 547/647/6
f 547/647/6 546/646/6 548/648/6
f 549/649/6 550/650/6 551/651/6
f 551/651/6 550/650/6 552/652/6
f 553/653/6 554/654/6 555/655/6
f 555/655/6 554/654/6 556/656/6
f 557/657/6 558/658/6 559/659/6
f 559/659/6 558/658/6 560/660/6
f 560/660/6 558/658/6 561/661/6
f 561/661/6 558/658/6 562/662/6
f 563/663/6 564/664/6 565/665/6
f 565/665/6 564/664/6 566/666/6
f 560/667/6 561/668/6 567/669/6
f 567/669/6 561/668/6 568/670/6
f 569/671/6 570/672/6 571/673/6
f 571/673/6 570/672/6 572/674/6
f 573/675/6 574/676/6 575/677/6
f 575/677/6 574/676/6 576/678/6
f 577/679/6 578/680/6 579/681/6
f 578/682/6 580/683/6 581/684/6
f 579/681/6 578/680/6 581/685/6
f 581/684/6 580/683/6 582/686/6
