# Blender v2.79 (sub 0) OBJ File: ''
# www.blender.org
mtllib house_1x1_00.mtl
o house_1x1_00
v -0.800000 1.000000 0.800000
v -0.800000 0.000000 -0.800000
v -0.800000 -0.000000 0.800000
v -0.800000 1.000000 -0.800000
v -0.800000 1.200000 0.800000
v -0.800000 1.200000 -0.800000
v -0.800000 1.600000 0.800001
v -0.800000 1.600000 -0.799999
v -0.800000 3.000000 0.300001
v -0.800000 2.900000 -0.699999
v -0.800000 2.900000 0.300001
v -0.800000 3.000000 -0.699999
v -0.700000 1.900000 0.400001
v -0.700000 1.600000 0.400001
v -0.700000 1.600000 0.500001
v -0.700000 1.600000 0.200001
v -0.700000 1.900000 0.200001
v -0.700000 1.600000 0.100001
v -0.700000 1.900000 0.100001
v -0.700000 1.600000 -0.199999
v -0.700000 1.900000 -0.199999
v -0.700000 1.600000 -0.299999
v -0.700000 1.900000 -0.299999
v -0.700000 1.600000 -0.599999
v -0.700000 1.900000 -0.599999
v -0.700000 1.600000 -0.699999
v -0.700000 2.000000 0.400001
v -0.700000 2.000000 0.200001
v -0.700000 2.000000 0.100001
v -0.700000 2.000000 -0.199999
v -0.700000 2.000000 -0.299999
v -0.700000 2.000000 -0.599999
v -0.700000 2.100000 0.400001
v -0.700000 2.100000 0.200001
v -0.700000 2.100000 0.100001
v -0.700000 2.100000 -0.199999
v -0.700000 2.100000 -0.299999
v -0.700000 2.100000 -0.599999
v -0.700000 2.200000 0.500001
v -0.700000 2.300000 0.700001
v -0.700000 2.200000 0.700001
v -0.700000 2.300000 0.600001
v -0.700000 2.300000 0.500001
v -0.700000 2.300000 0.400001
v -0.700000 2.300000 0.100001
v -0.700000 2.300000 -0.199999
v -0.700000 2.300000 -0.299999
v -0.700000 2.300000 -0.599999
v -0.700000 2.400000 0.600001
v -0.700000 2.400000 0.500001
v -0.700000 2.400000 0.400001
v -0.700000 2.400000 0.300001
v -0.700000 2.500000 0.500001
v -0.700000 2.500000 0.400001
v -0.700000 2.500000 0.300001
v -0.700000 2.500000 0.200001
v -0.700000 2.600000 0.400001
v -0.700000 2.600000 0.300001
v -0.700000 2.600000 0.200001
v -0.700000 2.600000 0.100001
v -0.700000 2.600000 -0.199999
v -0.700000 2.600000 -0.299999
v -0.700000 2.600000 -0.599999
v -0.700000 2.700000 0.100001
v -0.700000 2.700000 -0.199999
v -0.700000 2.700000 -0.299999
v -0.700000 2.700000 -0.599999
v -0.700000 2.800000 0.100001
v -0.700000 2.800000 -0.199999
v -0.700000 2.800000 -0.299999
v -0.700000 2.800000 -0.599999
v -0.700000 2.900000 0.300001
v -0.700000 2.900000 -0.699999
v -0.700000 3.100000 0.300001
v -0.700000 3.000000 -0.699999
v -0.700000 3.000000 0.300001
v -0.700000 3.100000 -0.699999
v -0.500000 3.200000 0.300001
v -0.500000 3.100000 -0.699999
v -0.500000 3.100000 0.300001
v -0.500000 3.200000 -0.699999
v -0.400000 2.200000 0.700001
v -0.400000 2.000000 0.600001
v -0.400000 2.000000 0.700001
v -0.400000 2.200000 0.600001
v -0.300000 3.300000 0.300001
v -0.300000 3.200000 -0.699999
v -0.300000 3.200000 0.300001
v -0.300000 3.300000 -0.699999
v -0.200000 2.200000 0.700001
v -0.200000 2.000000 0.600001
v -0.200000 2.000000 0.700001
v -0.200000 2.200000 0.600001
v -0.200000 3.400000 0.300001
v -0.200000 3.300000 -0.699999
v -0.200000 3.300000 0.300001
v -0.200000 3.400000 -0.699999
v -0.100000 3.500000 0.300001
v -0.100000 3.400000 -0.699999
v -0.100000 3.400000 0.300001
v -0.100000 3.500000 -0.699999
v -0.300000 2.000000 0.700001
v -0.300000 2.000000 0.600001
v -0.300000 2.200000 0.700001
v -0.300000 2.200000 0.600001
v -0.100000 2.000000 0.700001
v -0.100000 2.000000 0.600001
v -0.100000 2.200000 0.700001
v -0.100000 2.200000 0.600001
v 0.100000 3.400000 0.300001
v 0.100000 3.400000 -0.699999
v 0.100000 3.500000 0.300001
v 0.100000 3.500000 -0.699999
v 0.200000 3.300000 0.300001
v 0.200000 3.300000 -0.699999
v 0.200000 3.400000 0.300001
v 0.200000 3.400000 -0.699999
v 0.300000 3.200000 0.300001
v 0.300000 3.200000 -0.699999
v 0.300000 3.300000 0.300001
v 0.300000 3.300000 -0.699999
v 0.500000 3.100000 0.300001
v 0.500000 3.100000 -0.699999
v 0.500000 3.200000 0.300001
v 0.500000 3.200000 -0.699999
v 0.700000 1.600000 0.500001
v 0.700000 1.600000 0.400001
v 0.700000 1.900000 0.400001
v 0.700000 1.600000 0.200001
v 0.700000 1.600000 0.100001
v 0.700000 1.900000 0.200001
v 0.700000 1.600000 -0.199999
v 0.700000 1.900000 0.100001
v 0.700000 1.600000 -0.299999
v 0.700000 1.900000 -0.199999
v 0.700000 1.600000 -0.599999
v 0.700000 1.900000 -0.299999
v 0.700000 1.600000 -0.699999
v 0.700000 1.900000 -0.599999
v 0.700000 2.000000 0.400001
v 0.700000 2.000000 0.200001
v 0.700000 2.000000 0.100001
v 0.700000 2.000000 -0.199999
v 0.700000 2.000000 -0.299999
v 0.700000 2.000000 -0.599999
v 0.700000 2.100000 0.400001
v 0.700000 2.100000 0.200001
v 0.700000 2.100000 0.100001
v 0.700000 2.100000 -0.199999
v 0.700000 2.100000 -0.299999
v 0.700000 2.100000 -0.599999
v 0.700000 2.200000 0.500001
v 0.700000 2.200000 0.700001
v 0.700000 2.300000 0.700001
v 0.700000 2.300000 0.600001
v 0.700000 2.300000 0.500001
v 0.700000 2.300000 0.400001
v 0.700000 2.300000 0.100001
v 0.700000 2.300000 -0.199999
v 0.700000 2.300000 -0.299999
v 0.700000 2.300000 -0.599999
v 0.700000 2.400000 0.600001
v 0.700000 2.400000 0.500001
v 0.700000 2.400000 0.400001
v 0.700000 2.400000 0.300001
v 0.700000 2.500000 0.500001
v 0.700000 2.500000 0.400001
v 0.700000 2.500000 0.300001
v 0.700000 2.500000 0.200001
v 0.700000 2.600000 0.400001
v 0.700000 2.600000 0.300001
v 0.700000 2.600000 0.200001
v 0.700000 2.600000 0.100001
v 0.700000 2.600000 -0.199999
v 0.700000 2.600000 -0.299999
v 0.700000 2.600000 -0.599999
v 0.700000 2.700000 0.100001
v 0.700000 2.700000 -0.199999
v 0.700000 2.700000 -0.299999
v 0.700000 2.700000 -0.599999
v 0.700000 2.800000 0.100001
v 0.700000 2.800000 -0.199999
v 0.700000 2.800000 -0.299999
v 0.700000 2.800000 -0.599999
v 0.700000 2.900000 0.300001
v 0.700000 2.900000 -0.699999
v 0.700000 3.000000 0.300001
v 0.700000 3.000000 -0.699999
v 0.700000 3.100000 0.300001
v 0.700000 3.100000 -0.699999
v 0.800000 -0.000000 0.800000
v 0.800000 0.000000 -0.800000
v 0.800000 1.000000 0.800000
v 0.800000 1.000000 -0.800000
v 0.800000 1.200000 0.800000
v 0.800000 1.200000 -0.800000
v 0.800000 1.600000 0.800001
v 0.800000 1.600000 -0.799999
v 0.800000 2.900000 0.300001
v 0.800000 2.900000 -0.699999
v 0.800000 3.000000 0.300001
v 0.800000 3.000000 -0.699999
v 0.800000 -0.000000 0.800000
v -0.800000 1.000000 0.800000
v -0.800000 -0.000000 0.800000
v 0.800000 1.000000 0.800000
v -0.800000 1.200000 0.800000
v 0.800000 1.200000 0.800000
v -0.800000 1.600000 0.800001
v 0.800000 1.600000 0.800001
v -0.400000 2.200000 0.700001
v -0.700000 2.300000 0.700001
v -0.700000 2.200000 0.700001
v -0.300000 2.000000 0.700001
v -0.400000 2.000000 0.700001
v -0.300000 2.200000 0.700001
v -0.200000 2.200000 0.700001
v -0.100000 2.000000 0.700001
v -0.200000 2.000000 0.700001
v -0.100000 2.200000 0.700001
v 0.700000 2.200000 0.700001
v 0.700000 2.300000 0.700001
v 0.700000 2.300000 0.600001
v -0.700000 2.400000 0.600001
v -0.700000 2.300000 0.600001
v 0.700000 2.400000 0.600001
v -0.600000 1.600000 0.500001
v -0.700000 2.200000 0.500001
v -0.700000 1.600000 0.500001
v -0.600000 1.900000 0.500001
v -0.600000 2.000000 0.500001
v -0.600000 2.100000 0.500001
v -0.300000 1.600000 0.500001
v -0.300000 1.900000 0.500001
v -0.300000 2.000000 0.500001
v -0.300000 2.100000 0.500001
v -0.200000 1.600000 0.500001
v -0.200000 1.900000 0.500001
v -0.200000 2.000000 0.500001
v -0.200000 2.100000 0.500001
v 0.200000 1.600000 0.500001
v 0.200000 1.900000 0.500001
v 0.200000 2.000000 0.500001
v 0.200000 2.100000 0.500001
v 0.300000 1.600000 0.500001
v 0.300000 1.900000 0.500001
v 0.300000 2.000000 0.500001
v 0.300000 2.100000 0.500001
v 0.600000 1.600000 0.500001
v 0.600000 1.900000 0.500001
v 0.600000 2.000000 0.500001
v 0.600000 2.100000 0.500001
v 0.700000 1.600000 0.500001
v 0.700000 2.200000 0.500001
v 0.700000 2.400000 0.500001
v -0.700000 2.500000 0.500001
v -0.700000 2.400000 0.500001
v 0.700000 2.500000 0.500001
v 0.700000 2.500000 0.400001
v -0.700000 2.600000 0.400001
v -0.700000 2.500000 0.400001
v 0.700000 2.600000 0.400001
v -0.700000 2.900000 0.300001
v -0.800000 3.000000 0.300001
v -0.800000 2.900000 0.300001
v -0.700000 3.000000 0.300001
v -0.600000 2.700000 0.300001
v -0.700000 2.600000 0.300001
v -0.600000 2.800000 0.300001
v -0.500000 3.000000 0.300001
v -0.700000 3.100000 0.300001
v -0.500000 3.100000 0.300001
v -0.300000 2.700000 0.300001
v -0.300000 2.800000 0.300001
v -0.300000 3.000000 0.300001
v -0.300000 3.100000 0.300001
v -0.500000 3.200000 0.300001
v -0.300000 3.200000 0.300001
v -0.200000 2.700000 0.300001
v -0.200000 2.800000 0.300001
v -0.200000 3.300000 0.300001
v -0.300000 3.300000 0.300001
v -0.100000 3.100000 0.300001
v -0.100000 3.200000 0.300001
v -0.200000 3.400000 0.300001
v -0.100000 3.300000 0.300001
v -0.100000 3.400000 0.300001
v 0.100000 3.100000 0.300001
v 0.100000 3.200000 0.300001
v 0.100000 3.300000 0.300001
v -0.100000 3.500000 0.300001
v 0.100000 3.400000 0.300001
v 0.100000 3.500000 0.300001
v 0.200000 2.700000 0.300001
v 0.200000 2.800000 0.300001
v 0.200000 3.300000 0.300001
v 0.200000 3.400000 0.300001
v 0.300000 2.700000 0.300001
v 0.300000 2.800000 0.300001
v 0.300000 3.000000 0.300001
v 0.300000 3.100000 0.300001
v 0.300000 3.200000 0.300001
v 0.300000 3.300000 0.300001
v 0.500000 3.000000 0.300001
v 0.500000 3.100000 0.300001
v 0.500000 3.200000 0.300001
v 0.600000 2.700000 0.300001
v 0.600000 2.800000 0.300001
v 0.700000 2.600000 0.300001
v 0.700000 2.900000 0.300001
v 0.700000 3.000000 0.300001
v 0.700000 3.100000 0.300001
v 0.800000 2.900000 0.300001
v 0.800000 3.000000 0.300001
v -0.400000 2.000000 0.600001
v -0.400000 2.200000 0.600001
v -0.300000 2.000000 0.600001
v -0.300000 2.200000 0.600001
v -0.200000 2.000000 0.600001
v -0.200000 2.200000 0.600001
v -0.100000 2.000000 0.600001
v -0.100000 2.200000 0.600001
v -0.800000 2.900000 -0.699999
v -0.800000 3.000000 -0.699999
v -0.700000 2.900000 -0.699999
v -0.700000 3.000000 -0.699999
v -0.700000 1.600000 -0.699999
v -0.600000 1.600000 -0.699999
v -0.600000 1.900000 -0.699999
v -0.600000 2.000000 -0.699999
v -0.600000 2.100000 -0.699999
v -0.600000 2.300000 -0.699999
v -0.600000 2.600000 -0.699999
v -0.600000 2.700000 -0.699999
v -0.600000 2.800000 -0.699999
v -0.700000 3.100000 -0.699999
v -0.500000 3.000000 -0.699999
v -0.500000 3.100000 -0.699999
v -0.300000 1.600000 -0.699999
v -0.300000 1.900000 -0.699999
v -0.300000 2.000000 -0.699999
v -0.300000 2.100000 -0.699999
v -0.300000 2.300000 -0.699999
v -0.300000 2.600000 -0.699999
v -0.300000 2.700000 -0.699999
v -0.300000 2.800000 -0.699999
v -0.300000 3.000000 -0.699999
v -0.500000 3.200000 -0.699999
v -0.300000 3.100000 -0.699999
v -0.300000 3.200000 -0.699999
v -0.200000 1.600000 -0.699999
v -0.200000 1.900000 -0.699999
v -0.200000 2.000000 -0.699999
v -0.200000 2.100000 -0.699999
v -0.200000 2.300000 -0.699999
v -0.200000 2.600000 -0.699999
v -0.200000 2.700000 -0.699999
v -0.200000 2.800000 -0.699999
v -0.300000 3.300000 -0.699999
v -0.200000 3.300000 -0.699999
v -0.100000 3.100000 -0.699999
v -0.200000 3.400000 -0.699999
v -0.100000 3.200000 -0.699999
v -0.100000 3.300000 -0.699999
v -0.100000 3.400000 -0.699999
v 0.100000 3.100000 -0.699999
v 0.100000 3.200000 -0.699999
v -0.100000 3.500000 -0.699999
v 0.100000 3.300000 -0.699999
v 0.100000 3.400000 -0.699999
v 0.100000 3.500000 -0.699999
v 0.200000 1.600000 -0.699999
v 0.200000 1.900000 -0.699999
v 0.200000 2.000000 -0.699999
v 0.200000 2.100000 -0.699999
v 0.200000 2.300000 -0.699999
v 0.200000 2.600000 -0.699999
v 0.200000 2.700000 -0.699999
v 0.200000 2.800000 -0.699999
v 0.200000 3.300000 -0.699999
v 0.200000 3.400000 -0.699999
v 0.300000 1.600000 -0.699999
v 0.300000 1.900000 -0.699999
v 0.300000 2.000000 -0.699999
v 0.300000 2.100000 -0.699999
v 0.300000 2.300000 -0.699999
v 0.300000 2.600000 -0.699999
v 0.300000 2.700000 -0.699999
v 0.300000 2.800000 -0.699999
v 0.300000 3.000000 -0.699999
v 0.300000 3.100000 -0.699999
v 0.300000 3.200000 -0.699999
v 0.300000 3.300000 -0.699999
v 0.500000 3.000000 -0.699999
v 0.500000 3.100000 -0.699999
v 0.500000 3.200000 -0.699999
v 0.600000 1.600000 -0.699999
v 0.600000 1.900000 -0.699999
v 0.600000 2.000000 -0.699999
v 0.600000 2.100000 -0.699999
v 0.600000 2.300000 -0.699999
v 0.600000 2.600000 -0.699999
v 0.600000 2.700000 -0.699999
v 0.600000 2.800000 -0.699999
v 0.700000 1.600000 -0.699999
v 0.700000 2.900000 -0.699999
v 0.700000 3.000000 -0.699999
v 0.700000 3.100000 -0.699999
v 0.800000 2.900000 -0.699999
v 0.800000 3.000000 -0.699999
v -0.800000 0.000000 -0.800000
v -0.800000 1.000000 -0.800000
v 0.800000 0.000000 -0.800000
v -0.800000 1.200000 -0.800000
v 0.800000 1.000000 -0.800000
v -0.800000 1.600000 -0.799999
v 0.800000 1.200000 -0.800000
v 0.800000 1.600000 -0.799999
v -0.800000 0.000000 -0.800000
v 0.800000 -0.000000 0.800000
v -0.800000 -0.000000 0.800000
v 0.800000 0.000000 -0.800000
v -0.400000 2.000000 0.600001
v -0.300000 2.000000 0.700001
v -0.400000 2.000000 0.700001
v -0.300000 2.000000 0.600001
v -0.200000 2.000000 0.600001
v -0.100000 2.000000 0.700001
v -0.200000 2.000000 0.700001
v -0.100000 2.000000 0.600001
v -0.400000 2.200000 0.600001
v -0.400000 2.200000 0.700001
v -0.700000 2.200000 0.700001
v -0.300000 2.200000 0.600001
v -0.200000 2.200000 0.700001
v -0.300000 2.200000 0.700001
v -0.200000 2.200000 0.600001
v -0.100000 2.200000 0.600001
v 0.700000 2.200000 0.700001
v -0.100000 2.200000 0.700001
v -0.700000 2.200000 0.500001
v 0.700000 2.200000 0.500001
v -0.800000 2.900000 -0.699999
v -0.700000 2.900000 0.300001
v -0.800000 2.900000 0.300001
v -0.700000 2.900000 -0.699999
v 0.700000 2.900000 -0.699999
v 0.800000 2.900000 0.300001
v 0.700000 2.900000 0.300001
v 0.800000 2.900000 -0.699999
v -0.800000 1.600000 0.800001
v 0.800000 1.600000 0.800001
v -0.700000 1.600000 0.500001
v -0.600000 1.600000 0.500001
v -0.300000 1.600000 0.500001
v -0.200000 1.600000 0.500001
v 0.200000 1.600000 0.500001
v 0.300000 1.600000 0.500001
v 0.600000 1.600000 0.500001
v 0.700000 1.600000 0.500001
v -0.700000 1.600000 0.400001
v 0.700000 1.600000 0.400001
v -0.700000 1.600000 0.200001
v 0.700000 1.600000 0.200001
v -0.700000 1.600000 0.100001
v 0.700000 1.600000 0.100001
v -0.700000 1.600000 -0.199999
v 0.700000 1.600000 -0.199999
v -0.700000 1.600000 -0.299999
v 0.700000 1.600000 -0.299999
v -0.700000 1.600000 -0.599999
v 0.700000 1.600000 -0.599999
v -0.700000 1.600000 -0.699999
v 0.700000 1.600000 -0.699999
v 0.300000 1.600000 -0.699999
v 0.600000 1.600000 -0.699999
v -0.800000 1.600000 -0.799999
v -0.600000 1.600000 -0.699999
v 0.200000 1.600000 -0.699999
v -0.200000 1.600000 -0.699999
v -0.300000 1.600000 -0.699999
v 0.800000 1.600000 -0.799999
v -0.700000 2.300000 0.700001
v 0.700000 2.300000 0.700001
v -0.700000 2.300000 0.600001
v 0.700000 2.300000 0.600001
v -0.700000 2.400000 0.600001
v 0.700000 2.400000 0.600001
v -0.700000 2.400000 0.500001
v 0.700000 2.400000 0.500001
v -0.700000 2.500000 0.500001
v 0.700000 2.500000 0.500001
v -0.700000 2.500000 0.400001
v 0.700000 2.500000 0.400001
v -0.700000 2.600000 0.400001
v 0.700000 2.600000 0.400001
v -0.700000 2.600000 0.300001
v 0.700000 2.600000 0.300001
v -0.800000 3.000000 0.300001
v -0.700000 3.000000 0.300001
v -0.800000 3.000000 -0.699999
v -0.700000 3.000000 -0.699999
v 0.700000 3.000000 0.300001
v 0.800000 3.000000 0.300001
v 0.700000 3.000000 -0.699999
v 0.800000 3.000000 -0.699999
v -0.700000 3.100000 0.300001
v -0.500000 3.100000 0.300001
v -0.700000 3.100000 -0.699999
v -0.500000 3.100000 -0.699999
v 0.500000 3.100000 0.300001
v 0.700000 3.100000 0.300001
v 0.500000 3.100000 -0.699999
v 0.700000 3.100000 -0.699999
v -0.500000 3.200000 0.300001
v -0.300000 3.200000 0.300001
v -0.500000 3.200000 -0.699999
v -0.300000 3.200000 -0.699999
v 0.300000 3.200000 0.300001
v 0.500000 3.200000 0.300001
v 0.300000 3.200000 -0.699999
v 0.500000 3.200000 -0.699999
v -0.300000 3.300000 0.300001
v -0.200000 3.300000 0.300001
v -0.300000 3.300000 -0.699999
v -0.200000 3.300000 -0.699999
v 0.200000 3.300000 0.300001
v 0.300000 3.300000 0.300001
v 0.200000 3.300000 -0.699999
v 0.300000 3.300000 -0.699999
v -0.200000 3.400000 0.300001
v -0.100000 3.400000 0.300001
v -0.200000 3.400000 -0.699999
v -0.100000 3.400000 -0.699999
v 0.100000 3.400000 0.300001
v 0.200000 3.400000 0.300001
v 0.100000 3.400000 -0.699999
v 0.200000 3.400000 -0.699999
v -0.100000 3.500000 0.300001
v 0.100000 3.500000 0.300001
v -0.100000 3.500000 -0.699999
v 0.100000 3.500000 -0.699999
vt 0.083984 0.500000
vt 0.083984 0.500000
vt 0.083984 0.500000
vt 0.083984 0.500000
vt 0.080078 0.500000
vt 0.080078 0.500000
vt 0.080078 0.500000
vt 0.080078 0.500000
vt 0.005859 0.500000
vt 0.005859 0.500000
vt 0.005859 0.500000
vt 0.005859 0.500000
vt 0.044922 0.500000
vt 0.044922 0.500000
vt 0.044922 0.500000
vt 0.044922 0.500000
vt 0.087891 0.500000
vt 0.087891 0.500000
vt 0.087891 0.500000
vt 0.076172 0.500000
vt 0.076172 0.500000
vt 0.076172 0.500000
vt 0.087891 0.500000
vt 0.087891 0.500000
vt 0.087891 0.500000
vt 0.076172 0.500000
vt 0.076172 0.500000
vt 0.076172 0.500000
vt 0.076172 0.500000
vt 0.087891 0.500000
vt 0.087891 0.500000
vt 0.087891 0.500000
vt 0.087891 0.500000
vt 0.076172 0.500000
vt 0.076172 0.500000
vt 0.076172 0.500000
vt 0.076172 0.500000
vt 0.087891 0.500000
vt 0.087891 0.500000
vt 0.087891 0.500000
vt 0.087891 0.500000
vt 0.076172 0.500000
vt 0.087891 0.500000
vt 0.087891 0.500000
vt 0.087891 0.500000
vt 0.087891 0.500000
vt 0.087891 0.500000
vt 0.087891 0.500000
vt 0.087891 0.500000
vt 0.076172 0.500000
vt 0.076172 0.500000
vt 0.076172 0.500000
vt 0.087891 0.500000
vt 0.076172 0.500000
vt 0.076172 0.500000
vt 0.076172 0.500000
vt 0.076172 0.500000
vt 0.087891 0.500000
vt 0.087891 0.500000
vt 0.076172 0.500000
vt 0.076172 0.500000
vt 0.076172 0.500000
vt 0.076172 0.500000
vt 0.087891 0.500000
vt 0.087891 0.500000
vt 0.076172 0.500000
vt 0.087891 0.500000
vt 0.044922 0.500000
vt 0.044922 0.500000
vt 0.044922 0.500000
vt 0.044922 0.500000
vt 0.087891 0.500000
vt 0.044922 0.500000
vt 0.087891 0.500000
vt 0.087891 0.500000
vt 0.087891 0.500000
vt 0.087891 0.500000
vt 0.087891 0.500000
vt 0.044922 0.500000
vt 0.044922 0.500000
vt 0.044922 0.500000
vt 0.087891 0.500000
vt 0.044922 0.500000
vt 0.087891 0.500000
vt 0.044922 0.500000
vt 0.044922 0.500000
vt 0.044922 0.500000
vt 0.087891 0.500000
vt 0.044922 0.500000
vt 0.087891 0.500000
vt 0.044922 0.500000
vt 0.044922 0.500000
vt 0.044922 0.500000
vt 0.087891 0.500000
vt 0.044922 0.500000
vt 0.076172 0.500000
vt 0.076172 0.500000
vt 0.076172 0.500000
vt 0.087891 0.500000
vt 0.087891 0.500000
vt 0.076172 0.500000
vt 0.076172 0.500000
vt 0.076172 0.500000
vt 0.076172 0.500000
vt 0.087891 0.500000
vt 0.087891 0.500000
vt 0.076172 0.500000
vt 0.087891 0.500000
vt 0.087891 0.500000
vt 0.087891 0.500000
vt 0.087891 0.500000
vt 0.087891 0.500000
vt 0.087891 0.500000
vt 0.076172 0.500000
vt 0.076172 0.500000
vt 0.076172 0.500000
vt 0.087891 0.500000
vt 0.076172 0.500000
vt 0.076172 0.500000
vt 0.076172 0.500000
vt 0.076172 0.500000
vt 0.087891 0.500000
vt 0.087891 0.500000
vt 0.076172 0.500000
vt 0.087891 0.500000
vt 0.087891 0.500000
vt 0.044922 0.500000
vt 0.044922 0.500000
vt 0.044922 0.500000
vt 0.044922 0.500000
vt 0.044922 0.500000
vt 0.044922 0.500000
vt 0.044922 0.500000
vt 0.044922 0.500000
vt 0.115234 0.500000
vt 0.115234 0.500000
vt 0.115234 0.500000
vt 0.115234 0.500000
vt 0.044922 0.500000
vt 0.044922 0.500000
vt 0.044922 0.500000
vt 0.044922 0.500000
vt 0.115234 0.500000
vt 0.115234 0.500000
vt 0.115234 0.500000
vt 0.115234 0.500000
vt 0.044922 0.500000
vt 0.044922 0.500000
vt 0.044922 0.500000
vt 0.044922 0.500000
vt 0.044922 0.500000
vt 0.044922 0.500000
vt 0.044922 0.500000
vt 0.044922 0.500000
vt 0.115234 0.500000
vt 0.115234 0.500000
vt 0.115234 0.500000
vt 0.115234 0.500000
vt 0.115234 0.500000
vt 0.115234 0.500000
vt 0.115234 0.500000
vt 0.115234 0.500000
vt 0.044922 0.500000
vt 0.044922 0.500000
vt 0.044922 0.500000
vt 0.044922 0.500000
vt 0.044922 0.500000
vt 0.044922 0.500000
vt 0.044922 0.500000
vt 0.044922 0.500000
vt 0.044922 0.500000
vt 0.044922 0.500000
vt 0.044922 0.500000
vt 0.044922 0.500000
vt 0.044922 0.500000
vt 0.044922 0.500000
vt 0.044922 0.500000
vt 0.044922 0.500000
vt 0.087891 0.500000
vt 0.087891 0.500000
vt 0.087891 0.500000
vt 0.076172 0.500000
vt 0.076172 0.500000
vt 0.076172 0.500000
vt 0.087891 0.500000
vt 0.087891 0.500000
vt 0.087891 0.500000
vt 0.076172 0.500000
vt 0.076172 0.500000
vt 0.076172 0.500000
vt 0.076172 0.500000
vt 0.087891 0.500000
vt 0.087891 0.500000
vt 0.087891 0.500000
vt 0.087891 0.500000
vt 0.076172 0.500000
vt 0.076172 0.500000
vt 0.076172 0.500000
vt 0.076172 0.500000
vt 0.087891 0.500000
vt 0.087891 0.500000
vt 0.087891 0.500000
vt 0.087891 0.500000
vt 0.076172 0.500000
vt 0.087891 0.500000
vt 0.087891 0.500000
vt 0.087891 0.500000
vt 0.087891 0.500000
vt 0.087891 0.500000
vt 0.087891 0.500000
vt 0.087891 0.500000
vt 0.076172 0.500000
vt 0.076172 0.500000
vt 0.076172 0.500000
vt 0.087891 0.500000
vt 0.076172 0.500000
vt 0.076172 0.500000
vt 0.076172 0.500000
vt 0.076172 0.500000
vt 0.087891 0.500000
vt 0.087891 0.500000
vt 0.076172 0.500000
vt 0.076172 0.500000
vt 0.076172 0.500000
vt 0.076172 0.500000
vt 0.087891 0.500000
vt 0.087891 0.500000
vt 0.076172 0.500000
vt 0.087891 0.500000
vt 0.044922 0.500000
vt 0.044922 0.500000
vt 0.044922 0.500000
vt 0.044922 0.500000
vt 0.087891 0.500000
vt 0.044922 0.500000
vt 0.087891 0.500000
vt 0.087891 0.500000
vt 0.087891 0.500000
vt 0.087891 0.500000
vt 0.087891 0.500000
vt 0.044922 0.500000
vt 0.044922 0.500000
vt 0.044922 0.500000
vt 0.087891 0.500000
vt 0.044922 0.500000
vt 0.087891 0.500000
vt 0.044922 0.500000
vt 0.044922 0.500000
vt 0.044922 0.500000
vt 0.087891 0.500000
vt 0.044922 0.500000
vt 0.087891 0.500000
vt 0.044922 0.500000
vt 0.044922 0.500000
vt 0.044922 0.500000
vt 0.087891 0.500000
vt 0.044922 0.500000
vt 0.076172 0.500000
vt 0.076172 0.500000
vt 0.076172 0.500000
vt 0.087891 0.500000
vt 0.087891 0.500000
vt 0.076172 0.500000
vt 0.076172 0.500000
vt 0.076172 0.500000
vt 0.076172 0.500000
vt 0.087891 0.500000
vt 0.087891 0.500000
vt 0.076172 0.500000
vt 0.087891 0.500000
vt 0.087891 0.500000
vt 0.087891 0.500000
vt 0.087891 0.500000
vt 0.087891 0.500000
vt 0.087891 0.500000
vt 0.076172 0.500000
vt 0.076172 0.500000
vt 0.076172 0.500000
vt 0.087891 0.500000
vt 0.076172 0.500000
vt 0.076172 0.500000
vt 0.076172 0.500000
vt 0.076172 0.500000
vt 0.087891 0.500000
vt 0.087891 0.500000
vt 0.076172 0.500000
vt 0.087891 0.500000
vt 0.087891 0.500000
vt 0.044922 0.500000
vt 0.044922 0.500000
vt 0.044922 0.500000
vt 0.044922 0.500000
vt 0.083984 0.500000
vt 0.083984 0.500000
vt 0.083984 0.500000
vt 0.083984 0.500000
vt 0.080078 0.500000
vt 0.080078 0.500000
vt 0.080078 0.500000
vt 0.080078 0.500000
vt 0.005859 0.500000
vt 0.005859 0.500000
vt 0.005859 0.500000
vt 0.005859 0.500000
vt 0.044922 0.500000
vt 0.044922 0.500000
vt 0.044922 0.500000
vt 0.044922 0.500000
vt 0.083984 0.500000
vt 0.083984 0.500000
vt 0.083984 0.500000
vt 0.080078 0.500000
vt 0.080078 0.500000
vt 0.080078 0.500000
vt 0.083984 0.500000
vt 0.005859 0.500000
vt 0.005859 0.500000
vt 0.005859 0.500000
vt 0.080078 0.500000
vt 0.005859 0.500000
vt 0.044922 0.500000
vt 0.044922 0.500000
vt 0.044922 0.500000
vt 0.115234 0.500000
vt 0.115234 0.500000
vt 0.115234 0.500000
vt 0.044922 0.500000
vt 0.115234 0.500000
vt 0.044922 0.500000
vt 0.115234 0.500000
vt 0.115234 0.500000
vt 0.115234 0.500000
vt 0.044922 0.500000
vt 0.115234 0.500000
vt 0.044922 0.500000
vt 0.044922 0.500000
vt 0.044922 0.500000
vt 0.044922 0.500000
vt 0.044922 0.500000
vt 0.044922 0.500000
vt 0.087891 0.500000
vt 0.087891 0.500000
vt 0.087891 0.500000
vt 0.087891 0.500000
vt 0.087891 0.500000
vt 0.087891 0.500000
vt 0.076172 0.500000
vt 0.076172 0.500000
vt 0.076172 0.500000
vt 0.087891 0.500000
vt 0.076172 0.500000
vt 0.076172 0.500000
vt 0.076172 0.500000
vt 0.076172 0.500000
vt 0.087891 0.500000
vt 0.087891 0.500000
vt 0.076172 0.500000
vt 0.087891 0.500000
vt 0.087891 0.500000
vt 0.087891 0.500000
vt 0.087891 0.500000
vt 0.087891 0.500000
vt 0.076172 0.500000
vt 0.076172 0.500000
vt 0.076172 0.500000
vt 0.087891 0.500000
vt 0.076172 0.500000
vt 0.091797 0.500000
vt 0.091797 0.500000
vt 0.091797 0.500000
vt 0.087891 0.500000
vt 0.087891 0.500000
vt 0.091797 0.500000
vt 0.087891 0.500000
vt 0.087891 0.500000
vt 0.087891 0.500000
vt 0.087891 0.500000
vt 0.087891 0.500000
vt 0.076172 0.500000
vt 0.076172 0.500000
vt 0.076172 0.500000
vt 0.087891 0.500000
vt 0.076172 0.500000
vt 0.076172 0.500000
vt 0.076172 0.500000
vt 0.076172 0.500000
vt 0.087891 0.500000
vt 0.087891 0.500000
vt 0.076172 0.500000
vt 0.087891 0.500000
vt 0.087891 0.500000
vt 0.087891 0.500000
vt 0.044922 0.500000
vt 0.044922 0.500000
vt 0.044922 0.500000
vt 0.044922 0.500000
vt 0.044922 0.500000
vt 0.044922 0.500000
vt 0.044922 0.500000
vt 0.044922 0.500000
vt 0.044922 0.500000
vt 0.044922 0.500000
vt 0.044922 0.500000
vt 0.044922 0.500000
vt 0.087891 0.500000
vt 0.087891 0.500000
vt 0.087891 0.500000
vt 0.087891 0.500000
vt 0.087891 0.500000
vt 0.044922 0.500000
vt 0.044922 0.500000
vt 0.087891 0.500000
vt 0.044922 0.500000
vt 0.076172 0.500000
vt 0.076172 0.500000
vt 0.076172 0.500000
vt 0.087891 0.500000
vt 0.087891 0.500000
vt 0.087891 0.500000
vt 0.076172 0.500000
vt 0.087891 0.500000
vt 0.044922 0.500000
vt 0.044922 0.500000
vt 0.087891 0.500000
vt 0.044922 0.500000
vt 0.087891 0.500000
vt 0.087891 0.500000
vt 0.044922 0.500000
vt 0.044922 0.500000
vt 0.087891 0.500000
vt 0.087891 0.500000
vt 0.076172 0.500000
vt 0.076172 0.500000
vt 0.076172 0.500000
vt 0.044922 0.500000
vt 0.044922 0.500000
vt 0.087891 0.500000
vt 0.044922 0.500000
vt 0.044922 0.500000
vt 0.076172 0.500000
vt 0.076172 0.500000
vt 0.087891 0.500000
vt 0.087891 0.500000
vt 0.076172 0.500000
vt 0.044922 0.500000
vt 0.044922 0.500000
vt 0.087891 0.500000
vt 0.044922 0.500000
vt 0.044922 0.500000
vt 0.076172 0.500000
vt 0.076172 0.500000
vt 0.076172 0.500000
vt 0.087891 0.500000
vt 0.087891 0.500000
vt 0.076172 0.500000
vt 0.044922 0.500000
vt 0.044922 0.500000
vt 0.044922 0.500000
vt 0.087891 0.500000
vt 0.087891 0.500000
vt 0.076172 0.500000
vt 0.087891 0.500000
vt 0.087891 0.500000
vt 0.087891 0.500000
vt 0.076172 0.500000
vt 0.044922 0.500000
vt 0.087891 0.500000
vt 0.044922 0.500000
vt 0.087891 0.500000
vt 0.044922 0.500000
vt 0.044922 0.500000
vt 0.087891 0.500000
vt 0.044922 0.500000
vt 0.087891 0.500000
vt 0.076172 0.500000
vt 0.076172 0.500000
vt 0.076172 0.500000
vt 0.087891 0.500000
vt 0.076172 0.500000
vt 0.087891 0.500000
vt 0.087891 0.500000
vt 0.044922 0.500000
vt 0.044922 0.500000
vt 0.087891 0.500000
vt 0.044922 0.500000
vt 0.044922 0.500000
vt 0.044922 0.500000
vt 0.044922 0.500000
vt 0.115234 0.500000
vt 0.115234 0.500000
vt 0.115234 0.500000
vt 0.115234 0.500000
vt 0.115234 0.500000
vt 0.115234 0.500000
vt 0.115234 0.500000
vt 0.115234 0.500000
vt 0.044922 0.500000
vt 0.044922 0.500000
vt 0.044922 0.500000
vt 0.044922 0.500000
vt 0.087891 0.500000
vt 0.087891 0.500000
vt 0.087891 0.500000
vt 0.087891 0.500000
vt 0.087891 0.500000
vt 0.087891 0.500000
vt 0.087891 0.500000
vt 0.087891 0.500000
vt 0.087891 0.500000
vt 0.087891 0.500000
vt 0.087891 0.500000
vt 0.044922 0.500000
vt 0.044922 0.500000
vt 0.087891 0.500000
vt 0.044922 0.500000
vt 0.076172 0.500000
vt 0.076172 0.500000
vt 0.076172 0.500000
vt 0.087891 0.500000
vt 0.076172 0.500000
vt 0.076172 0.500000
vt 0.076172 0.500000
vt 0.076172 0.500000
vt 0.087891 0.500000
vt 0.087891 0.500000
vt 0.076172 0.500000
vt 0.076172 0.500000
vt 0.076172 0.500000
vt 0.076172 0.500000
vt 0.087891 0.500000
vt 0.087891 0.500000
vt 0.076172 0.500000
vt 0.076172 0.500000
vt 0.076172 0.500000
vt 0.076172 0.500000
vt 0.087891 0.500000
vt 0.087891 0.500000
vt 0.076172 0.500000
vt 0.087891 0.500000
vt 0.087891 0.500000
vt 0.044922 0.500000
vt 0.044922 0.500000
vt 0.087891 0.500000
vt 0.044922 0.500000
vt 0.087891 0.500000
vt 0.087891 0.500000
vt 0.087891 0.500000
vt 0.087891 0.500000
vt 0.087891 0.500000
vt 0.087891 0.500000
vt 0.087891 0.500000
vt 0.087891 0.500000
vt 0.087891 0.500000
vt 0.044922 0.500000
vt 0.044922 0.500000
vt 0.087891 0.500000
vt 0.087891 0.500000
vt 0.076172 0.500000
vt 0.076172 0.500000
vt 0.076172 0.500000
vt 0.044922 0.500000
vt 0.044922 0.500000
vt 0.087891 0.500000
vt 0.044922 0.500000
vt 0.044922 0.500000
vt 0.076172 0.500000
vt 0.076172 0.500000
vt 0.087891 0.500000
vt 0.087891 0.500000
vt 0.076172 0.500000
vt 0.044922 0.500000
vt 0.044922 0.500000
vt 0.087891 0.500000
vt 0.044922 0.500000
vt 0.044922 0.500000
vt 0.076172 0.500000
vt 0.076172 0.500000
vt 0.076172 0.500000
vt 0.087891 0.500000
vt 0.076172 0.500000
vt 0.076172 0.500000
vt 0.076172 0.500000
vt 0.076172 0.500000
vt 0.087891 0.500000
vt 0.087891 0.500000
vt 0.076172 0.500000
vt 0.076172 0.500000
vt 0.076172 0.500000
vt 0.076172 0.500000
vt 0.087891 0.500000
vt 0.087891 0.500000
vt 0.076172 0.500000
vt 0.076172 0.500000
vt 0.076172 0.500000
vt 0.076172 0.500000
vt 0.087891 0.500000
vt 0.087891 0.500000
vt 0.076172 0.500000
vt 0.044922 0.500000
vt 0.044922 0.500000
vt 0.044922 0.500000
vt 0.087891 0.500000
vt 0.087891 0.500000
vt 0.087891 0.500000
vt 0.087891 0.500000
vt 0.087891 0.500000
vt 0.087891 0.500000
vt 0.087891 0.500000
vt 0.087891 0.500000
vt 0.087891 0.500000
vt 0.076172 0.500000
vt 0.087891 0.500000
vt 0.087891 0.500000
vt 0.087891 0.500000
vt 0.076172 0.500000
vt 0.044922 0.500000
vt 0.087891 0.500000
vt 0.044922 0.500000
vt 0.087891 0.500000
vt 0.044922 0.500000
vt 0.044922 0.500000
vt 0.087891 0.500000
vt 0.044922 0.500000
vt 0.076172 0.500000
vt 0.076172 0.500000
vt 0.076172 0.500000
vt 0.087891 0.500000
vt 0.076172 0.500000
vt 0.076172 0.500000
vt 0.076172 0.500000
vt 0.076172 0.500000
vt 0.087891 0.500000
vt 0.087891 0.500000
vt 0.076172 0.500000
vt 0.076172 0.500000
vt 0.076172 0.500000
vt 0.076172 0.500000
vt 0.087891 0.500000
vt 0.087891 0.500000
vt 0.076172 0.500000
vt 0.076172 0.500000
vt 0.076172 0.500000
vt 0.076172 0.500000
vt 0.087891 0.500000
vt 0.087891 0.500000
vt 0.076172 0.500000
vt 0.087891 0.500000
vt 0.087891 0.500000
vt 0.087891 0.500000
vt 0.044922 0.500000
vt 0.044922 0.500000
vt 0.087891 0.500000
vt 0.044922 0.500000
vt 0.044922 0.500000
vt 0.044922 0.500000
vt 0.044922 0.500000
vt 0.083984 0.500000
vt 0.083984 0.500000
vt 0.083984 0.500000
vt 0.080078 0.500000
vt 0.080078 0.500000
vt 0.080078 0.500000
vt 0.083984 0.500000
vt 0.005859 0.500000
vt 0.005859 0.500000
vt 0.005859 0.500000
vt 0.080078 0.500000
vt 0.005859 0.500000
vt 0.083984 0.500000
vt 0.083984 0.500000
vt 0.083984 0.500000
vt 0.083984 0.500000
vt 0.115234 0.500000
vt 0.115234 0.500000
vt 0.115234 0.500000
vt 0.115234 0.500000
vt 0.115234 0.500000
vt 0.115234 0.500000
vt 0.115234 0.500000
vt 0.115234 0.500000
vt 0.044922 0.500000
vt 0.044922 0.500000
vt 0.044922 0.500000
vt 0.044922 0.500000
vt 0.044922 0.500000
vt 0.044922 0.500000
vt 0.044922 0.500000
vt 0.044922 0.500000
vt 0.044922 0.500000
vt 0.044922 0.500000
vt 0.044922 0.500000
vt 0.044922 0.500000
vt 0.044922 0.500000
vt 0.044922 0.500000
vt 0.044922 0.500000
vt 0.044922 0.500000
vt 0.044922 0.500000
vt 0.044922 0.500000
vt 0.044922 0.500000
vt 0.044922 0.500000
vt 0.005859 0.500000
vt 0.005859 0.500000
vt 0.005859 0.500000
vt 0.005859 0.500000
vt 0.005859 0.500000
vt 0.005859 0.500000
vt 0.005859 0.500000
vt 0.005859 0.500000
vt 0.005859 0.500000
vt 0.005859 0.500000
vt 0.005859 0.500000
vt 0.005859 0.500000
vt 0.005859 0.500000
vt 0.005859 0.500000
vt 0.005859 0.500000
vt 0.005859 0.500000
vt 0.005859 0.500000
vt 0.005859 0.500000
vt 0.005859 0.500000
vt 0.005859 0.500000
vt 0.005859 0.500000
vt 0.005859 0.500000
vt 0.005859 0.500000
vt 0.005859 0.500000
vt 0.005859 0.500000
vt 0.005859 0.500000
vt 0.005859 0.500000
vt 0.005859 0.500000
vt 0.005859 0.500000
vt 0.005859 0.500000
vt 0.005859 0.500000
vt 0.005859 0.500000
vt 0.044922 0.500000
vt 0.044922 0.500000
vt 0.044922 0.500000
vt 0.044922 0.500000
vt 0.044922 0.500000
vt 0.044922 0.500000
vt 0.044922 0.500000
vt 0.044922 0.500000
vt 0.044922 0.500000
vt 0.044922 0.500000
vt 0.044922 0.500000
vt 0.044922 0.500000
vt 0.044922 0.500000
vt 0.044922 0.500000
vt 0.044922 0.500000
vt 0.044922 0.500000
vt 0.044922 0.500000
vt 0.044922 0.500000
vt 0.044922 0.500000
vt 0.044922 0.500000
vt 0.044922 0.500000
vt 0.044922 0.500000
vt 0.044922 0.500000
vt 0.044922 0.500000
vt 0.044922 0.500000
vt 0.044922 0.500000
vt 0.044922 0.500000
vt 0.044922 0.500000
vt 0.044922 0.500000
vt 0.044922 0.500000
vt 0.044922 0.500000
vt 0.044922 0.500000
vt 0.044922 0.500000
vt 0.044922 0.500000
vt 0.044922 0.500000
vt 0.044922 0.500000
vt 0.044922 0.500000
vt 0.044922 0.500000
vt 0.044922 0.500000
vt 0.044922 0.500000
vt 0.044922 0.500000
vt 0.044922 0.500000
vt 0.044922 0.500000
vt 0.044922 0.500000
vt 0.044922 0.500000
vt 0.044922 0.500000
vt 0.044922 0.500000
vt 0.044922 0.500000
vt 0.044922 0.500000
vt 0.044922 0.500000
vt 0.044922 0.500000
vt 0.044922 0.500000
vt 0.044922 0.500000
vt 0.044922 0.500000
vt 0.044922 0.500000
vt 0.044922 0.500000
vt 0.044922 0.500000
vt 0.044922 0.500000
vt 0.044922 0.500000
vt 0.044922 0.500000
vn -1.0000 0.0000 0.0000
vn 1.0000 0.0000 0.0000
vn 0.0000 -0.0000 1.0000
vn 0.0000 0.0000 -1.0000
vn 0.0000 -1.0000 -0.0000
vn 0.0000 1.0000 0.0000
usemtl palette
s 1
f 1/1/1 2/2/1 3/3/1
f 4/4/1 2/2/1 1/1/1
f 5/5/1 4/6/1 1/7/1
f 6/8/1 4/6/1 5/5/1
f 7/9/1 6/10/1 5/11/1
f 8/12/1 6/10/1 7/9/1
f 9/13/1 10/14/1 11/15/1
f 12/16/1 10/14/1 9/13/1
f 13/17/1 14/18/1 15/19/1
f 13/20/1 16/21/1 14/22/1
f 17/23/1 18/24/1 16/25/1
f 17/26/1 16/21/1 13/20/1
f 19/27/1 20/28/1 18/29/1
f 19/30/1 18/24/1 17/23/1
f 21/31/1 22/32/1 20/33/1
f 21/34/1 20/28/1 19/27/1
f 23/35/1 24/36/1 22/37/1
f 23/38/1 22/32/1 21/31/1
f 25/39/1 26/40/1 24/41/1
f 25/42/1 24/36/1 23/35/1
f 27/43/1 23/38/1 21/31/1
f 27/43/1 21/31/1 19/30/1
f 27/43/1 25/39/1 23/38/1
f 27/43/1 19/30/1 17/23/1
f 27/43/1 17/23/1 13/17/1
f 27/43/1 13/17/1 15/19/1
f 28/44/1 25/39/1 27/43/1
f 29/45/1 25/39/1 28/44/1
f 30/46/1 25/39/1 29/45/1
f 31/47/1 25/39/1 30/46/1
f 32/48/1 26/40/1 25/39/1
f 32/48/1 25/39/1 31/47/1
f 33/49/1 27/43/1 15/19/1
f 33/50/1 28/51/1 27/52/1
f 34/53/1 29/45/1 28/44/1
f 34/54/1 28/51/1 33/50/1
f 35/55/1 30/56/1 29/57/1
f 35/58/1 29/45/1 34/53/1
f 36/59/1 31/47/1 30/46/1
f 36/60/1 30/56/1 35/55/1
f 37/61/1 32/62/1 31/63/1
f 37/64/1 31/47/1 36/59/1
f 38/65/1 26/40/1 32/48/1
f 38/66/1 32/62/1 37/61/1
f 39/67/1 35/58/1 34/53/1
f 39/67/1 37/64/1 36/59/1
f 39/67/1 38/65/1 37/64/1
f 39/67/1 34/53/1 33/49/1
f 39/67/1 33/49/1 15/19/1
f 39/67/1 36/59/1 35/58/1
f 40/68/1 39/69/1 41/70/1
f 42/71/1 39/69/1 40/68/1
f 43/72/1 38/65/1 39/67/1
f 43/73/1 39/69/1 42/71/1
f 44/74/1 38/65/1 43/72/1
f 45/75/1 38/65/1 44/74/1
f 46/76/1 38/65/1 45/75/1
f 47/77/1 38/65/1 46/76/1
f 48/78/1 26/40/1 38/65/1
f 48/78/1 38/65/1 47/77/1
f 49/79/1 43/73/1 42/71/1
f 49/79/1 44/80/1 43/73/1
f 50/81/1 44/80/1 49/79/1
f 51/82/1 45/75/1 44/74/1
f 51/83/1 44/80/1 50/81/1
f 52/84/1 45/75/1 51/82/1
f 53/85/1 51/83/1 50/81/1
f 53/85/1 52/86/1 51/83/1
f 54/87/1 52/86/1 53/85/1
f 55/88/1 45/75/1 52/84/1
f 55/89/1 52/86/1 54/87/1
f 56/90/1 45/75/1 55/88/1
f 57/91/1 55/89/1 54/87/1
f 57/91/1 56/92/1 55/89/1
f 58/93/1 56/92/1 57/91/1
f 59/94/1 45/75/1 56/90/1
f 59/95/1 56/92/1 58/93/1
f 60/96/1 46/97/1 45/98/1
f 60/99/1 45/75/1 59/94/1
f 61/100/1 47/77/1 46/76/1
f 61/101/1 46/97/1 60/96/1
f 62/102/1 48/103/1 47/104/1
f 62/105/1 47/77/1 61/100/1
f 63/106/1 26/40/1 48/78/1
f 63/107/1 48/103/1 62/102/1
f 64/108/1 60/99/1 59/94/1
f 64/108/1 62/105/1 61/100/1
f 64/108/1 63/106/1 62/105/1
f 64/108/1 61/100/1 60/99/1
f 64/108/1 59/94/1 58/109/1
f 65/110/1 63/106/1 64/108/1
f 66/111/1 63/106/1 65/110/1
f 67/112/1 26/40/1 63/106/1
f 67/112/1 63/106/1 66/111/1
f 68/113/1 64/108/1 58/109/1
f 68/114/1 65/115/1 64/116/1
f 69/117/1 66/111/1 65/110/1
f 69/118/1 65/115/1 68/114/1
f 70/119/1 67/120/1 66/121/1
f 70/122/1 66/111/1 69/117/1
f 71/123/1 26/40/1 67/112/1
f 71/124/1 67/120/1 70/119/1
f 72/125/1 68/113/1 58/109/1
f 72/125/1 70/122/1 69/117/1
f 72/125/1 71/123/1 70/122/1
f 72/125/1 69/117/1 68/113/1
f 73/126/1 26/40/1 71/123/1
f 73/126/1 71/123/1 72/125/1
f 74/127/1 75/128/1 76/129/1
f 77/130/1 75/128/1 74/127/1
f 78/131/1 79/132/1 80/133/1
f 81/134/1 79/132/1 78/131/1
f 82/135/1 83/136/1 84/137/1
f 85/138/1 83/136/1 82/135/1
f 86/139/1 87/140/1 88/141/1
f 89/142/1 87/140/1 86/139/1
f 90/143/1 91/144/1 92/145/1
f 93/146/1 91/144/1 90/143/1
f 94/147/1 95/148/1 96/149/1
f 97/150/1 95/148/1 94/147/1
f 98/151/1 99/152/1 100/153/1
f 101/154/1 99/152/1 98/151/1
f 102/155/2 103/156/2 104/157/2
f 104/157/2 103/156/2 105/158/2
f 106/159/2 107/160/2 108/161/2
f 108/161/2 107/160/2 109/162/2
f 110/163/2 111/164/2 112/165/2
f 112/165/2 111/164/2 113/166/2
f 114/167/2 115/168/2 116/169/2
f 116/169/2 115/168/2 117/170/2
f 118/171/2 119/172/2 120/173/2
f 120/173/2 119/172/2 121/174/2
f 122/175/2 123/176/2 124/177/2
f 124/177/2 123/176/2 125/178/2
f 126/179/2 127/180/2 128/181/2
f 127/182/2 129/183/2 128/184/2
f 129/185/2 130/186/2 131/187/2
f 128/184/2 129/183/2 131/188/2
f 130/189/2 132/190/2 133/191/2
f 131/187/2 130/186/2 133/192/2
f 132/193/2 134/194/2 135/195/2
f 133/191/2 132/190/2 135/196/2
f 134/197/2 136/198/2 137/199/2
f 135/195/2 134/194/2 137/200/2
f 136/201/2 138/202/2 139/203/2
f 137/199/2 136/198/2 139/204/2
f 135/195/2 137/200/2 140/205/2
f 133/192/2 135/195/2 140/205/2
f 137/200/2 139/203/2 140/205/2
f 131/187/2 133/192/2 140/205/2
f 128/181/2 131/187/2 140/205/2
f 126/179/2 128/181/2 140/205/2
f 140/205/2 139/203/2 141/206/2
f 141/206/2 139/203/2 142/207/2
f 142/207/2 139/203/2 143/208/2
f 143/208/2 139/203/2 144/209/2
f 139/203/2 138/202/2 145/210/2
f 144/209/2 139/203/2 145/210/2
f 126/179/2 140/205/2 146/211/2
f 140/212/2 141/213/2 146/214/2
f 141/206/2 142/207/2 147/215/2
f 146/214/2 141/213/2 147/216/2
f 142/217/2 143/218/2 148/219/2
f 147/215/2 142/207/2 148/220/2
f 143/208/2 144/209/2 149/221/2
f 148/219/2 143/218/2 149/222/2
f 144/223/2 145/224/2 150/225/2
f 149/221/2 144/209/2 150/226/2
f 145/210/2 138/202/2 151/227/2
f 150/225/2 145/224/2 151/228/2
f 147/215/2 148/220/2 152/229/2
f 149/221/2 150/226/2 152/229/2
f 150/226/2 151/227/2 152/229/2
f 146/211/2 147/215/2 152/229/2
f 126/179/2 146/211/2 152/229/2
f 148/220/2 149/221/2 152/229/2
f 153/230/2 152/231/2 154/232/2
f 154/232/2 152/231/2 155/233/2
f 152/229/2 151/227/2 156/234/2
f 155/233/2 152/231/2 156/235/2
f 156/234/2 151/227/2 157/236/2
f 157/236/2 151/227/2 158/237/2
f 158/237/2 151/227/2 159/238/2
f 159/238/2 151/227/2 160/239/2
f 151/227/2 138/202/2 161/240/2
f 160/239/2 151/227/2 161/240/2
f 155/233/2 156/235/2 162/241/2
f 156/235/2 157/242/2 162/241/2
f 162/241/2 157/242/2 163/243/2
f 157/236/2 158/237/2 164/244/2
f 163/243/2 157/242/2 164/245/2
f 164/244/2 158/237/2 165/246/2
f 163/243/2 164/245/2 166/247/2
f 164/245/2 165/248/2 166/247/2
f 166/247/2 165/248/2 167/249/2
f 165/246/2 158/237/2 168/250/2
f 167/249/2 165/248/2 168/251/2
f 168/250/2 158/237/2 169/252/2
f 167/249/2 168/251/2 170/253/2
f 168/251/2 169/254/2 170/253/2
f 170/253/2 169/254/2 171/255/2
f 169/252/2 158/237/2 172/256/2
f 171/255/2 169/254/2 172/257/2
f 158/258/2 159/259/2 173/260/2
f 172/256/2 158/237/2 173/261/2
f 159/238/2 160/239/2 174/262/2
f 173/260/2 159/259/2 174/263/2
f 160/264/2 161/265/2 175/266/2
f 174/262/2 160/239/2 175/267/2
f 161/240/2 138/202/2 176/268/2
f 175/266/2 161/265/2 176/269/2
f 172/256/2 173/261/2 177/270/2
f 174/262/2 175/267/2 177/270/2
f 175/267/2 176/268/2 177/270/2
f 173/261/2 174/262/2 177/270/2
f 171/271/2 172/256/2 177/270/2
f 177/270/2 176/268/2 178/272/2
f 178/272/2 176/268/2 179/273/2
f 176/268/2 138/202/2 180/274/2
f 179/273/2 176/268/2 180/274/2
f 171/271/2 177/270/2 181/275/2
f 177/276/2 178/277/2 181/278/2
f 178/272/2 179/273/2 182/279/2
f 181/278/2 178/277/2 182/280/2
f 179/281/2 180/282/2 183/283/2
f 182/279/2 179/273/2 183/284/2
f 180/274/2 138/202/2 184/285/2
f 183/283/2 180/282/2 184/286/2
f 171/271/2 181/275/2 185/287/2
f 182/279/2 183/284/2 185/287/2
f 183/284/2 184/285/2 185/287/2
f 181/275/2 182/279/2 185/287/2
f 184/285/2 138/202/2 186/288/2
f 185/287/2 184/285/2 186/288/2
f 187/289/2 188/290/2 189/291/2
f 189/291/2 188/290/2 190/292/2
f 191/293/2 192/294/2 193/295/2
f 193/295/2 192/294/2 194/296/2
f 193/297/2 194/298/2 195/299/2
f 195/299/2 194/298/2 196/300/2
f 195/301/2 196/302/2 197/303/2
f 197/303/2 196/302/2 198/304/2
f 199/305/2 200/306/2 201/307/2
f 201/307/2 200/306/2 202/308/2
f 203/309/3 204/310/3 205/311/3
f 206/312/3 207/313/3 204/314/3
f 206/315/3 204/310/3 203/309/3
f 208/316/3 209/317/3 207/318/3
f 208/319/3 207/313/3 206/312/3
f 210/320/3 209/317/3 208/316/3
f 211/321/3 212/322/3 213/323/3
f 214/324/3 211/325/3 215/326/3
f 216/327/3 212/322/3 211/321/3
f 216/328/3 211/325/3 214/324/3
f 217/329/3 212/322/3 216/327/3
f 218/330/3 217/331/3 219/332/3
f 220/333/3 212/322/3 217/329/3
f 220/334/3 217/331/3 218/330/3
f 221/335/3 212/322/3 220/333/3
f 222/336/3 212/322/3 221/335/3
f 223/337/3 224/338/3 225/339/3
f 226/340/3 224/338/3 223/337/3
f 227/341/3 228/342/3 229/343/3
f 230/344/3 228/342/3 227/341/3
f 231/345/3 228/342/3 230/344/3
f 232/346/3 228/342/3 231/345/3
f 233/347/3 230/348/3 227/349/3
f 234/350/3 231/345/3 230/344/3
f 234/351/3 230/348/3 233/347/3
f 235/352/3 232/353/3 231/354/3
f 235/355/3 231/345/3 234/350/3
f 236/356/3 228/342/3 232/346/3
f 236/357/3 232/353/3 235/352/3
f 237/358/3 235/355/3 234/350/3
f 237/358/3 234/350/3 233/359/3
f 237/358/3 236/356/3 235/355/3
f 238/360/3 236/356/3 237/358/3
f 239/361/3 236/356/3 238/360/3
f 240/362/3 228/342/3 236/356/3
f 240/362/3 236/356/3 239/361/3
f 241/363/3 238/364/3 237/365/3
f 242/366/3 239/361/3 238/360/3
f 242/367/3 238/364/3 241/363/3
f 243/368/3 240/369/3 239/370/3
f 243/371/3 239/361/3 242/366/3
f 244/372/3 228/342/3 240/362/3
f 244/373/3 240/369/3 243/368/3
f 245/374/3 243/371/3 242/366/3
f 245/374/3 242/366/3 241/375/3
f 245/374/3 244/372/3 243/371/3
f 246/376/3 244/372/3 245/374/3
f 247/377/3 244/372/3 246/376/3
f 248/378/3 228/342/3 244/372/3
f 248/378/3 244/372/3 247/377/3
f 249/379/3 246/380/3 245/381/3
f 250/382/3 247/377/3 246/376/3
f 250/383/3 246/380/3 249/379/3
f 251/384/3 248/385/3 247/386/3
f 251/387/3 247/377/3 250/382/3
f 252/388/3 228/342/3 248/378/3
f 252/389/3 248/385/3 251/384/3
f 253/390/3 251/387/3 250/382/3
f 253/390/3 250/382/3 249/391/3
f 253/390/3 252/388/3 251/387/3
f 254/392/3 228/342/3 252/388/3
f 254/392/3 252/388/3 253/390/3
f 255/393/3 256/394/3 257/395/3
f 258/396/3 256/394/3 255/393/3
f 259/397/3 260/398/3 261/399/3
f 262/400/3 260/398/3 259/397/3
f 263/401/3 264/402/3 265/403/3
f 266/404/3 264/402/3 263/401/3
f 267/405/3 263/406/3 268/407/3
f 267/405/3 266/408/3 263/406/3
f 269/409/3 266/408/3 267/405/3
f 270/410/3 271/411/3 266/404/3
f 270/412/3 266/408/3 269/409/3
f 272/413/3 271/411/3 270/410/3
f 273/414/3 269/415/3 267/416/3
f 273/417/3 267/405/3 268/407/3
f 274/418/3 272/419/3 270/412/3
f 274/420/3 269/415/3 273/414/3
f 274/418/3 270/412/3 269/409/3
f 275/421/3 272/419/3 274/418/3
f 276/422/3 277/423/3 272/413/3
f 276/424/3 272/419/3 275/421/3
f 278/425/3 277/423/3 276/422/3
f 279/426/3 275/421/3 274/418/3
f 279/426/3 273/417/3 268/407/3
f 279/426/3 274/418/3 273/417/3
f 280/427/3 275/421/3 279/426/3
f 281/428/3 282/429/3 278/425/3
f 283/430/3 278/431/3 276/424/3
f 283/432/3 276/433/3 275/434/3
f 284/435/3 285/436/3 281/428/3
f 284/437/3 278/431/3 283/430/3
f 284/435/3 281/428/3 278/425/3
f 286/438/3 285/436/3 284/435/3
f 287/439/3 285/436/3 286/438/3
f 288/440/3 283/432/3 275/434/3
f 288/440/3 284/441/3 283/432/3
f 289/442/3 286/443/3 284/437/3
f 289/444/3 284/441/3 288/440/3
f 290/445/3 291/446/3 287/439/3
f 290/447/3 286/443/3 289/442/3
f 290/445/3 287/439/3 286/438/3
f 292/448/3 291/446/3 290/445/3
f 293/449/3 291/446/3 292/448/3
f 294/450/3 280/451/3 279/452/3
f 294/453/3 279/426/3 268/407/3
f 295/454/3 275/421/3 280/427/3
f 295/455/3 280/451/3 294/450/3
f 296/456/3 292/448/3 290/445/3
f 296/456/3 290/445/3 289/457/3
f 297/458/3 292/448/3 296/456/3
f 298/459/3 294/453/3 268/407/3
f 298/459/3 295/454/3 294/453/3
f 299/460/3 275/421/3 295/454/3
f 299/460/3 295/454/3 298/459/3
f 300/461/3 288/440/3 275/434/3
f 300/462/3 275/421/3 299/460/3
f 301/463/3 289/442/3 288/464/3
f 301/465/3 288/440/3 300/461/3
f 302/466/3 296/456/3 289/457/3
f 302/467/3 289/442/3 301/463/3
f 303/468/3 296/456/3 302/466/3
f 304/469/3 300/462/3 299/460/3
f 304/469/3 301/463/3 300/462/3
f 305/470/3 302/466/3 301/471/3
f 305/472/3 301/463/3 304/469/3
f 306/473/3 302/466/3 305/470/3
f 307/474/3 298/459/3 268/407/3
f 307/475/3 299/476/3 298/477/3
f 308/478/3 304/469/3 299/460/3
f 308/479/3 299/476/3 307/475/3
f 309/480/3 307/474/3 268/407/3
f 309/480/3 308/478/3 307/474/3
f 310/481/3 304/469/3 308/478/3
f 310/481/3 308/478/3 309/480/3
f 311/482/3 305/470/3 304/483/3
f 311/484/3 304/469/3 310/481/3
f 312/485/3 305/470/3 311/482/3
f 313/486/3 311/482/3 310/487/3
f 314/488/3 311/482/3 313/486/3
f 315/489/4 316/490/4 317/491/4
f 317/491/4 316/490/4 318/492/4
f 319/493/4 320/494/4 321/495/4
f 321/495/4 320/494/4 322/496/4
f 323/497/4 324/498/4 325/499/4
f 325/499/4 324/498/4 326/500/4
f 327/501/4 325/502/4 328/503/4
f 325/502/4 326/504/4 328/503/4
f 328/503/4 326/504/4 329/505/4
f 329/505/4 326/504/4 330/506/4
f 330/506/4 326/504/4 331/507/4
f 331/507/4 326/504/4 332/508/4
f 332/508/4 326/504/4 333/509/4
f 333/509/4 326/504/4 334/510/4
f 334/510/4 326/504/4 335/511/4
f 326/500/4 336/512/4 337/513/4
f 335/511/4 326/504/4 337/514/4
f 337/513/4 336/512/4 338/515/4
f 328/516/4 329/517/4 339/518/4
f 329/505/4 330/506/4 340/519/4
f 339/518/4 329/517/4 340/520/4
f 330/521/4 331/522/4 341/523/4
f 340/519/4 330/506/4 341/524/4
f 331/507/4 332/508/4 342/525/4
f 341/523/4 331/522/4 342/526/4
f 332/527/4 333/528/4 343/529/4
f 342/525/4 332/508/4 343/530/4
f 333/509/4 334/510/4 344/531/4
f 343/529/4 333/528/4 344/532/4
f 334/533/4 335/534/4 345/535/4
f 344/531/4 334/510/4 345/536/4
f 335/511/4 337/514/4 346/537/4
f 345/535/4 335/534/4 346/538/4
f 337/514/4 338/539/4 346/537/4
f 346/537/4 338/539/4 347/540/4
f 338/515/4 348/541/4 349/542/4
f 347/540/4 338/539/4 349/543/4
f 349/542/4 348/541/4 350/544/4
f 343/530/4 344/531/4 351/545/4
f 346/537/4 347/540/4 351/545/4
f 339/546/4 340/519/4 351/545/4
f 340/519/4 341/524/4 351/545/4
f 345/536/4 346/537/4 351/545/4
f 344/531/4 345/536/4 351/545/4
f 342/525/4 343/530/4 351/545/4
f 341/524/4 342/525/4 351/545/4
f 351/545/4 347/540/4 352/547/4
f 352/547/4 347/540/4 353/548/4
f 353/548/4 347/540/4 354/549/4
f 354/549/4 347/540/4 355/550/4
f 355/550/4 347/540/4 356/551/4
f 356/551/4 347/540/4 357/552/4
f 357/552/4 347/540/4 358/553/4
f 350/544/4 359/554/4 360/555/4
f 349/543/4 350/556/4 361/557/4
f 347/558/4 349/559/4 361/560/4
f 360/555/4 362/561/4 363/562/4
f 361/557/4 350/556/4 363/563/4
f 350/544/4 360/555/4 363/562/4
f 363/562/4 362/561/4 364/564/4
f 364/564/4 362/561/4 365/565/4
f 347/558/4 361/560/4 366/566/4
f 361/560/4 363/567/4 366/566/4
f 363/563/4 364/568/4 367/569/4
f 366/566/4 363/567/4 367/570/4
f 365/565/4 368/571/4 369/572/4
f 367/569/4 364/568/4 369/573/4
f 364/564/4 365/565/4 369/572/4
f 369/572/4 368/571/4 370/574/4
f 370/574/4 368/571/4 371/575/4
f 351/576/4 352/577/4 372/578/4
f 352/547/4 353/548/4 373/579/4
f 372/578/4 352/577/4 373/580/4
f 353/581/4 354/582/4 374/583/4
f 373/579/4 353/548/4 374/584/4
f 354/549/4 355/550/4 375/585/4
f 374/583/4 354/582/4 375/586/4
f 355/587/4 356/588/4 376/589/4
f 375/585/4 355/550/4 376/590/4
f 356/551/4 357/552/4 377/591/4
f 376/589/4 356/588/4 377/592/4
f 357/593/4 358/594/4 378/595/4
f 377/591/4 357/552/4 378/596/4
f 358/553/4 347/540/4 379/597/4
f 378/595/4 358/594/4 379/598/4
f 367/599/4 369/572/4 380/600/4
f 369/572/4 370/574/4 380/600/4
f 380/600/4 370/574/4 381/601/4
f 377/591/4 378/596/4 382/602/4
f 376/590/4 377/591/4 382/602/4
f 372/603/4 373/579/4 382/602/4
f 378/596/4 379/597/4 382/602/4
f 373/579/4 374/584/4 382/602/4
f 374/584/4 375/585/4 382/602/4
f 375/585/4 376/590/4 382/602/4
f 382/602/4 379/597/4 383/604/4
f 383/604/4 379/597/4 384/605/4
f 384/605/4 379/597/4 385/606/4
f 385/606/4 379/597/4 386/607/4
f 386/607/4 379/597/4 387/608/4
f 387/608/4 379/597/4 388/609/4
f 379/597/4 347/540/4 389/610/4
f 388/609/4 379/597/4 389/610/4
f 347/558/4 366/566/4 390/611/4
f 389/610/4 347/540/4 390/612/4
f 366/613/4 367/569/4 391/614/4
f 390/611/4 366/566/4 391/615/4
f 367/599/4 380/600/4 392/616/4
f 391/614/4 367/569/4 392/617/4
f 392/616/4 380/600/4 393/618/4
f 389/610/4 390/612/4 394/619/4
f 390/612/4 391/614/4 394/619/4
f 391/620/4 392/616/4 395/621/4
f 394/619/4 391/614/4 395/622/4
f 395/621/4 392/616/4 396/623/4
f 382/624/4 383/625/4 397/626/4
f 383/604/4 384/605/4 398/627/4
f 397/626/4 383/625/4 398/628/4
f 384/629/4 385/630/4 399/631/4
f 398/627/4 384/605/4 399/632/4
f 385/606/4 386/607/4 400/633/4
f 399/631/4 385/630/4 400/634/4
f 386/635/4 387/636/4 401/637/4
f 400/633/4 386/607/4 401/638/4
f 387/608/4 388/609/4 402/639/4
f 401/637/4 387/636/4 402/640/4
f 388/641/4 389/642/4 403/643/4
f 402/639/4 388/609/4 403/644/4
f 389/610/4 394/619/4 404/645/4
f 403/643/4 389/642/4 404/646/4
f 402/639/4 403/644/4 405/647/4
f 400/633/4 401/638/4 405/647/4
f 403/644/4 404/645/4 405/647/4
f 401/638/4 402/639/4 405/647/4
f 399/632/4 400/633/4 405/647/4
f 398/627/4 399/632/4 405/647/4
f 397/648/4 398/627/4 405/647/4
f 404/645/4 394/619/4 406/649/4
f 405/647/4 404/645/4 406/649/4
f 394/650/4 395/621/4 407/651/4
f 406/649/4 394/619/4 407/652/4
f 407/651/4 395/621/4 408/653/4
f 406/654/4 407/651/4 409/655/4
f 409/655/4 407/651/4 410/656/4
f 411/657/4 412/658/4 413/659/4
f 412/660/4 414/661/4 415/662/4
f 413/659/4 412/658/4 415/663/4
f 414/664/4 416/665/4 417/666/4
f 415/662/4 414/661/4 417/667/4
f 417/666/4 416/665/4 418/668/4
f 419/669/5 420/670/5 421/671/5
f 422/672/5 420/670/5 419/669/5
f 423/673/5 424/674/5 425/675/5
f 426/676/5 424/674/5 423/673/5
f 427/677/5 428/678/5 429/679/5
f 430/680/5 428/678/5 427/677/5
f 431/681/5 432/682/5 433/683/5
f 434/684/5 435/685/5 436/686/5
f 437/687/5 435/685/5 434/684/5
f 438/688/5 439/689/5 440/690/5
f 441/691/5 437/687/5 434/684/5
f 441/691/5 438/688/5 437/687/5
f 441/691/5 431/681/5 433/683/5
f 441/691/5 434/684/5 431/681/5
f 442/692/5 439/689/5 438/688/5
f 442/692/5 438/688/5 441/691/5
f 443/693/5 444/694/5 445/695/5
f 446/696/5 444/694/5 443/693/5
f 447/697/5 448/698/5 449/699/5
f 450/700/5 448/698/5 447/697/5
f 451/701/6 452/702/6 453/703/6
f 453/703/6 452/702/6 454/704/6
f 454/704/6 452/702/6 455/705/6
f 455/705/6 452/702/6 456/706/6
f 456/706/6 452/702/6 457/707/6
f 457/707/6 452/702/6 458/708/6
f 458/708/6 452/702/6 459/709/6
f 459/709/6 452/702/6 460/710/6
f 451/701/6 453/703/6 461/711/6
f 460/710/6 452/702/6 462/712/6
f 451/701/6 461/711/6 463/713/6
f 462/712/6 452/702/6 464/714/6
f 451/701/6 463/713/6 465/715/6
f 464/714/6 452/702/6 466/716/6
f 451/701/6 465/715/6 467/717/6
f 466/716/6 452/702/6 468/718/6
f 451/701/6 467/717/6 469/719/6
f 468/718/6 452/702/6 470/720/6
f 451/701/6 469/719/6 471/721/6
f 470/720/6 452/702/6 472/722/6
f 451/701/6 471/721/6 473/723/6
f 472/722/6 452/702/6 474/724/6
f 475/725/6 476/726/6 477/727/6
f 476/726/6 474/724/6 477/727/6
f 451/701/6 473/723/6 477/727/6
f 473/723/6 478/728/6 477/727/6
f 479/729/6 475/725/6 477/727/6
f 480/730/6 479/729/6 477/727/6
f 481/731/6 480/730/6 477/727/6
f 478/728/6 481/731/6 477/727/6
f 474/724/6 452/702/6 482/732/6
f 477/727/6 474/724/6 482/732/6
f 483/733/6 484/734/6 485/735/6
f 485/735/6 484/734/6 486/736/6
f 487/737/6 488/738/6 489/739/6
f 489/739/6 488/738/6 490/740/6
f 491/741/6 492/742/6 493/743/6
f 493/743/6 492/742/6 494/744/6
f 495/745/6 496/746/6 497/747/6
f 497/747/6 496/746/6 498/748/6
f 499/749/6 500/750/6 501/751/6
f 501/751/6 500/750/6 502/752/6
f 503/753/6 504/754/6 505/755/6
f 505/755/6 504/754/6 506/756/6
f 507/757/6 508/758/6 509/759/6
f 509/759/6 508/758/6 510/760/6
f 511/761/6 512/762/6 513/763/6
f 513/763/6 512/762/6 514/764/6
f 515/765/6 516/766/6 517/767/6
f 517/767/6 516/766/6 518/768/6
f 519/769/6 520/770/6 521/771/6
f 521/771/6 520/770/6 522/772/6
f 523/773/6 524/774/6 525/775/6
f 525/775/6 524/774/6 526/776/6
f 527/777/6 528/778/6 529/779/6
f 529/779/6 528/778/6 530/780/6
f 531/781/6 532/782/6 533/783/6
f 533/783/6 532/782/6 534/784/6
f 535/785/6 536/786/6 537/787/6
f 537/787/6 536/786/6 538/788/6
f 539/789/6 540/790/6 541/791/6
f 541/791/6 540/790/6 542/792/6
