# Blender v2.79 (sub 0) OBJ File: ''
# www.blender.org
mtllib deco_1x1_00.mtl
o deco_1x1_00.005
v -0.800000 0.600000 0.800000
v -0.800000 0.000000 -0.800000
v -0.800000 -0.000000 0.800000
v -0.800000 0.600000 -0.800000
v -0.800000 1.000000 0.800000
v -0.800000 1.000000 -0.800000
v -0.800000 1.200000 0.800000
v -0.800000 1.200000 -0.800000
v -0.800000 1.600000 0.800001
v -0.800000 1.600000 -0.799999
v -0.700000 2.300000 0.600001
v -0.700000 2.200000 0.600001
v -0.700000 2.200000 0.700001
v -0.700000 2.400000 0.700001
v -0.700000 2.300000 0.500001
v -0.700000 2.400000 0.500001
v -0.700000 2.400000 0.100001
v -0.700000 2.300000 0.000001
v -0.700000 2.300000 0.100001
v -0.700000 2.500000 0.200001
v -0.700000 2.400000 0.200001
v -0.700000 2.500000 0.000001
v -0.600000 2.500000 0.600001
v -0.600000 2.400000 0.500001
v -0.600000 2.400000 0.600001
v -0.600000 2.400000 0.400001
v -0.600000 2.500000 0.400001
v -0.600000 2.500000 0.200001
v -0.600000 2.400000 0.200001
v -0.600000 2.400000 0.300001
v -0.600000 2.600000 0.300001
v -0.600000 2.500000 0.100001
v -0.600000 2.600000 0.100001
v -0.500000 2.400000 0.500001
v -0.500000 2.300000 0.200001
v -0.500000 2.300000 0.500001
v -0.500000 2.400000 0.400001
v -0.500000 2.400000 0.300001
v -0.500000 2.400000 0.200001
v -0.500000 2.500000 0.400001
v -0.500000 2.500000 0.300001
v -0.500000 2.500000 -0.199999
v -0.500000 2.400000 -0.499999
v -0.500000 2.400000 -0.199999
v -0.500000 2.500000 -0.499999
v -0.400000 2.300000 0.400001
v -0.400000 1.600000 0.300001
v -0.400000 1.600000 0.400001
v -0.400000 2.300000 0.300001
v -0.400000 2.400000 -0.299999
v -0.400000 1.600000 -0.399999
v -0.400000 1.600000 -0.299999
v -0.400000 2.400000 -0.399999
v -0.400000 2.600000 0.500001
v -0.400000 2.500000 0.300001
v -0.400000 2.500000 0.500001
v -0.400000 2.600000 0.300001
v -0.300000 2.400000 0.200001
v -0.300000 2.300000 0.100001
v -0.300000 2.300000 0.200001
v -0.300000 2.400000 0.100001
v -0.300000 2.600000 0.600001
v -0.300000 2.400000 0.500001
v -0.300000 2.400000 0.600001
v -0.300000 2.600000 0.500001
v -0.200000 2.300000 0.200001
v -0.200000 2.200000 0.100001
v -0.200000 2.200000 0.200001
v -0.200000 2.300000 0.100001
v -0.200000 2.500000 0.700001
v -0.200000 2.400000 0.600001
v -0.200000 2.400000 0.700001
v -0.200000 2.500000 0.600001
v -0.100000 2.400000 0.700001
v -0.100000 2.300000 0.600001
v -0.100000 2.300000 0.700001
v -0.100000 2.400000 0.600001
v 0.000000 2.500000 -0.099999
v 0.000000 2.400000 -0.099999
v 0.000000 2.400000 0.000001
v 0.000000 2.600000 0.000001
v 0.000000 2.500000 -0.199999
v 0.000000 2.600000 -0.199999
v 0.100000 2.300000 -0.499999
v 0.100000 2.200000 -0.599999
v 0.100000 2.200000 -0.499999
v 0.100000 2.400000 -0.399999
v 0.100000 2.300000 -0.399999
v 0.100000 2.400000 -0.599999
v 0.100000 2.500000 0.500001
v 0.100000 2.400000 0.500001
v 0.100000 2.400000 0.600001
v 0.100000 2.500000 -0.099999
v 0.100000 2.400000 -0.299999
v 0.100000 2.400000 -0.099999
v 0.100000 2.500000 -0.199999
v 0.100000 2.600000 0.600001
v 0.100000 2.500000 0.400001
v 0.100000 2.600000 0.400001
v 0.100000 2.600000 -0.199999
v 0.100000 2.600000 -0.299999
v 0.200000 2.400000 -0.199999
v 0.200000 2.300000 -0.399999
v 0.200000 2.300000 -0.199999
v 0.200000 2.400000 -0.299999
v 0.200000 2.400000 -0.399999
v 0.200000 2.500000 0.500001
v 0.200000 2.400000 0.200001
v 0.200000 2.400000 0.500001
v 0.200000 2.500000 0.400001
v 0.200000 2.500000 0.300001
v 0.200000 2.500000 0.200001
v 0.200000 2.500000 -0.299999
v 0.200000 2.500000 -0.399999
v 0.200000 2.600000 0.400001
v 0.200000 2.600000 0.300001
v 0.300000 2.300000 -0.299999
v 0.300000 1.600000 -0.399999
v 0.300000 1.600000 -0.299999
v 0.300000 2.300000 -0.399999
v 0.300000 2.400000 0.400001
v 0.300000 1.600000 0.300001
v 0.300000 1.600000 0.400001
v 0.300000 2.400000 0.300001
v 0.300000 2.500000 -0.399999
v 0.300000 2.400000 -0.499999
v 0.300000 2.400000 -0.399999
v 0.300000 2.500000 -0.499999
v 0.300000 2.600000 0.300001
v 0.300000 2.500000 0.200001
v 0.300000 2.500000 0.300001
v 0.300000 2.600000 0.200001
v 0.400000 2.400000 -0.099999
v 0.400000 2.300000 -0.199999
v 0.400000 2.300000 -0.099999
v 0.400000 2.400000 -0.199999
v 0.400000 2.500000 0.600001
v 0.400000 2.400000 0.500001
v 0.400000 2.400000 0.600001
v 0.400000 2.500000 0.500001
v 0.400000 2.500000 -0.499999
v 0.400000 2.400000 -0.599999
v 0.400000 2.400000 -0.499999
v 0.400000 2.500000 -0.599999
v 0.400000 2.600000 0.200001
v 0.400000 2.500000 0.100001
v 0.400000 2.500000 0.200001
v 0.400000 2.700000 0.300001
v 0.400000 2.600000 0.300001
v 0.400000 2.700000 0.100001
v 0.500000 2.400000 0.600001
v 0.500000 2.300000 0.500001
v 0.500000 2.300000 0.600001
v 0.500000 2.400000 0.500001
v 0.500000 2.400000 0.000001
v 0.500000 2.300000 -0.099999
v 0.500000 2.300000 0.000001
v 0.500000 2.400000 -0.099999
v 0.500000 2.400000 -0.499999
v 0.500000 2.300000 -0.599999
v 0.500000 2.300000 -0.499999
v 0.500000 2.400000 -0.599999
v 0.500000 2.600000 0.100001
v 0.500000 2.500000 0.000001
v 0.500000 2.500000 0.100001
v 0.500000 2.600000 0.000001
v 0.600000 2.300000 0.000001
v 0.600000 2.200000 -0.099999
v 0.600000 2.200000 0.000001
v 0.600000 2.300000 -0.099999
v 0.600000 2.500000 0.100001
v 0.600000 2.400000 0.000001
v 0.600000 2.400000 0.100001
v 0.600000 2.500000 0.000001
v -0.600000 2.200000 0.700001
v -0.600000 2.200000 0.600001
v -0.600000 2.300000 0.700001
v -0.600000 2.300000 0.600001
v -0.600000 2.300000 0.100001
v -0.600000 2.300000 0.000001
v -0.600000 2.400000 0.100001
v -0.600000 2.400000 0.000001
v -0.500000 2.300000 0.700001
v -0.500000 2.300000 0.500001
v -0.500000 2.400000 0.700001
v -0.500000 2.400000 0.600001
v -0.500000 2.400000 0.500001
v -0.500000 2.400000 0.100001
v -0.500000 2.400000 0.000001
v -0.500000 2.500000 0.100001
v -0.500000 2.500000 0.000001
v -0.400000 2.400000 0.600001
v -0.400000 2.400000 0.500001
v -0.400000 2.500000 0.600001
v -0.400000 2.500000 0.500001
v -0.400000 2.400000 0.200001
v -0.400000 2.400000 0.100001
v -0.400000 2.500000 0.200001
v -0.400000 2.500000 0.300001
v -0.400000 2.600000 0.300001
v -0.400000 2.600000 0.100001
v -0.300000 1.600000 0.400001
v -0.300000 1.600000 0.300001
v -0.300000 2.300000 0.400001
v -0.300000 2.300000 0.300001
v -0.300000 1.600000 -0.299999
v -0.300000 1.600000 -0.399999
v -0.300000 2.400000 -0.299999
v -0.300000 2.400000 -0.399999
v -0.200000 2.300000 0.500001
v -0.200000 2.300000 0.400001
v -0.200000 2.400000 0.500001
v -0.200000 2.400000 0.400001
v -0.200000 2.400000 -0.199999
v -0.200000 2.400000 -0.499999
v -0.200000 2.500000 -0.199999
v -0.200000 2.500000 -0.499999
v -0.200000 2.500000 0.400001
v -0.200000 2.500000 0.300001
v -0.200000 2.600000 0.400001
v -0.200000 2.600000 0.300001
v -0.100000 2.200000 0.200001
v -0.100000 2.200000 0.100001
v -0.100000 2.300000 0.200001
v -0.100000 2.300000 0.400001
v -0.100000 2.400000 0.400001
v -0.100000 2.400000 0.200001
v -0.100000 2.400000 0.100001
v -0.100000 2.400000 0.500001
v -0.100000 2.500000 0.500001
v -0.100000 2.500000 0.400001
v -0.100000 2.500000 0.200001
v -0.100000 2.500000 0.600001
v -0.100000 2.600000 0.600001
v -0.100000 2.600000 0.400001
v 0.000000 2.300000 0.700001
v 0.000000 2.300000 0.600001
v 0.000000 2.400000 0.600001
v 0.000000 2.500000 0.700001
v 0.000000 2.400000 0.500001
v 0.000000 2.500000 0.500001
v 0.100000 2.400000 0.000001
v 0.100000 2.400000 -0.099999
v 0.100000 2.500000 0.000001
v 0.100000 2.500000 -0.099999
v 0.200000 2.200000 -0.499999
v 0.200000 2.200000 -0.599999
v 0.200000 2.300000 -0.499999
v 0.200000 2.300000 -0.599999
v 0.200000 2.400000 0.600001
v 0.200000 2.400000 0.500001
v 0.200000 2.500000 0.600001
v 0.200000 2.500000 0.500001
v 0.200000 2.500000 0.000001
v 0.200000 2.500000 -0.099999
v 0.200000 2.600000 0.000001
v 0.200000 2.600000 -0.099999
v 0.300000 2.300000 -0.499999
v 0.300000 2.300000 -0.599999
v 0.300000 2.400000 -0.499999
v 0.300000 2.400000 -0.599999
v 0.300000 2.400000 -0.099999
v 0.300000 2.400000 -0.199999
v 0.300000 2.500000 -0.199999
v 0.300000 2.500000 0.600001
v 0.300000 2.500000 0.500001
v 0.300000 2.600000 0.600001
v 0.300000 2.600000 0.500001
v 0.300000 2.500000 -0.299999
v 0.300000 2.600000 -0.099999
v 0.300000 2.600000 -0.299999
v 0.400000 1.600000 -0.299999
v 0.400000 1.600000 -0.399999
v 0.400000 2.300000 -0.299999
v 0.400000 2.300000 -0.399999
v 0.400000 1.600000 0.400001
v 0.400000 1.600000 0.300001
v 0.400000 2.400000 0.400001
v 0.400000 2.400000 0.300001
v 0.400000 2.400000 -0.199999
v 0.400000 2.400000 -0.299999
v 0.400000 2.500000 -0.199999
v 0.400000 2.500000 -0.299999
v 0.400000 2.500000 0.500001
v 0.400000 2.500000 0.400001
v 0.400000 2.600000 0.500001
v 0.400000 2.600000 0.400001
v 0.500000 2.300000 -0.299999
v 0.500000 2.300000 -0.499999
v 0.500000 2.400000 -0.299999
v 0.500000 2.400000 -0.399999
v 0.500000 2.400000 -0.499999
v 0.500000 2.400000 0.400001
v 0.500000 2.400000 0.200001
v 0.500000 2.500000 0.400001
v 0.500000 2.500000 0.300001
v 0.500000 2.500000 0.200001
v 0.500000 2.500000 -0.299999
v 0.500000 2.500000 -0.399999
v 0.500000 2.600000 0.400001
v 0.500000 2.600000 0.300001
v 0.600000 2.300000 0.600001
v 0.600000 2.300000 0.500001
v 0.600000 2.400000 0.500001
v 0.600000 2.300000 -0.199999
v 0.600000 2.300000 -0.299999
v 0.600000 2.400000 -0.199999
v 0.600000 2.400000 -0.299999
v 0.600000 2.300000 -0.499999
v 0.600000 2.300000 -0.599999
v 0.600000 2.400000 -0.499999
v 0.600000 2.400000 0.400001
v 0.600000 2.500000 0.600001
v 0.600000 2.500000 0.400001
v 0.600000 2.400000 -0.399999
v 0.600000 2.500000 -0.399999
v 0.600000 2.500000 -0.599999
v 0.600000 2.500000 0.300001
v 0.600000 2.500000 0.200001
v 0.600000 2.600000 0.200001
v 0.600000 2.700000 0.300001
v 0.600000 2.600000 0.100001
v 0.600000 2.700000 0.100001
v 0.700000 2.200000 0.000001
v 0.700000 2.200000 -0.099999
v 0.700000 2.300000 -0.099999
v 0.700000 2.400000 0.000001
v 0.700000 2.300000 -0.199999
v 0.700000 2.400000 -0.199999
v 0.700000 2.400000 0.100001
v 0.700000 2.500000 0.100001
v 0.700000 2.500000 0.200001
v 0.700000 2.600000 0.200001
v 0.700000 2.600000 0.000001
v 0.800000 -0.000000 0.800000
v 0.800000 0.000000 -0.800000
v 0.800000 0.600000 0.800000
v 0.800000 0.600000 -0.800000
v 0.800000 1.000000 0.800000
v 0.800000 1.000000 -0.800000
v 0.800000 1.200000 0.800000
v 0.800000 1.200000 -0.800000
v 0.800000 1.600000 0.800001
v 0.800000 1.600000 -0.799999
v 0.800000 -0.000000 0.800000
v -0.800000 0.600000 0.800000
v -0.800000 -0.000000 0.800000
v 0.800000 0.600000 0.800000
v -0.800000 1.000000 0.800000
v 0.800000 1.000000 0.800000
v -0.800000 1.200000 0.800000
v 0.800000 1.200000 0.800000
v -0.800000 1.600000 0.800001
v 0.800000 1.600000 0.800001
v -0.600000 2.200000 0.700001
v -0.700000 2.400000 0.700001
v -0.700000 2.200000 0.700001
v -0.600000 2.300000 0.700001
v -0.500000 2.300000 0.700001
v -0.500000 2.400000 0.700001
v -0.100000 2.400000 0.700001
v -0.200000 2.500000 0.700001
v -0.200000 2.400000 0.700001
v 0.000000 2.300000 0.700001
v -0.100000 2.300000 0.700001
v 0.000000 2.500000 0.700001
v -0.500000 2.400000 0.600001
v -0.600000 2.500000 0.600001
v -0.600000 2.400000 0.600001
v -0.400000 2.400000 0.600001
v -0.400000 2.500000 0.600001
v -0.200000 2.400000 0.600001
v -0.300000 2.600000 0.600001
v -0.300000 2.400000 0.600001
v -0.200000 2.500000 0.600001
v -0.100000 2.500000 0.600001
v -0.100000 2.600000 0.600001
v 0.200000 2.400000 0.600001
v 0.100000 2.600000 0.600001
v 0.100000 2.400000 0.600001
v 0.200000 2.500000 0.600001
v 0.300000 2.500000 0.600001
v 0.300000 2.600000 0.600001
v 0.500000 2.400000 0.600001
v 0.400000 2.500000 0.600001
v 0.400000 2.400000 0.600001
v 0.600000 2.300000 0.600001
v 0.500000 2.300000 0.600001
v 0.600000 2.500000 0.600001
v -0.400000 2.400000 0.500001
v -0.500000 2.400000 0.500001
v -0.500000 2.300000 0.500001
v -0.300000 2.400000 0.500001
v -0.400000 2.600000 0.500001
v -0.400000 2.500000 0.500001
v -0.300000 2.600000 0.500001
v -0.200000 2.300000 0.500001
v -0.200000 2.400000 0.500001
v 0.300000 2.500000 0.500001
v 0.200000 2.500000 0.500001
v 0.200000 2.400000 0.500001
v 0.400000 2.400000 0.500001
v 0.300000 2.600000 0.500001
v 0.400000 2.500000 0.500001
v 0.400000 2.600000 0.500001
v -0.300000 1.600000 0.400001
v -0.400000 2.300000 0.400001
v -0.400000 1.600000 0.400001
v -0.300000 2.300000 0.400001
v -0.100000 2.300000 0.400001
v -0.200000 2.400000 0.400001
v -0.200000 2.300000 0.400001
v -0.100000 2.400000 0.400001
v 0.400000 1.600000 0.400001
v 0.300000 2.400000 0.400001
v 0.300000 1.600000 0.400001
v 0.400000 2.400000 0.400001
v 0.500000 2.500000 0.400001
v 0.400000 2.600000 0.400001
v 0.400000 2.500000 0.400001
v 0.500000 2.600000 0.400001
v -0.500000 2.400000 0.300001
v -0.600000 2.600000 0.300001
v -0.600000 2.400000 0.300001
v -0.500000 2.500000 0.300001
v -0.400000 2.500000 0.300001
v -0.400000 2.600000 0.300001
v 0.500000 2.600000 0.300001
v 0.400000 2.700000 0.300001
v 0.400000 2.600000 0.300001
v 0.600000 2.500000 0.300001
v 0.500000 2.500000 0.300001
v 0.600000 2.700000 0.300001
v -0.600000 2.400000 0.200001
v -0.700000 2.500000 0.200001
v -0.700000 2.400000 0.200001
v -0.600000 2.500000 0.200001
v -0.100000 2.200000 0.200001
v -0.200000 2.300000 0.200001
v -0.200000 2.200000 0.200001
v -0.100000 2.300000 0.200001
v 0.700000 2.500000 0.200001
v 0.600000 2.600000 0.200001
v 0.600000 2.500000 0.200001
v 0.700000 2.600000 0.200001
v -0.600000 2.300000 0.100001
v -0.700000 2.400000 0.100001
v -0.700000 2.300000 0.100001
v -0.600000 2.400000 0.100001
v 0.700000 2.400000 0.100001
v 0.600000 2.500000 0.100001
v 0.600000 2.400000 0.100001
v 0.700000 2.500000 0.100001
v 0.100000 2.400000 0.000001
v 0.000000 2.600000 0.000001
v 0.000000 2.400000 0.000001
v 0.100000 2.500000 0.000001
v 0.200000 2.500000 0.000001
v 0.200000 2.600000 0.000001
v 0.600000 2.300000 0.000001
v 0.500000 2.400000 0.000001
v 0.500000 2.300000 0.000001
v 0.600000 2.400000 0.000001
v 0.700000 2.200000 0.000001
v 0.600000 2.200000 0.000001
v 0.700000 2.400000 0.000001
v 0.200000 2.500000 -0.099999
v 0.100000 2.500000 -0.099999
v 0.100000 2.400000 -0.099999
v 0.300000 2.400000 -0.099999
v 0.200000 2.600000 -0.099999
v 0.300000 2.600000 -0.099999
v 0.500000 2.300000 -0.099999
v 0.400000 2.400000 -0.099999
v 0.400000 2.300000 -0.099999
v 0.500000 2.400000 -0.099999
v -0.200000 2.400000 -0.199999
v -0.500000 2.500000 -0.199999
v -0.500000 2.400000 -0.199999
v -0.200000 2.500000 -0.199999
v 0.300000 2.400000 -0.199999
v 0.200000 2.400000 -0.199999
v 0.200000 2.300000 -0.199999
v 0.400000 2.300000 -0.199999
v 0.300000 2.500000 -0.199999
v 0.400000 2.400000 -0.199999
v 0.400000 2.500000 -0.199999
v -0.300000 1.600000 -0.299999
v -0.400000 2.400000 -0.299999
v -0.400000 1.600000 -0.299999
v -0.300000 2.400000 -0.299999
v 0.400000 1.600000 -0.299999
v 0.300000 2.300000 -0.299999
v 0.300000 1.600000 -0.299999
v 0.400000 2.300000 -0.299999
v 0.500000 2.400000 -0.299999
v 0.400000 2.500000 -0.299999
v 0.400000 2.400000 -0.299999
v 0.500000 2.500000 -0.299999
v 0.200000 2.300000 -0.399999
v 0.100000 2.400000 -0.399999
v 0.100000 2.300000 -0.399999
v 0.200000 2.400000 -0.399999
v 0.600000 2.400000 -0.399999
v 0.500000 2.500000 -0.399999
v 0.500000 2.400000 -0.399999
v 0.600000 2.500000 -0.399999
v 0.200000 2.200000 -0.499999
v 0.100000 2.300000 -0.499999
v 0.100000 2.200000 -0.499999
v 0.200000 2.300000 -0.499999
v 0.600000 2.300000 -0.499999
v 0.500000 2.400000 -0.499999
v 0.500000 2.300000 -0.499999
v 0.600000 2.400000 -0.499999
v -0.700000 2.200000 0.600001
v -0.700000 2.300000 0.600001
v -0.600000 2.200000 0.600001
v -0.600000 2.300000 0.600001
v -0.100000 2.300000 0.600001
v -0.100000 2.400000 0.600001
v 0.000000 2.300000 0.600001
v 0.000000 2.400000 0.600001
v -0.700000 2.300000 0.500001
v -0.700000 2.400000 0.500001
v -0.600000 2.400000 0.500001
v -0.500000 2.300000 0.500001
v -0.500000 2.400000 0.500001
v -0.100000 2.400000 0.500001
v -0.100000 2.500000 0.500001
v 0.000000 2.400000 0.500001
v 0.000000 2.500000 0.500001
v 0.100000 2.400000 0.500001
v 0.100000 2.500000 0.500001
v 0.200000 2.400000 0.500001
v 0.200000 2.500000 0.500001
v 0.500000 2.300000 0.500001
v 0.500000 2.400000 0.500001
v 0.600000 2.300000 0.500001
v 0.600000 2.400000 0.500001
v -0.600000 2.400000 0.400001
v -0.600000 2.500000 0.400001
v -0.500000 2.400000 0.400001
v -0.500000 2.500000 0.400001
v -0.200000 2.500000 0.400001
v -0.200000 2.600000 0.400001
v -0.100000 2.500000 0.400001
v -0.100000 2.600000 0.400001
v 0.100000 2.500000 0.400001
v 0.100000 2.600000 0.400001
v 0.200000 2.500000 0.400001
v 0.200000 2.600000 0.400001
v 0.500000 2.400000 0.400001
v 0.500000 2.500000 0.400001
v 0.600000 2.400000 0.400001
v 0.600000 2.500000 0.400001
v -0.400000 1.600000 0.300001
v -0.400000 2.300000 0.300001
v -0.300000 1.600000 0.300001
v -0.300000 2.300000 0.300001
v -0.400000 2.500000 0.300001
v -0.400000 2.600000 0.300001
v -0.200000 2.500000 0.300001
v -0.200000 2.600000 0.300001
v 0.200000 2.500000 0.300001
v 0.200000 2.600000 0.300001
v 0.300000 2.500000 0.300001
v 0.300000 2.600000 0.300001
v 0.300000 1.600000 0.300001
v 0.300000 2.400000 0.300001
v 0.400000 1.600000 0.300001
v 0.400000 2.400000 0.300001
v -0.500000 2.300000 0.200001
v -0.500000 2.400000 0.200001
v -0.400000 2.400000 0.200001
v -0.300000 2.300000 0.200001
v -0.400000 2.500000 0.200001
v -0.300000 2.400000 0.200001
v -0.100000 2.400000 0.200001
v -0.100000 2.500000 0.200001
v 0.200000 2.400000 0.200001
v 0.200000 2.500000 0.200001
v 0.300000 2.500000 0.200001
v 0.400000 2.500000 0.200001
v 0.300000 2.600000 0.200001
v 0.400000 2.600000 0.200001
v 0.500000 2.400000 0.200001
v 0.500000 2.500000 0.200001
v -0.600000 2.500000 0.100001
v -0.600000 2.600000 0.100001
v -0.500000 2.500000 0.100001
v -0.500000 2.400000 0.100001
v -0.400000 2.400000 0.100001
v -0.400000 2.600000 0.100001
v -0.300000 2.300000 0.100001
v -0.300000 2.400000 0.100001
v -0.200000 2.300000 0.100001
v -0.200000 2.200000 0.100001
v -0.100000 2.200000 0.100001
v -0.100000 2.400000 0.100001
v 0.400000 2.500000 0.100001
v 0.400000 2.700000 0.100001
v 0.500000 2.500000 0.100001
v 0.500000 2.600000 0.100001
v 0.600000 2.600000 0.100001
v 0.600000 2.700000 0.100001
v -0.700000 2.300000 0.000001
v -0.700000 2.500000 0.000001
v -0.600000 2.300000 0.000001
v -0.600000 2.400000 0.000001
v -0.500000 2.400000 0.000001
v -0.500000 2.500000 0.000001
v 0.500000 2.500000 0.000001
v 0.500000 2.600000 0.000001
v 0.600000 2.500000 0.000001
v 0.600000 2.400000 0.000001
v 0.700000 2.400000 0.000001
v 0.700000 2.600000 0.000001
v 0.000000 2.400000 -0.099999
v 0.000000 2.500000 -0.099999
v 0.100000 2.400000 -0.099999
v 0.100000 2.500000 -0.099999
v 0.600000 2.200000 -0.099999
v 0.600000 2.300000 -0.099999
v 0.700000 2.200000 -0.099999
v 0.700000 2.300000 -0.099999
v 0.000000 2.500000 -0.199999
v 0.000000 2.600000 -0.199999
v 0.100000 2.500000 -0.199999
v 0.100000 2.600000 -0.199999
v 0.600000 2.300000 -0.199999
v 0.600000 2.400000 -0.199999
v 0.700000 2.300000 -0.199999
v 0.700000 2.400000 -0.199999
v 0.100000 2.400000 -0.299999
v 0.100000 2.600000 -0.299999
v 0.200000 2.400000 -0.299999
v 0.200000 2.500000 -0.299999
v 0.300000 2.500000 -0.299999
v 0.300000 2.600000 -0.299999
v 0.500000 2.300000 -0.299999
v 0.500000 2.400000 -0.299999
v 0.600000 2.300000 -0.299999
v 0.600000 2.400000 -0.299999
v -0.400000 1.600000 -0.399999
v -0.400000 2.400000 -0.399999
v -0.300000 1.600000 -0.399999
v -0.300000 2.400000 -0.399999
v 0.200000 2.400000 -0.399999
v 0.200000 2.500000 -0.399999
v 0.300000 2.400000 -0.399999
v 0.300000 2.500000 -0.399999
v 0.300000 1.600000 -0.399999
v 0.300000 2.300000 -0.399999
v 0.400000 1.600000 -0.399999
v 0.400000 2.300000 -0.399999
v -0.500000 2.400000 -0.499999
v -0.500000 2.500000 -0.499999
v -0.200000 2.400000 -0.499999
v -0.200000 2.500000 -0.499999
v 0.300000 2.300000 -0.499999
v 0.300000 2.400000 -0.499999
v 0.400000 2.400000 -0.499999
v 0.300000 2.500000 -0.499999
v 0.400000 2.500000 -0.499999
v 0.500000 2.300000 -0.499999
v 0.500000 2.400000 -0.499999
v 0.100000 2.200000 -0.599999
v 0.100000 2.400000 -0.599999
v 0.200000 2.200000 -0.599999
v 0.200000 2.300000 -0.599999
v 0.300000 2.300000 -0.599999
v 0.300000 2.400000 -0.599999
v 0.400000 2.400000 -0.599999
v 0.400000 2.500000 -0.599999
v 0.500000 2.400000 -0.599999
v 0.500000 2.300000 -0.599999
v 0.600000 2.300000 -0.599999
v 0.600000 2.500000 -0.599999
v -0.800000 0.000000 -0.800000
v -0.800000 0.600000 -0.800000
v 0.800000 0.000000 -0.800000
v -0.800000 1.000000 -0.800000
v 0.800000 0.600000 -0.800000
v -0.800000 1.200000 -0.800000
v 0.800000 1.000000 -0.800000
v -0.800000 1.600000 -0.799999
v 0.800000 1.200000 -0.800000
v 0.800000 1.600000 -0.799999
v -0.800000 0.000000 -0.800000
v 0.800000 -0.000000 0.800000
v -0.800000 -0.000000 0.800000
v 0.800000 0.000000 -0.800000
v -0.700000 2.200000 0.600001
v -0.600000 2.200000 0.700001
v -0.700000 2.200000 0.700001
v -0.600000 2.200000 0.600001
v -0.200000 2.200000 0.100001
v -0.100000 2.200000 0.200001
v -0.200000 2.200000 0.200001
v -0.100000 2.200000 0.100001
v 0.600000 2.200000 -0.099999
v 0.700000 2.200000 0.000001
v 0.600000 2.200000 0.000001
v 0.700000 2.200000 -0.099999
v 0.100000 2.200000 -0.599999
v 0.200000 2.200000 -0.499999
v 0.100000 2.200000 -0.499999
v 0.200000 2.200000 -0.599999
v -0.600000 2.300000 0.600001
v -0.500000 2.300000 0.700001
v -0.600000 2.300000 0.700001
v -0.100000 2.300000 0.600001
v 0.000000 2.300000 0.700001
v -0.100000 2.300000 0.700001
v 0.000000 2.300000 0.600001
v -0.700000 2.300000 0.500001
v -0.700000 2.300000 0.600001
v -0.500000 2.300000 0.500001
v 0.500000 2.300000 0.500001
v 0.600000 2.300000 0.600001
v 0.500000 2.300000 0.600001
v 0.600000 2.300000 0.500001
v -0.400000 2.300000 0.400001
v -0.200000 2.300000 0.500001
v -0.300000 2.300000 0.400001
v -0.200000 2.300000 0.400001
v -0.400000 2.300000 0.300001
v -0.300000 2.300000 0.300001
v -0.100000 2.300000 0.400001
v -0.500000 2.300000 0.200001
v -0.300000 2.300000 0.200001
v -0.200000 2.300000 0.200001
v -0.100000 2.300000 0.200001
v -0.300000 2.300000 0.100001
v -0.200000 2.300000 0.100001
v -0.700000 2.300000 0.000001
v -0.600000 2.300000 0.100001
v -0.700000 2.300000 0.100001
v -0.600000 2.300000 0.000001
v 0.500000 2.300000 -0.099999
v 0.600000 2.300000 0.000001
v 0.500000 2.300000 0.000001
v 0.600000 2.300000 -0.099999
v 0.400000 2.300000 -0.199999
v 0.700000 2.300000 -0.099999
v 0.400000 2.300000 -0.099999
v 0.600000 2.300000 -0.199999
v 0.700000 2.300000 -0.199999
v 0.300000 2.300000 -0.299999
v 0.200000 2.300000 -0.199999
v 0.400000 2.300000 -0.299999
v 0.500000 2.300000 -0.299999
v 0.600000 2.300000 -0.299999
v 0.200000 2.300000 -0.399999
v 0.300000 2.300000 -0.399999
v 0.400000 2.300000 -0.399999
v 0.100000 2.300000 -0.499999
v 0.100000 2.300000 -0.399999
v 0.200000 2.300000 -0.499999
v 0.300000 2.300000 -0.499999
v 0.500000 2.300000 -0.499999
v 0.200000 2.300000 -0.599999
v 0.300000 2.300000 -0.599999
v 0.500000 2.300000 -0.599999
v 0.600000 2.300000 -0.499999
v 0.600000 2.300000 -0.599999
v -0.200000 2.400000 0.600001
v -0.100000 2.400000 0.700001
v -0.200000 2.400000 0.700001
v -0.100000 2.400000 0.600001
v -0.500000 2.400000 0.500001
v -0.400000 2.400000 0.600001
v -0.500000 2.400000 0.600001
v -0.400000 2.400000 0.500001
v -0.300000 2.400000 0.500001
v -0.300000 2.400000 0.600001
v 0.000000 2.400000 0.600001
v -0.200000 2.400000 0.500001
v -0.100000 2.400000 0.500001
v 0.000000 2.400000 0.500001
v 0.100000 2.400000 0.500001
v 0.200000 2.400000 0.600001
v 0.100000 2.400000 0.600001
v 0.200000 2.400000 0.500001
v 0.400000 2.400000 0.500001
v 0.500000 2.400000 0.600001
v 0.400000 2.400000 0.600001
v 0.500000 2.400000 0.500001
v -0.600000 2.400000 0.400001
v -0.600000 2.400000 0.500001
v -0.500000 2.400000 0.400001
v -0.200000 2.400000 0.400001
v -0.100000 2.400000 0.400001
v 0.300000 2.400000 0.400001
v 0.600000 2.400000 0.500001
v 0.400000 2.400000 0.400001
v 0.500000 2.400000 0.400001
v 0.600000 2.400000 0.400001
v 0.300000 2.400000 0.300001
v 0.400000 2.400000 0.300001
v -0.600000 2.400000 0.200001
v -0.500000 2.400000 0.300001
v -0.600000 2.400000 0.300001
v -0.500000 2.400000 0.200001
v 0.200000 2.400000 0.200001
v 0.500000 2.400000 0.200001
v -0.700000 2.400000 0.100001
v -0.400000 2.400000 0.200001
v -0.700000 2.400000 0.200001
v -0.600000 2.400000 0.100001
v -0.500000 2.400000 0.100001
v -0.400000 2.400000 0.100001
v -0.600000 2.400000 0.000001
v -0.500000 2.400000 0.000001
v 0.600000 2.400000 0.000001
v 0.700000 2.400000 0.100001
v 0.600000 2.400000 0.100001
v 0.700000 2.400000 0.000001
v 0.000000 2.400000 -0.099999
v 0.100000 2.400000 0.000001
v 0.000000 2.400000 0.000001
v 0.100000 2.400000 -0.099999
v 0.200000 2.400000 -0.199999
v 0.300000 2.400000 -0.099999
v 0.300000 2.400000 -0.199999
v -0.400000 2.400000 -0.299999
v -0.200000 2.400000 -0.199999
v -0.500000 2.400000 -0.199999
v -0.300000 2.400000 -0.299999
v 0.100000 2.400000 -0.299999
v 0.200000 2.400000 -0.299999
v -0.400000 2.400000 -0.399999
v -0.300000 2.400000 -0.399999
v -0.500000 2.400000 -0.499999
v -0.200000 2.400000 -0.499999
v 0.500000 2.400000 -0.499999
v 0.600000 2.400000 -0.399999
v 0.500000 2.400000 -0.399999
v 0.600000 2.400000 -0.499999
v 0.400000 2.400000 -0.599999
v 0.400000 2.400000 -0.499999
v 0.500000 2.400000 -0.599999
v 0.200000 2.500000 0.500001
v 0.300000 2.500000 0.600001
v 0.200000 2.500000 0.600001
v 0.300000 2.500000 0.500001
v 0.100000 2.500000 0.400001
v 0.100000 2.500000 0.500001
v 0.200000 2.500000 0.400001
v 0.500000 2.500000 0.200001
v 0.600000 2.500000 0.300001
v 0.500000 2.500000 0.300001
v 0.600000 2.500000 0.200001
v 0.400000 2.500000 0.100001
v 0.400000 2.500000 0.200001
v 0.700000 2.500000 0.200001
v 0.500000 2.500000 0.100001
v 0.600000 2.500000 0.100001
v 0.700000 2.500000 0.100001
v 0.500000 2.500000 0.000001
v 0.600000 2.500000 0.000001
v 0.100000 2.500000 -0.099999
v 0.200000 2.500000 0.000001
v 0.100000 2.500000 0.000001
v 0.200000 2.500000 -0.099999
v 0.000000 2.500000 -0.199999
v 0.000000 2.500000 -0.099999
v 0.100000 2.500000 -0.199999
v -0.800000 1.600000 0.800001
v 0.800000 1.600000 0.800001
v -0.600000 1.600000 0.600001
v -0.500000 1.600000 0.600001
v -0.400000 1.600000 0.600001
v -0.200000 1.600000 0.600001
v -0.100000 1.600000 0.600001
v 0.100000 1.600000 0.600001
v 0.200000 1.600000 0.600001
v 0.400000 1.600000 0.600001
v 0.500000 1.600000 0.600001
v 0.600000 1.600000 0.600001
v -0.600000 1.600000 0.500001
v -0.500000 1.600000 0.500001
v -0.400000 1.600000 0.500001
v -0.200000 1.600000 0.500001
v -0.100000 1.600000 0.500001
v 0.100000 1.600000 0.500001
v 0.200000 1.600000 0.500001
v 0.400000 1.600000 0.500001
v 0.500000 1.600000 0.500001
v 0.600000 1.600000 0.500001
v -0.600000 1.600000 0.400001
v -0.500000 1.600000 0.400001
v -0.400000 1.600000 0.400001
v -0.300000 1.600000 0.400001
v -0.200000 1.600000 0.400001
v -0.100000 1.600000 0.400001
v 0.100000 1.600000 0.400001
v 0.200000 1.600000 0.400001
v 0.300000 1.600000 0.400001
v 0.400000 1.600000 0.400001
v 0.500000 1.600000 0.400001
v 0.600000 1.600000 0.400001
v -0.400000 1.600000 0.300001
v -0.300000 1.600000 0.300001
v -0.200000 1.600000 0.300001
v -0.100000 1.600000 0.300001
v 0.100000 1.600000 0.300001
v 0.200000 1.600000 0.300001
v 0.300000 1.600000 0.300001
v 0.400000 1.600000 0.300001
v -0.600000 1.600000 0.200001
v -0.500000 1.600000 0.200001
v -0.400000 1.600000 0.200001
v -0.300000 1.600000 0.200001
v -0.200000 1.600000 0.200001
v -0.100000 1.600000 0.200001
v 0.100000 1.600000 0.200001
v 0.200000 1.600000 0.200001
v 0.300000 1.600000 0.200001
v 0.400000 1.600000 0.200001
v 0.500000 1.600000 0.200001
v 0.600000 1.600000 0.200001
v -0.600000 1.600000 0.100001
v -0.500000 1.600000 0.100001
v -0.400000 1.600000 0.100001
v -0.300000 1.600000 0.100001
v -0.200000 1.600000 0.100001
v -0.100000 1.600000 0.100001
v 0.100000 1.600000 0.100001
v 0.200000 1.600000 0.100001
v 0.300000 1.600000 0.100001
v 0.400000 1.600000 0.100001
v 0.500000 1.600000 0.100001
v 0.600000 1.600000 0.100001
v -0.600000 1.600000 -0.099999
v -0.500000 1.600000 -0.099999
v -0.400000 1.600000 -0.099999
v -0.300000 1.600000 -0.099999
v -0.200000 1.600000 -0.099999
v -0.100000 1.600000 -0.099999
v 0.100000 1.600000 -0.099999
v 0.200000 1.600000 -0.099999
v 0.300000 1.600000 -0.099999
v 0.400000 1.600000 -0.099999
v 0.500000 1.600000 -0.099999
v 0.600000 1.600000 -0.099999
v -0.600000 1.600000 -0.199999
v -0.500000 1.600000 -0.199999
v -0.400000 1.600000 -0.199999
v -0.300000 1.600000 -0.199999
v -0.200000 1.600000 -0.199999
v -0.100000 1.600000 -0.199999
v 0.100000 1.600000 -0.199999
v 0.200000 1.600000 -0.199999
v 0.300000 1.600000 -0.199999
v 0.400000 1.600000 -0.199999
v 0.500000 1.600000 -0.199999
v 0.600000 1.600000 -0.199999
v -0.400000 1.600000 -0.299999
v -0.300000 1.600000 -0.299999
v -0.200000 1.600000 -0.299999
v -0.100000 1.600000 -0.299999
v 0.100000 1.600000 -0.299999
v 0.200000 1.600000 -0.299999
v 0.300000 1.600000 -0.299999
v 0.400000 1.600000 -0.299999
v -0.600000 1.600000 -0.399999
v -0.500000 1.600000 -0.399999
v -0.400000 1.600000 -0.399999
v -0.300000 1.600000 -0.399999
v -0.200000 1.600000 -0.399999
v -0.100000 1.600000 -0.399999
v 0.100000 1.600000 -0.399999
v 0.200000 1.600000 -0.399999
v 0.300000 1.600000 -0.399999
v 0.400000 1.600000 -0.399999
v 0.500000 1.600000 -0.399999
v 0.600000 1.600000 -0.399999
v -0.600000 1.600000 -0.499999
v -0.500000 1.600000 -0.499999
v -0.400000 1.600000 -0.499999
v -0.200000 1.600000 -0.499999
v -0.100000 1.600000 -0.499999
v 0.100000 1.600000 -0.499999
v 0.200000 1.600000 -0.499999
v 0.400000 1.600000 -0.499999
v 0.500000 1.600000 -0.499999
v 0.600000 1.600000 -0.499999
v -0.600000 1.600000 -0.599999
v -0.500000 1.600000 -0.599999
v -0.400000 1.600000 -0.599999
v -0.200000 1.600000 -0.599999
v -0.100000 1.600000 -0.599999
v 0.100000 1.600000 -0.599999
v 0.200000 1.600000 -0.599999
v 0.400000 1.600000 -0.599999
v 0.500000 1.600000 -0.599999
v 0.600000 1.600000 -0.599999
v -0.800000 1.600000 -0.799999
v 0.800000 1.600000 -0.799999
v -0.700000 2.400000 0.700001
v -0.500000 2.400000 0.700001
v -0.600000 2.400000 0.600001
v -0.500000 2.400000 0.600001
v -0.700000 2.400000 0.500001
v -0.600000 2.400000 0.500001
v -0.300000 2.400000 0.200001
v -0.100000 2.400000 0.200001
v -0.300000 2.400000 0.100001
v -0.100000 2.400000 0.100001
v 0.500000 2.400000 0.000001
v 0.600000 2.400000 0.000001
v 0.500000 2.400000 -0.099999
v 0.700000 2.400000 0.000001
v 0.400000 2.400000 -0.099999
v 0.400000 2.400000 -0.199999
v 0.600000 2.400000 -0.199999
v 0.700000 2.400000 -0.199999
v 0.400000 2.400000 -0.299999
v 0.500000 2.400000 -0.299999
v 0.600000 2.400000 -0.299999
v 0.100000 2.400000 -0.399999
v 0.200000 2.400000 -0.399999
v 0.300000 2.400000 -0.499999
v 0.300000 2.400000 -0.399999
v 0.100000 2.400000 -0.599999
v 0.300000 2.400000 -0.599999
v -0.200000 2.500000 0.700001
v 0.000000 2.500000 0.700001
v -0.200000 2.500000 0.600001
v -0.100000 2.500000 0.600001
v -0.600000 2.500000 0.600001
v -0.400000 2.500000 0.600001
v -0.400000 2.500000 0.500001
v -0.100000 2.500000 0.500001
v 0.000000 2.500000 0.500001
v 0.400000 2.500000 0.600001
v 0.600000 2.500000 0.600001
v 0.400000 2.500000 0.500001
v -0.600000 2.500000 0.400001
v -0.500000 2.500000 0.400001
v 0.400000 2.500000 0.400001
v 0.500000 2.500000 0.400001
v 0.600000 2.500000 0.400001
v -0.500000 2.500000 0.300001
v -0.400000 2.500000 0.300001
v -0.200000 2.500000 0.400001
v -0.100000 2.500000 0.400001
v -0.200000 2.500000 0.300001
v -0.400000 2.500000 0.200001
v -0.100000 2.500000 0.200001
v 0.200000 2.500000 0.300001
v 0.300000 2.500000 0.300001
v 0.200000 2.500000 0.200001
v 0.300000 2.500000 0.200001
v -0.700000 2.500000 0.200001
v -0.600000 2.500000 0.200001
v -0.600000 2.500000 0.100001
v -0.700000 2.500000 0.000001
v -0.500000 2.500000 0.100001
v -0.500000 2.500000 0.000001
v 0.300000 2.500000 -0.199999
v 0.400000 2.500000 -0.199999
v 0.300000 2.500000 -0.299999
v 0.400000 2.500000 -0.299999
v 0.200000 2.500000 -0.299999
v 0.200000 2.500000 -0.399999
v 0.500000 2.500000 -0.299999
v 0.300000 2.500000 -0.399999
v 0.500000 2.500000 -0.399999
v -0.500000 2.500000 -0.199999
v -0.200000 2.500000 -0.199999
v -0.500000 2.500000 -0.499999
v -0.200000 2.500000 -0.499999
v 0.600000 2.500000 -0.399999
v 0.300000 2.500000 -0.499999
v 0.400000 2.500000 -0.499999
v 0.400000 2.500000 -0.599999
v 0.600000 2.500000 -0.599999
v -0.300000 2.600000 0.600001
v -0.100000 2.600000 0.600001
v -0.300000 2.600000 0.500001
v 0.100000 2.600000 0.600001
v 0.300000 2.600000 0.600001
v 0.300000 2.600000 0.500001
v -0.400000 2.600000 0.500001
v -0.200000 2.600000 0.400001
v -0.100000 2.600000 0.400001
v 0.400000 2.600000 0.500001
v 0.100000 2.600000 0.400001
v 0.200000 2.600000 0.400001
v 0.400000 2.600000 0.400001
v -0.400000 2.600000 0.300001
v -0.200000 2.600000 0.300001
v 0.500000 2.600000 0.400001
v 0.200000 2.600000 0.300001
v 0.300000 2.600000 0.300001
v 0.400000 2.600000 0.300001
v 0.500000 2.600000 0.300001
v 0.300000 2.600000 0.200001
v 0.400000 2.600000 0.200001
v -0.600000 2.600000 0.300001
v -0.600000 2.600000 0.100001
v -0.400000 2.600000 0.100001
v 0.600000 2.600000 0.200001
v 0.700000 2.600000 0.200001
v 0.600000 2.600000 0.100001
v 0.500000 2.600000 0.100001
v 0.500000 2.600000 0.000001
v 0.700000 2.600000 0.000001
v 0.000000 2.600000 0.000001
v 0.200000 2.600000 0.000001
v 0.200000 2.600000 -0.099999
v 0.000000 2.600000 -0.199999
v 0.300000 2.600000 -0.099999
v 0.100000 2.600000 -0.199999
v 0.100000 2.600000 -0.299999
v 0.300000 2.600000 -0.299999
v 0.400000 2.700000 0.300001
v 0.600000 2.700000 0.300001
v 0.400000 2.700000 0.100001
v 0.600000 2.700000 0.100001
vt 0.087891 0.500000
vt 0.087891 0.500000
vt 0.087891 0.500000
vt 0.087891 0.500000
vt 0.083984 0.500000
vt 0.083984 0.500000
vt 0.083984 0.500000
vt 0.083984 0.500000
vt 0.080078 0.500000
vt 0.080078 0.500000
vt 0.080078 0.500000
vt 0.080078 0.500000
vt 0.072266 0.500000
vt 0.072266 0.500000
vt 0.072266 0.500000
vt 0.072266 0.500000
vt 0.033203 0.500000
vt 0.033203 0.500000
vt 0.033203 0.500000
vt 0.033203 0.500000
vt 0.033203 0.500000
vt 0.033203 0.500000
vt 0.033203 0.500000
vt 0.033203 0.500000
vt 0.033203 0.500000
vt 0.033203 0.500000
vt 0.033203 0.500000
vt 0.033203 0.500000
vt 0.033203 0.500000
vt 0.033203 0.500000
vt 0.033203 0.500000
vt 0.033203 0.500000
vt 0.033203 0.500000
vt 0.033203 0.500000
vt 0.033203 0.500000
vt 0.033203 0.500000
vt 0.033203 0.500000
vt 0.033203 0.500000
vt 0.033203 0.500000
vt 0.033203 0.500000
vt 0.033203 0.500000
vt 0.033203 0.500000
vt 0.033203 0.500000
vt 0.033203 0.500000
vt 0.033203 0.500000
vt 0.033203 0.500000
vt 0.033203 0.500000
vt 0.033203 0.500000
vt 0.033203 0.500000
vt 0.033203 0.500000
vt 0.033203 0.500000
vt 0.091797 0.500000
vt 0.091797 0.500000
vt 0.091797 0.500000
vt 0.091797 0.500000
vt 0.091797 0.500000
vt 0.091797 0.500000
vt 0.091797 0.500000
vt 0.091797 0.500000
vt 0.033203 0.500000
vt 0.033203 0.500000
vt 0.033203 0.500000
vt 0.033203 0.500000
vt 0.033203 0.500000
vt 0.033203 0.500000
vt 0.033203 0.500000
vt 0.033203 0.500000
vt 0.033203 0.500000
vt 0.033203 0.500000
vt 0.033203 0.500000
vt 0.033203 0.500000
vt 0.033203 0.500000
vt 0.033203 0.500000
vt 0.033203 0.500000
vt 0.033203 0.500000
vt 0.033203 0.500000
vt 0.033203 0.500000
vt 0.033203 0.500000
vt 0.033203 0.500000
vt 0.033203 0.500000
vt 0.033203 0.500000
vt 0.033203 0.500000
vt 0.033203 0.500000
vt 0.033203 0.500000
vt 0.033203 0.500000
vt 0.033203 0.500000
vt 0.033203 0.500000
vt 0.033203 0.500000
vt 0.033203 0.500000
vt 0.033203 0.500000
vt 0.033203 0.500000
vt 0.033203 0.500000
vt 0.033203 0.500000
vt 0.033203 0.500000
vt 0.033203 0.500000
vt 0.033203 0.500000
vt 0.033203 0.500000
vt 0.033203 0.500000
vt 0.033203 0.500000
vt 0.033203 0.500000
vt 0.033203 0.500000
vt 0.033203 0.500000
vt 0.033203 0.500000
vt 0.033203 0.500000
vt 0.033203 0.500000
vt 0.033203 0.500000
vt 0.033203 0.500000
vt 0.033203 0.500000
vt 0.033203 0.500000
vt 0.033203 0.500000
vt 0.033203 0.500000
vt 0.033203 0.500000
vt 0.033203 0.500000
vt 0.033203 0.500000
vt 0.033203 0.500000
vt 0.033203 0.500000
vt 0.033203 0.500000
vt 0.033203 0.500000
vt 0.033203 0.500000
vt 0.033203 0.500000
vt 0.033203 0.500000
vt 0.033203 0.500000
vt 0.091797 0.500000
vt 0.091797 0.500000
vt 0.091797 0.500000
vt 0.091797 0.500000
vt 0.091797 0.500000
vt 0.091797 0.500000
vt 0.091797 0.500000
vt 0.091797 0.500000
vt 0.033203 0.500000
vt 0.033203 0.500000
vt 0.033203 0.500000
vt 0.033203 0.500000
vt 0.033203 0.500000
vt 0.033203 0.500000
vt 0.033203 0.500000
vt 0.033203 0.500000
vt 0.033203 0.500000
vt 0.033203 0.500000
vt 0.033203 0.500000
vt 0.033203 0.500000
vt 0.033203 0.500000
vt 0.033203 0.500000
vt 0.033203 0.500000
vt 0.033203 0.500000
vt 0.033203 0.500000
vt 0.033203 0.500000
vt 0.033203 0.500000
vt 0.033203 0.500000
vt 0.033203 0.500000
vt 0.033203 0.500000
vt 0.033203 0.500000
vt 0.033203 0.500000
vt 0.033203 0.500000
vt 0.033203 0.500000
vt 0.033203 0.500000
vt 0.033203 0.500000
vt 0.033203 0.500000
vt 0.033203 0.500000
vt 0.033203 0.500000
vt 0.033203 0.500000
vt 0.033203 0.500000
vt 0.033203 0.500000
vt 0.033203 0.500000
vt 0.033203 0.500000
vt 0.033203 0.500000
vt 0.033203 0.500000
vt 0.033203 0.500000
vt 0.033203 0.500000
vt 0.033203 0.500000
vt 0.033203 0.500000
vt 0.033203 0.500000
vt 0.033203 0.500000
vt 0.033203 0.500000
vt 0.033203 0.500000
vt 0.033203 0.500000
vt 0.033203 0.500000
vt 0.033203 0.500000
vt 0.033203 0.500000
vt 0.033203 0.500000
vt 0.033203 0.500000
vt 0.033203 0.500000
vt 0.033203 0.500000
vt 0.033203 0.500000
vt 0.033203 0.500000
vt 0.033203 0.500000
vt 0.033203 0.500000
vt 0.033203 0.500000
vt 0.033203 0.500000
vt 0.033203 0.500000
vt 0.033203 0.500000
vt 0.033203 0.500000
vt 0.033203 0.500000
vt 0.033203 0.500000
vt 0.033203 0.500000
vt 0.033203 0.500000
vt 0.033203 0.500000
vt 0.033203 0.500000
vt 0.033203 0.500000
vt 0.033203 0.500000
vt 0.033203 0.500000
vt 0.033203 0.500000
vt 0.033203 0.500000
vt 0.033203 0.500000
vt 0.033203 0.500000
vt 0.033203 0.500000
vt 0.091797 0.500000
vt 0.091797 0.500000
vt 0.091797 0.500000
vt 0.091797 0.500000
vt 0.091797 0.500000
vt 0.091797 0.500000
vt 0.091797 0.500000
vt 0.091797 0.500000
vt 0.033203 0.500000
vt 0.033203 0.500000
vt 0.033203 0.500000
vt 0.033203 0.500000
vt 0.033203 0.500000
vt 0.033203 0.500000
vt 0.033203 0.500000
vt 0.033203 0.500000
vt 0.033203 0.500000
vt 0.033203 0.500000
vt 0.033203 0.500000
vt 0.033203 0.500000
vt 0.033203 0.500000
vt 0.033203 0.500000
vt 0.033203 0.500000
vt 0.033203 0.500000
vt 0.033203 0.500000
vt 0.033203 0.500000
vt 0.033203 0.500000
vt 0.033203 0.500000
vt 0.033203 0.500000
vt 0.033203 0.500000
vt 0.033203 0.500000
vt 0.033203 0.500000
vt 0.033203 0.500000
vt 0.033203 0.500000
vt 0.033203 0.500000
vt 0.033203 0.500000
vt 0.033203 0.500000
vt 0.033203 0.500000
vt 0.033203 0.500000
vt 0.033203 0.500000
vt 0.033203 0.500000
vt 0.033203 0.500000
vt 0.033203 0.500000
vt 0.033203 0.500000
vt 0.033203 0.500000
vt 0.033203 0.500000
vt 0.033203 0.500000
vt 0.033203 0.500000
vt 0.033203 0.500000
vt 0.033203 0.500000
vt 0.033203 0.500000
vt 0.033203 0.500000
vt 0.033203 0.500000
vt 0.033203 0.500000
vt 0.033203 0.500000
vt 0.033203 0.500000
vt 0.033203 0.500000
vt 0.033203 0.500000
vt 0.033203 0.500000
vt 0.033203 0.500000
vt 0.033203 0.500000
vt 0.033203 0.500000
vt 0.033203 0.500000
vt 0.033203 0.500000
vt 0.033203 0.500000
vt 0.033203 0.500000
vt 0.033203 0.500000
vt 0.033203 0.500000
vt 0.033203 0.500000
vt 0.033203 0.500000
vt 0.091797 0.500000
vt 0.091797 0.500000
vt 0.091797 0.500000
vt 0.091797 0.500000
vt 0.091797 0.500000
vt 0.091797 0.500000
vt 0.091797 0.500000
vt 0.091797 0.500000
vt 0.033203 0.500000
vt 0.033203 0.500000
vt 0.033203 0.500000
vt 0.033203 0.500000
vt 0.033203 0.500000
vt 0.033203 0.500000
vt 0.033203 0.500000
vt 0.033203 0.500000
vt 0.033203 0.500000
vt 0.033203 0.500000
vt 0.033203 0.500000
vt 0.033203 0.500000
vt 0.033203 0.500000
vt 0.033203 0.500000
vt 0.033203 0.500000
vt 0.033203 0.500000
vt 0.033203 0.500000
vt 0.033203 0.500000
vt 0.033203 0.500000
vt 0.033203 0.500000
vt 0.033203 0.500000
vt 0.033203 0.500000
vt 0.033203 0.500000
vt 0.033203 0.500000
vt 0.033203 0.500000
vt 0.033203 0.500000
vt 0.033203 0.500000
vt 0.033203 0.500000
vt 0.033203 0.500000
vt 0.033203 0.500000
vt 0.033203 0.500000
vt 0.033203 0.500000
vt 0.033203 0.500000
vt 0.033203 0.500000
vt 0.033203 0.500000
vt 0.033203 0.500000
vt 0.033203 0.500000
vt 0.033203 0.500000
vt 0.033203 0.500000
vt 0.033203 0.500000
vt 0.033203 0.500000
vt 0.033203 0.500000
vt 0.033203 0.500000
vt 0.033203 0.500000
vt 0.033203 0.500000
vt 0.033203 0.500000
vt 0.033203 0.500000
vt 0.033203 0.500000
vt 0.033203 0.500000
vt 0.033203 0.500000
vt 0.033203 0.500000
vt 0.033203 0.500000
vt 0.033203 0.500000
vt 0.033203 0.500000
vt 0.033203 0.500000
vt 0.087891 0.500000
vt 0.087891 0.500000
vt 0.087891 0.500000
vt 0.087891 0.500000
vt 0.083984 0.500000
vt 0.083984 0.500000
vt 0.083984 0.500000
vt 0.083984 0.500000
vt 0.080078 0.500000
vt 0.080078 0.500000
vt 0.080078 0.500000
vt 0.080078 0.500000
vt 0.072266 0.500000
vt 0.072266 0.500000
vt 0.072266 0.500000
vt 0.072266 0.500000
vt 0.087891 0.500000
vt 0.087891 0.500000
vt 0.087891 0.500000
vt 0.083984 0.500000
vt 0.083984 0.500000
vt 0.083984 0.500000
vt 0.087891 0.500000
vt 0.080078 0.500000
vt 0.080078 0.500000
vt 0.080078 0.500000
vt 0.083984 0.500000
vt 0.072266 0.500000
vt 0.072266 0.500000
vt 0.072266 0.500000
vt 0.080078 0.500000
vt 0.072266 0.500000
vt 0.033203 0.500000
vt 0.033203 0.500000
vt 0.033203 0.500000
vt 0.033203 0.500000
vt 0.033203 0.500000
vt 0.033203 0.500000
vt 0.033203 0.500000
vt 0.033203 0.500000
vt 0.033203 0.500000
vt 0.033203 0.500000
vt 0.033203 0.500000
vt 0.033203 0.500000
vt 0.033203 0.500000
vt 0.033203 0.500000
vt 0.033203 0.500000
vt 0.033203 0.500000
vt 0.033203 0.500000
vt 0.033203 0.500000
vt 0.033203 0.500000
vt 0.033203 0.500000
vt 0.033203 0.500000
vt 0.033203 0.500000
vt 0.033203 0.500000
vt 0.033203 0.500000
vt 0.033203 0.500000
vt 0.033203 0.500000
vt 0.033203 0.500000
vt 0.033203 0.500000
vt 0.033203 0.500000
vt 0.033203 0.500000
vt 0.033203 0.500000
vt 0.033203 0.500000
vt 0.033203 0.500000
vt 0.033203 0.500000
vt 0.033203 0.500000
vt 0.033203 0.500000
vt 0.033203 0.500000
vt 0.033203 0.500000
vt 0.033203 0.500000
vt 0.033203 0.500000
vt 0.033203 0.500000
vt 0.033203 0.500000
vt 0.033203 0.500000
vt 0.033203 0.500000
vt 0.033203 0.500000
vt 0.033203 0.500000
vt 0.033203 0.500000
vt 0.033203 0.500000
vt 0.033203 0.500000
vt 0.033203 0.500000
vt 0.033203 0.500000
vt 0.091797 0.500000
vt 0.091797 0.500000
vt 0.091797 0.500000
vt 0.091797 0.500000
vt 0.033203 0.500000
vt 0.033203 0.500000
vt 0.033203 0.500000
vt 0.033203 0.500000
vt 0.091797 0.500000
vt 0.091797 0.500000
vt 0.091797 0.500000
vt 0.091797 0.500000
vt 0.033203 0.500000
vt 0.033203 0.500000
vt 0.033203 0.500000
vt 0.033203 0.500000
vt 0.033203 0.500000
vt 0.033203 0.500000
vt 0.033203 0.500000
vt 0.033203 0.500000
vt 0.033203 0.500000
vt 0.033203 0.500000
vt 0.033203 0.500000
vt 0.033203 0.500000
vt 0.033203 0.500000
vt 0.033203 0.500000
vt 0.033203 0.500000
vt 0.033203 0.500000
vt 0.033203 0.500000
vt 0.033203 0.500000
vt 0.033203 0.500000
vt 0.033203 0.500000
vt 0.033203 0.500000
vt 0.033203 0.500000
vt 0.033203 0.500000
vt 0.033203 0.500000
vt 0.033203 0.500000
vt 0.033203 0.500000
vt 0.033203 0.500000
vt 0.033203 0.500000
vt 0.033203 0.500000
vt 0.033203 0.500000
vt 0.033203 0.500000
vt 0.033203 0.500000
vt 0.033203 0.500000
vt 0.033203 0.500000
vt 0.033203 0.500000
vt 0.033203 0.500000
vt 0.033203 0.500000
vt 0.033203 0.500000
vt 0.033203 0.500000
vt 0.033203 0.500000
vt 0.033203 0.500000
vt 0.033203 0.500000
vt 0.033203 0.500000
vt 0.033203 0.500000
vt 0.033203 0.500000
vt 0.033203 0.500000
vt 0.033203 0.500000
vt 0.033203 0.500000
vt 0.033203 0.500000
vt 0.033203 0.500000
vt 0.033203 0.500000
vt 0.033203 0.500000
vt 0.033203 0.500000
vt 0.033203 0.500000
vt 0.033203 0.500000
vt 0.033203 0.500000
vt 0.033203 0.500000
vt 0.033203 0.500000
vt 0.033203 0.500000
vt 0.033203 0.500000
vt 0.033203 0.500000
vt 0.033203 0.500000
vt 0.033203 0.500000
vt 0.033203 0.500000
vt 0.033203 0.500000
vt 0.033203 0.500000
vt 0.033203 0.500000
vt 0.033203 0.500000
vt 0.033203 0.500000
vt 0.033203 0.500000
vt 0.091797 0.500000
vt 0.091797 0.500000
vt 0.091797 0.500000
vt 0.091797 0.500000
vt 0.091797 0.500000
vt 0.091797 0.500000
vt 0.091797 0.500000
vt 0.091797 0.500000
vt 0.033203 0.500000
vt 0.033203 0.500000
vt 0.033203 0.500000
vt 0.033203 0.500000
vt 0.033203 0.500000
vt 0.033203 0.500000
vt 0.033203 0.500000
vt 0.033203 0.500000
vt 0.033203 0.500000
vt 0.033203 0.500000
vt 0.033203 0.500000
vt 0.033203 0.500000
vt 0.033203 0.500000
vt 0.033203 0.500000
vt 0.033203 0.500000
vt 0.033203 0.500000
vt 0.033203 0.500000
vt 0.033203 0.500000
vt 0.033203 0.500000
vt 0.033203 0.500000
vt 0.033203 0.500000
vt 0.033203 0.500000
vt 0.033203 0.500000
vt 0.033203 0.500000
vt 0.033203 0.500000
vt 0.033203 0.500000
vt 0.033203 0.500000
vt 0.033203 0.500000
vt 0.033203 0.500000
vt 0.033203 0.500000
vt 0.033203 0.500000
vt 0.033203 0.500000
vt 0.033203 0.500000
vt 0.033203 0.500000
vt 0.033203 0.500000
vt 0.033203 0.500000
vt 0.033203 0.500000
vt 0.033203 0.500000
vt 0.033203 0.500000
vt 0.033203 0.500000
vt 0.033203 0.500000
vt 0.033203 0.500000
vt 0.033203 0.500000
vt 0.033203 0.500000
vt 0.033203 0.500000
vt 0.033203 0.500000
vt 0.033203 0.500000
vt 0.033203 0.500000
vt 0.033203 0.500000
vt 0.033203 0.500000
vt 0.033203 0.500000
vt 0.033203 0.500000
vt 0.033203 0.500000
vt 0.033203 0.500000
vt 0.033203 0.500000
vt 0.033203 0.500000
vt 0.033203 0.500000
vt 0.033203 0.500000
vt 0.033203 0.500000
vt 0.033203 0.500000
vt 0.033203 0.500000
vt 0.091797 0.500000
vt 0.091797 0.500000
vt 0.091797 0.500000
vt 0.091797 0.500000
vt 0.033203 0.500000
vt 0.033203 0.500000
vt 0.033203 0.500000
vt 0.033203 0.500000
vt 0.033203 0.500000
vt 0.033203 0.500000
vt 0.033203 0.500000
vt 0.033203 0.500000
vt 0.091797 0.500000
vt 0.091797 0.500000
vt 0.091797 0.500000
vt 0.091797 0.500000
vt 0.033203 0.500000
vt 0.033203 0.500000
vt 0.033203 0.500000
vt 0.033203 0.500000
vt 0.033203 0.500000
vt 0.033203 0.500000
vt 0.033203 0.500000
vt 0.033203 0.500000
vt 0.033203 0.500000
vt 0.033203 0.500000
vt 0.033203 0.500000
vt 0.033203 0.500000
vt 0.033203 0.500000
vt 0.033203 0.500000
vt 0.033203 0.500000
vt 0.033203 0.500000
vt 0.033203 0.500000
vt 0.033203 0.500000
vt 0.033203 0.500000
vt 0.033203 0.500000
vt 0.033203 0.500000
vt 0.033203 0.500000
vt 0.033203 0.500000
vt 0.033203 0.500000
vt 0.033203 0.500000
vt 0.033203 0.500000
vt 0.033203 0.500000
vt 0.033203 0.500000
vt 0.033203 0.500000
vt 0.033203 0.500000
vt 0.033203 0.500000
vt 0.033203 0.500000
vt 0.033203 0.500000
vt 0.033203 0.500000
vt 0.033203 0.500000
vt 0.033203 0.500000
vt 0.033203 0.500000
vt 0.033203 0.500000
vt 0.033203 0.500000
vt 0.033203 0.500000
vt 0.033203 0.500000
vt 0.033203 0.500000
vt 0.033203 0.500000
vt 0.033203 0.500000
vt 0.033203 0.500000
vt 0.033203 0.500000
vt 0.033203 0.500000
vt 0.033203 0.500000
vt 0.033203 0.500000
vt 0.033203 0.500000
vt 0.033203 0.500000
vt 0.033203 0.500000
vt 0.033203 0.500000
vt 0.033203 0.500000
vt 0.033203 0.500000
vt 0.033203 0.500000
vt 0.033203 0.500000
vt 0.033203 0.500000
vt 0.033203 0.500000
vt 0.033203 0.500000
vt 0.033203 0.500000
vt 0.033203 0.500000
vt 0.033203 0.500000
vt 0.033203 0.500000
vt 0.033203 0.500000
vt 0.033203 0.500000
vt 0.033203 0.500000
vt 0.033203 0.500000
vt 0.033203 0.500000
vt 0.033203 0.500000
vt 0.033203 0.500000
vt 0.033203 0.500000
vt 0.091797 0.500000
vt 0.091797 0.500000
vt 0.091797 0.500000
vt 0.091797 0.500000
vt 0.033203 0.500000
vt 0.033203 0.500000
vt 0.033203 0.500000
vt 0.033203 0.500000
vt 0.091797 0.500000
vt 0.091797 0.500000
vt 0.091797 0.500000
vt 0.091797 0.500000
vt 0.033203 0.500000
vt 0.033203 0.500000
vt 0.033203 0.500000
vt 0.033203 0.500000
vt 0.033203 0.500000
vt 0.033203 0.500000
vt 0.033203 0.500000
vt 0.033203 0.500000
vt 0.033203 0.500000
vt 0.033203 0.500000
vt 0.033203 0.500000
vt 0.033203 0.500000
vt 0.033203 0.500000
vt 0.033203 0.500000
vt 0.033203 0.500000
vt 0.033203 0.500000
vt 0.033203 0.500000
vt 0.033203 0.500000
vt 0.033203 0.500000
vt 0.033203 0.500000
vt 0.033203 0.500000
vt 0.033203 0.500000
vt 0.033203 0.500000
vt 0.087891 0.500000
vt 0.087891 0.500000
vt 0.087891 0.500000
vt 0.083984 0.500000
vt 0.083984 0.500000
vt 0.083984 0.500000
vt 0.087891 0.500000
vt 0.080078 0.500000
vt 0.080078 0.500000
vt 0.080078 0.500000
vt 0.083984 0.500000
vt 0.072266 0.500000
vt 0.072266 0.500000
vt 0.072266 0.500000
vt 0.080078 0.500000
vt 0.072266 0.500000
vt 0.087891 0.500000
vt 0.087891 0.500000
vt 0.087891 0.500000
vt 0.087891 0.500000
vt 0.033203 0.500000
vt 0.033203 0.500000
vt 0.033203 0.500000
vt 0.033203 0.500000
vt 0.033203 0.500000
vt 0.033203 0.500000
vt 0.033203 0.500000
vt 0.033203 0.500000
vt 0.033203 0.500000
vt 0.033203 0.500000
vt 0.033203 0.500000
vt 0.033203 0.500000
vt 0.033203 0.500000
vt 0.033203 0.500000
vt 0.033203 0.500000
vt 0.033203 0.500000
vt 0.033203 0.500000
vt 0.033203 0.500000
vt 0.033203 0.500000
vt 0.033203 0.500000
vt 0.033203 0.500000
vt 0.033203 0.500000
vt 0.033203 0.500000
vt 0.033203 0.500000
vt 0.033203 0.500000
vt 0.033203 0.500000
vt 0.033203 0.500000
vt 0.033203 0.500000
vt 0.033203 0.500000
vt 0.033203 0.500000
vt 0.033203 0.500000
vt 0.033203 0.500000
vt 0.033203 0.500000
vt 0.033203 0.500000
vt 0.033203 0.500000
vt 0.033203 0.500000
vt 0.033203 0.500000
vt 0.033203 0.500000
vt 0.033203 0.500000
vt 0.033203 0.500000
vt 0.033203 0.500000
vt 0.033203 0.500000
vt 0.033203 0.500000
vt 0.033203 0.500000
vt 0.033203 0.500000
vt 0.033203 0.500000
vt 0.033203 0.500000
vt 0.033203 0.500000
vt 0.033203 0.500000
vt 0.033203 0.500000
vt 0.033203 0.500000
vt 0.033203 0.500000
vt 0.033203 0.500000
vt 0.033203 0.500000
vt 0.033203 0.500000
vt 0.033203 0.500000
vt 0.033203 0.500000
vt 0.033203 0.500000
vt 0.033203 0.500000
vt 0.033203 0.500000
vt 0.033203 0.500000
vt 0.033203 0.500000
vt 0.033203 0.500000
vt 0.033203 0.500000
vt 0.033203 0.500000
vt 0.033203 0.500000
vt 0.033203 0.500000
vt 0.033203 0.500000
vt 0.033203 0.500000
vt 0.033203 0.500000
vt 0.033203 0.500000
vt 0.033203 0.500000
vt 0.033203 0.500000
vt 0.033203 0.500000
vt 0.033203 0.500000
vt 0.033203 0.500000
vt 0.033203 0.500000
vt 0.033203 0.500000
vt 0.033203 0.500000
vt 0.033203 0.500000
vt 0.033203 0.500000
vt 0.033203 0.500000
vt 0.033203 0.500000
vt 0.033203 0.500000
vt 0.033203 0.500000
vt 0.033203 0.500000
vt 0.033203 0.500000
vt 0.033203 0.500000
vt 0.033203 0.500000
vt 0.033203 0.500000
vt 0.033203 0.500000
vt 0.033203 0.500000
vt 0.033203 0.500000
vt 0.033203 0.500000
vt 0.033203 0.500000
vt 0.033203 0.500000
vt 0.033203 0.500000
vt 0.033203 0.500000
vt 0.033203 0.500000
vt 0.033203 0.500000
vt 0.033203 0.500000
vt 0.033203 0.500000
vt 0.033203 0.500000
vt 0.033203 0.500000
vt 0.033203 0.500000
vt 0.033203 0.500000
vt 0.033203 0.500000
vt 0.033203 0.500000
vt 0.033203 0.500000
vt 0.033203 0.500000
vt 0.033203 0.500000
vt 0.033203 0.500000
vt 0.033203 0.500000
vt 0.033203 0.500000
vt 0.033203 0.500000
vt 0.033203 0.500000
vt 0.033203 0.500000
vt 0.033203 0.500000
vt 0.033203 0.500000
vt 0.033203 0.500000
vt 0.033203 0.500000
vt 0.033203 0.500000
vt 0.033203 0.500000
vt 0.033203 0.500000
vt 0.033203 0.500000
vt 0.033203 0.500000
vt 0.033203 0.500000
vt 0.033203 0.500000
vt 0.033203 0.500000
vt 0.033203 0.500000
vt 0.033203 0.500000
vt 0.033203 0.500000
vt 0.033203 0.500000
vt 0.033203 0.500000
vt 0.033203 0.500000
vt 0.033203 0.500000
vt 0.033203 0.500000
vt 0.033203 0.500000
vt 0.033203 0.500000
vt 0.033203 0.500000
vt 0.033203 0.500000
vt 0.033203 0.500000
vt 0.033203 0.500000
vt 0.033203 0.500000
vt 0.033203 0.500000
vt 0.033203 0.500000
vt 0.033203 0.500000
vt 0.033203 0.500000
vt 0.033203 0.500000
vt 0.033203 0.500000
vt 0.033203 0.500000
vt 0.033203 0.500000
vt 0.033203 0.500000
vt 0.033203 0.500000
vt 0.033203 0.500000
vt 0.033203 0.500000
vt 0.033203 0.500000
vt 0.033203 0.500000
vt 0.033203 0.500000
vt 0.033203 0.500000
vt 0.033203 0.500000
vt 0.033203 0.500000
vt 0.033203 0.500000
vt 0.033203 0.500000
vt 0.033203 0.500000
vt 0.033203 0.500000
vt 0.033203 0.500000
vt 0.033203 0.500000
vt 0.033203 0.500000
vt 0.033203 0.500000
vt 0.033203 0.500000
vt 0.033203 0.500000
vt 0.033203 0.500000
vt 0.033203 0.500000
vt 0.033203 0.500000
vt 0.033203 0.500000
vt 0.072266 0.500000
vt 0.072266 0.500000
vt 0.072266 0.500000
vt 0.072266 0.500000
vt 0.072266 0.500000
vt 0.072266 0.500000
vt 0.072266 0.500000
vt 0.072266 0.500000
vt 0.072266 0.500000
vt 0.072266 0.500000
vt 0.072266 0.500000
vt 0.072266 0.500000
vt 0.072266 0.500000
vt 0.076172 0.500000
vt 0.076172 0.500000
vt 0.076172 0.500000
vt 0.072266 0.500000
vt 0.076172 0.500000
vt 0.076172 0.500000
vt 0.076172 0.500000
vt 0.076172 0.500000
vt 0.072266 0.500000
vt 0.072266 0.500000
vt 0.076172 0.500000
vt 0.076172 0.500000
vt 0.076172 0.500000
vt 0.076172 0.500000
vt 0.072266 0.500000
vt 0.072266 0.500000
vt 0.076172 0.500000
vt 0.076172 0.500000
vt 0.076172 0.500000
vt 0.076172 0.500000
vt 0.072266 0.500000
vt 0.072266 0.500000
vt 0.076172 0.500000
vt 0.076172 0.500000
vt 0.076172 0.500000
vt 0.076172 0.500000
vt 0.072266 0.500000
vt 0.072266 0.500000
vt 0.076172 0.500000
vt 0.072266 0.500000
vt 0.033203 0.500000
vt 0.033203 0.500000
vt 0.033203 0.500000
vt 0.072266 0.500000
vt 0.033203 0.500000
vt 0.033203 0.500000
vt 0.033203 0.500000
vt 0.076172 0.500000
vt 0.033203 0.500000
vt 0.072266 0.500000
vt 0.076172 0.500000
vt 0.076172 0.500000
vt 0.072266 0.500000
vt 0.033203 0.500000
vt 0.033203 0.500000
vt 0.033203 0.500000
vt 0.076172 0.500000
vt 0.033203 0.500000
vt 0.033203 0.500000
vt 0.033203 0.500000
vt 0.072266 0.500000
vt 0.033203 0.500000
vt 0.072266 0.500000
vt 0.033203 0.500000
vt 0.033203 0.500000
vt 0.072266 0.500000
vt 0.072266 0.500000
vt 0.033203 0.500000
vt 0.076172 0.500000
vt 0.072266 0.500000
vt 0.072266 0.500000
vt 0.072266 0.500000
vt 0.076172 0.500000
vt 0.033203 0.500000
vt 0.072266 0.500000
vt 0.033203 0.500000
vt 0.033203 0.500000
vt 0.072266 0.500000
vt 0.076172 0.500000
vt 0.076172 0.500000
vt 0.076172 0.500000
vt 0.033203 0.500000
vt 0.076172 0.500000
vt 0.033203 0.500000
vt 0.033203 0.500000
vt 0.076172 0.500000
vt 0.033203 0.500000
vt 0.076172 0.500000
vt 0.076172 0.500000
vt 0.076172 0.500000
vt 0.076172 0.500000
vt 0.033203 0.500000
vt 0.076172 0.500000
vt 0.033203 0.500000
vt 0.033203 0.500000
vt 0.076172 0.500000
vt 0.076172 0.500000
vt 0.076172 0.500000
vt 0.033203 0.500000
vt 0.072266 0.500000
vt 0.076172 0.500000
vt 0.072266 0.500000
vt 0.072266 0.500000
vt 0.076172 0.500000
vt 0.076172 0.500000
vt 0.072266 0.500000
vt 0.072266 0.500000
vt 0.072266 0.500000
vt 0.072266 0.500000
vt 0.076172 0.500000
vt 0.076172 0.500000
vt 0.076172 0.500000
vt 0.072266 0.500000
vt 0.072266 0.500000
vt 0.072266 0.500000
vt 0.072266 0.500000
vt 0.076172 0.500000
vt 0.076172 0.500000
vt 0.072266 0.500000
vt 0.072266 0.500000
vt 0.072266 0.500000
vt 0.072266 0.500000
vt 0.076172 0.500000
vt 0.076172 0.500000
vt 0.076172 0.500000
vt 0.072266 0.500000
vt 0.072266 0.500000
vt 0.072266 0.500000
vt 0.072266 0.500000
vt 0.076172 0.500000
vt 0.076172 0.500000
vt 0.076172 0.500000
vt 0.072266 0.500000
vt 0.072266 0.500000
vt 0.072266 0.500000
vt 0.076172 0.500000
vt 0.072266 0.500000
vt 0.076172 0.500000
vt 0.076172 0.500000
vt 0.072266 0.500000
vt 0.072266 0.500000
vt 0.076172 0.500000
vt 0.076172 0.500000
vt 0.072266 0.500000
vt 0.076172 0.500000
vt 0.076172 0.500000
vt 0.072266 0.500000
vt 0.076172 0.500000
vt 0.076172 0.500000
vt 0.072266 0.500000
vt 0.076172 0.500000
vt 0.076172 0.500000
vt 0.072266 0.500000
vt 0.076172 0.500000
vt 0.076172 0.500000
vt 0.076172 0.500000
vt 0.072266 0.500000
vt 0.072266 0.500000
vt 0.076172 0.500000
vt 0.072266 0.500000
vt 0.076172 0.500000
vt 0.072266 0.500000
vt 0.072266 0.500000
vt 0.072266 0.500000
vt 0.076172 0.500000
vt 0.076172 0.500000
vt 0.072266 0.500000
vt 0.072266 0.500000
vt 0.072266 0.500000
vt 0.076172 0.500000
vt 0.076172 0.500000
vt 0.072266 0.500000
vt 0.072266 0.500000
vt 0.072266 0.500000
vt 0.076172 0.500000
vt 0.076172 0.500000
vt 0.072266 0.500000
vt 0.072266 0.500000
vt 0.072266 0.500000
vt 0.076172 0.500000
vt 0.076172 0.500000
vt 0.072266 0.500000
vt 0.072266 0.500000
vt 0.076172 0.500000
vt 0.072266 0.500000
vt 0.033203 0.500000
vt 0.033203 0.500000
vt 0.033203 0.500000
vt 0.033203 0.500000
vt 0.033203 0.500000
vt 0.033203 0.500000
vt 0.076172 0.500000
vt 0.033203 0.500000
vt 0.076172 0.500000
vt 0.076172 0.500000
vt 0.033203 0.500000
vt 0.033203 0.500000
vt 0.033203 0.500000
vt 0.076172 0.500000
vt 0.033203 0.500000
vt 0.033203 0.500000
vt 0.033203 0.500000
vt 0.033203 0.500000
vt 0.076172 0.500000
vt 0.076172 0.500000
vt 0.072266 0.500000
vt 0.033203 0.500000
vt 0.076172 0.500000
vt 0.033203 0.500000
vt 0.033203 0.500000
vt 0.072266 0.500000
vt 0.072266 0.500000
vt 0.072266 0.500000
vt 0.033203 0.500000
vt 0.076172 0.500000
vt 0.072266 0.500000
vt 0.072266 0.500000
vt 0.072266 0.500000
vt 0.072266 0.500000
vt 0.076172 0.500000
vt 0.033203 0.500000
vt 0.072266 0.500000
vt 0.033203 0.500000
vt 0.033203 0.500000
vt 0.076172 0.500000
vt 0.076172 0.500000
vt 0.033203 0.500000
vt 0.072266 0.500000
vt 0.076172 0.500000
vt 0.072266 0.500000
vt 0.072266 0.500000
vt 0.033203 0.500000
vt 0.072266 0.500000
vt 0.033203 0.500000
vt 0.076172 0.500000
vt 0.076172 0.500000
vt 0.033203 0.500000
vt 0.072266 0.500000
vt 0.076172 0.500000
vt 0.076172 0.500000
vt 0.076172 0.500000
vt 0.072266 0.500000
vt 0.033203 0.500000
vt 0.076172 0.500000
vt 0.033203 0.500000
vt 0.072266 0.500000
vt 0.072266 0.500000
vt 0.033203 0.500000
vt 0.072266 0.500000
vt 0.076172 0.500000
vt 0.076172 0.500000
vt 0.076172 0.500000
vt 0.072266 0.500000
vt 0.072266 0.500000
vt 0.072266 0.500000
vt 0.076172 0.500000
vt 0.076172 0.500000
vt 0.076172 0.500000
vt 0.072266 0.500000
vt 0.072266 0.500000
vt 0.072266 0.500000
vt 0.076172 0.500000
vt 0.076172 0.500000
vt 0.072266 0.500000
vt 0.072266 0.500000
vt 0.072266 0.500000
vt 0.076172 0.500000
vt 0.076172 0.500000
vt 0.076172 0.500000
vt 0.072266 0.500000
vt 0.072266 0.500000
vt 0.072266 0.500000
vt 0.076172 0.500000
vt 0.076172 0.500000
vt 0.076172 0.500000
vt 0.076172 0.500000
vt 0.072266 0.500000
vt 0.072266 0.500000
vt 0.076172 0.500000
vt 0.072266 0.500000
vt 0.072266 0.500000
vt 0.033203 0.500000
vt 0.033203 0.500000
vt 0.033203 0.500000
vt 0.033203 0.500000
vt 0.033203 0.500000
vt 0.033203 0.500000
vt 0.033203 0.500000
vt 0.033203 0.500000
vt 0.033203 0.500000
vt 0.033203 0.500000
vt 0.033203 0.500000
vt 0.033203 0.500000
vt 0.033203 0.500000
vt 0.033203 0.500000
vt 0.033203 0.500000
vt 0.033203 0.500000
vt 0.033203 0.500000
vt 0.033203 0.500000
vt 0.033203 0.500000
vt 0.033203 0.500000
vt 0.033203 0.500000
vt 0.033203 0.500000
vt 0.033203 0.500000
vt 0.033203 0.500000
vt 0.033203 0.500000
vt 0.033203 0.500000
vt 0.033203 0.500000
vt 0.033203 0.500000
vt 0.033203 0.500000
vt 0.033203 0.500000
vt 0.033203 0.500000
vt 0.033203 0.500000
vt 0.033203 0.500000
vt 0.033203 0.500000
vt 0.033203 0.500000
vt 0.033203 0.500000
vt 0.033203 0.500000
vt 0.033203 0.500000
vt 0.033203 0.500000
vt 0.033203 0.500000
vt 0.033203 0.500000
vt 0.033203 0.500000
vt 0.033203 0.500000
vt 0.033203 0.500000
vt 0.033203 0.500000
vt 0.033203 0.500000
vt 0.033203 0.500000
vt 0.033203 0.500000
vt 0.033203 0.500000
vt 0.033203 0.500000
vt 0.033203 0.500000
vt 0.033203 0.500000
vt 0.033203 0.500000
vt 0.033203 0.500000
vt 0.033203 0.500000
vt 0.033203 0.500000
vt 0.033203 0.500000
vt 0.033203 0.500000
vt 0.033203 0.500000
vt 0.033203 0.500000
vt 0.033203 0.500000
vt 0.033203 0.500000
vt 0.033203 0.500000
vt 0.033203 0.500000
vt 0.033203 0.500000
vt 0.033203 0.500000
vt 0.033203 0.500000
vt 0.033203 0.500000
vt 0.033203 0.500000
vt 0.033203 0.500000
vt 0.033203 0.500000
vt 0.033203 0.500000
vt 0.033203 0.500000
vt 0.033203 0.500000
vt 0.033203 0.500000
vt 0.033203 0.500000
vt 0.033203 0.500000
vt 0.033203 0.500000
vt 0.033203 0.500000
vt 0.033203 0.500000
vt 0.033203 0.500000
vt 0.033203 0.500000
vt 0.033203 0.500000
vt 0.033203 0.500000
vt 0.033203 0.500000
vt 0.033203 0.500000
vt 0.033203 0.500000
vt 0.033203 0.500000
vt 0.033203 0.500000
vt 0.033203 0.500000
vt 0.033203 0.500000
vt 0.033203 0.500000
vt 0.033203 0.500000
vt 0.033203 0.500000
vt 0.033203 0.500000
vt 0.033203 0.500000
vt 0.033203 0.500000
vt 0.033203 0.500000
vt 0.033203 0.500000
vt 0.033203 0.500000
vt 0.033203 0.500000
vt 0.033203 0.500000
vt 0.033203 0.500000
vt 0.033203 0.500000
vt 0.033203 0.500000
vt 0.033203 0.500000
vt 0.033203 0.500000
vt 0.033203 0.500000
vt 0.033203 0.500000
vt 0.033203 0.500000
vt 0.033203 0.500000
vt 0.033203 0.500000
vt 0.033203 0.500000
vt 0.033203 0.500000
vt 0.033203 0.500000
vt 0.033203 0.500000
vt 0.033203 0.500000
vt 0.033203 0.500000
vt 0.033203 0.500000
vt 0.033203 0.500000
vt 0.033203 0.500000
vt 0.033203 0.500000
vn -1.0000 0.0000 0.0000
vn 1.0000 0.0000 0.0000
vn 0.0000 -0.0000 1.0000
vn 0.0000 0.0000 -1.0000
vn 0.0000 -1.0000 -0.0000
vn 0.0000 1.0000 0.0000
usemtl palette.021
s 1
f 1/1/1 2/2/1 3/3/1
f 4/4/1 2/2/1 1/1/1
f 5/5/1 4/6/1 1/7/1
f 6/8/1 4/6/1 5/5/1
f 7/9/1 6/10/1 5/11/1
f 8/12/1 6/10/1 7/9/1
f 9/13/1 8/14/1 7/15/1
f 10/16/1 8/14/1 9/13/1
f 11/17/1 12/18/1 13/19/1
f 14/20/1 11/17/1 13/19/1
f 14/20/1 15/21/1 11/17/1
f 16/22/1 15/21/1 14/20/1
f 17/23/1 18/24/1 19/25/1
f 20/26/1 17/23/1 21/27/1
f 22/28/1 18/24/1 17/23/1
f 22/28/1 17/23/1 20/26/1
f 23/29/1 24/30/1 25/31/1
f 23/29/1 26/32/1 24/30/1
f 27/33/1 26/32/1 23/29/1
f 28/34/1 29/35/1 30/36/1
f 31/37/1 32/38/1 28/34/1
f 31/37/1 28/34/1 30/36/1
f 33/39/1 32/38/1 31/37/1
f 34/40/1 35/41/1 36/42/1
f 37/43/1 35/41/1 34/40/1
f 38/44/1 35/41/1 37/43/1
f 39/45/1 35/41/1 38/44/1
f 40/46/1 38/44/1 37/43/1
f 41/47/1 38/44/1 40/46/1
f 42/48/1 43/49/1 44/50/1
f 45/51/1 43/49/1 42/48/1
f 46/52/1 47/53/1 48/54/1
f 49/55/1 47/53/1 46/52/1
f 50/56/1 51/57/1 52/58/1
f 53/59/1 51/57/1 50/56/1
f 54/60/1 55/61/1 56/62/1
f 57/63/1 55/61/1 54/60/1
f 58/64/1 59/65/1 60/66/1
f 61/67/1 59/65/1 58/64/1
f 62/68/1 63/69/1 64/70/1
f 65/71/1 63/69/1 62/68/1
f 66/72/1 67/73/1 68/74/1
f 69/75/1 67/73/1 66/72/1
f 70/76/1 71/77/1 72/78/1
f 73/79/1 71/77/1 70/76/1
f 74/80/1 75/81/1 76/82/1
f 77/83/1 75/81/1 74/80/1
f 78/84/1 79/85/1 80/86/1
f 81/87/1 78/84/1 80/86/1
f 81/87/1 82/88/1 78/84/1
f 83/89/1 82/88/1 81/87/1
f 84/90/1 85/91/1 86/92/1
f 87/93/1 84/90/1 88/94/1
f 89/95/1 85/91/1 84/90/1
f 89/95/1 84/90/1 87/93/1
f 90/96/1 91/97/1 92/98/1
f 93/99/1 94/100/1 95/101/1
f 96/102/1 94/100/1 93/99/1
f 97/103/1 98/104/1 90/96/1
f 97/103/1 90/96/1 92/98/1
f 99/105/1 98/104/1 97/103/1
f 100/106/1 94/100/1 96/102/1
f 101/107/1 94/100/1 100/106/1
f 102/108/1 103/109/1 104/110/1
f 105/111/1 103/109/1 102/108/1
f 106/112/1 103/109/1 105/111/1
f 107/113/1 108/114/1 109/115/1
f 110/116/1 108/114/1 107/113/1
f 111/117/1 108/114/1 110/116/1
f 112/118/1 108/114/1 111/117/1
f 113/119/1 106/112/1 105/111/1
f 114/120/1 106/112/1 113/119/1
f 115/121/1 111/117/1 110/116/1
f 116/122/1 111/117/1 115/121/1
f 117/123/1 118/124/1 119/125/1
f 120/126/1 118/124/1 117/123/1
f 121/127/1 122/128/1 123/129/1
f 124/130/1 122/128/1 121/127/1
f 125/131/1 126/132/1 127/133/1
f 128/134/1 126/132/1 125/131/1
f 129/135/1 130/136/1 131/137/1
f 132/138/1 130/136/1 129/135/1
f 133/139/1 134/140/1 135/141/1
f 136/142/1 134/140/1 133/139/1
f 137/143/1 138/144/1 139/145/1
f 140/146/1 138/144/1 137/143/1
f 141/147/1 142/148/1 143/149/1
f 144/150/1 142/148/1 141/147/1
f 145/151/1 146/152/1 147/153/1
f 148/154/1 145/151/1 149/155/1
f 150/156/1 146/152/1 145/151/1
f 150/156/1 145/151/1 148/154/1
f 151/157/1 152/158/1 153/159/1
f 154/160/1 152/158/1 151/157/1
f 155/161/1 156/162/1 157/163/1
f 158/164/1 156/162/1 155/161/1
f 159/165/1 160/166/1 161/167/1
f 162/168/1 160/166/1 159/165/1
f 163/169/1 164/170/1 165/171/1
f 166/172/1 164/170/1 163/169/1
f 167/173/1 168/174/1 169/175/1
f 170/176/1 168/174/1 167/173/1
f 171/177/1 172/178/1 173/179/1
f 174/180/1 172/178/1 171/177/1
f 175/181/2 176/182/2 177/183/2
f 177/183/2 176/182/2 178/184/2
f 179/185/2 180/186/2 181/187/2
f 181/187/2 180/186/2 182/188/2
f 183/189/2 184/190/2 185/191/2
f 185/191/2 184/190/2 186/192/2
f 186/192/2 184/190/2 187/193/2
f 188/194/2 189/195/2 190/196/2
f 190/196/2 189/195/2 191/197/2
f 192/198/2 193/199/2 194/200/2
f 194/200/2 193/199/2 195/201/2
f 196/202/2 197/203/2 198/204/2
f 199/205/2 198/204/2 200/206/2
f 198/204/2 197/203/2 201/207/2
f 200/206/2 198/204/2 201/207/2
f 202/208/2 203/209/2 204/210/2
f 204/210/2 203/209/2 205/211/2
f 206/212/2 207/213/2 208/214/2
f 208/214/2 207/213/2 209/215/2
f 210/216/2 211/217/2 212/218/2
f 212/218/2 211/217/2 213/219/2
f 214/220/2 215/221/2 216/222/2
f 216/222/2 215/221/2 217/223/2
f 218/224/2 219/225/2 220/226/2
f 220/226/2 219/225/2 221/227/2
f 222/228/2 223/229/2 224/230/2
f 225/231/2 224/230/2 226/232/2
f 224/230/2 223/229/2 227/233/2
f 226/232/2 224/230/2 227/233/2
f 227/233/2 223/229/2 228/234/2
f 229/235/2 226/232/2 230/236/2
f 226/232/2 227/233/2 230/236/2
f 230/236/2 227/233/2 231/237/2
f 231/237/2 227/233/2 232/238/2
f 233/239/2 230/236/2 234/240/2
f 230/236/2 231/237/2 234/240/2
f 234/240/2 231/237/2 235/241/2
f 236/242/2 237/243/2 238/244/2
f 236/242/2 238/244/2 239/245/2
f 238/244/2 240/246/2 239/245/2
f 239/245/2 240/246/2 241/247/2
f 242/248/2 243/249/2 244/250/2
f 244/250/2 243/249/2 245/251/2
f 246/252/2 247/253/2 248/254/2
f 248/254/2 247/253/2 249/255/2
f 250/256/2 251/257/2 252/258/2
f 252/258/2 251/257/2 253/259/2
f 254/260/2 255/261/2 256/262/2
f 256/262/2 255/261/2 257/263/2
f 258/264/2 259/265/2 260/266/2
f 260/266/2 259/265/2 261/267/2
f 262/268/2 263/269/2 264/270/2
f 265/271/2 266/272/2 267/273/2
f 267/273/2 266/272/2 268/274/2
f 264/270/2 269/275/2 270/276/2
f 262/268/2 264/270/2 270/276/2
f 270/276/2 269/275/2 271/277/2
f 272/278/2 273/279/2 274/280/2
f 274/280/2 273/279/2 275/281/2
f 276/282/2 277/283/2 278/284/2
f 278/284/2 277/283/2 279/285/2
f 280/286/2 281/287/2 282/288/2
f 282/288/2 281/287/2 283/289/2
f 284/290/2 285/291/2 286/292/2
f 286/292/2 285/291/2 287/293/2
f 288/294/2 289/295/2 290/296/2
f 290/296/2 289/295/2 291/297/2
f 291/297/2 289/295/2 292/298/2
f 293/299/2 294/300/2 295/301/2
f 295/301/2 294/300/2 296/302/2
f 296/302/2 294/300/2 297/303/2
f 290/296/2 291/297/2 298/304/2
f 298/304/2 291/297/2 299/305/2
f 295/301/2 296/302/2 300/306/2
f 300/306/2 296/302/2 301/307/2
f 302/308/2 303/309/2 304/310/2
f 305/311/2 306/312/2 307/313/2
f 307/313/2 306/312/2 308/314/2
f 309/315/2 310/316/2 311/317/2
f 304/310/2 312/318/2 313/319/2
f 302/308/2 304/310/2 313/319/2
f 313/319/2 312/318/2 314/320/2
f 315/321/2 311/317/2 316/322/2
f 311/317/2 310/316/2 317/323/2
f 316/322/2 311/317/2 317/323/2
f 318/324/2 319/325/2 320/326/2
f 318/324/2 320/326/2 321/327/2
f 320/326/2 322/328/2 321/327/2
f 321/327/2 322/328/2 323/329/2
f 324/330/2 325/331/2 326/332/2
f 324/330/2 326/332/2 327/333/2
f 326/332/2 328/334/2 327/333/2
f 327/333/2 328/334/2 329/335/2
f 330/336/2 327/333/2 331/337/2
f 332/338/2 331/337/2 333/339/2
f 331/337/2 327/333/2 334/340/2
f 333/339/2 331/337/2 334/340/2
f 335/341/2 336/342/2 337/343/2
f 337/343/2 336/342/2 338/344/2
f 337/345/2 338/346/2 339/347/2
f 339/347/2 338/346/2 340/348/2
f 339/349/2 340/350/2 341/351/2
f 341/351/2 340/350/2 342/352/2
f 341/353/2 342/354/2 343/355/2
f 343/355/2 342/354/2 344/356/2
f 345/357/3 346/358/3 347/359/3
f 348/360/3 349/361/3 346/362/3
f 348/363/3 346/358/3 345/357/3
f 350/364/3 351/365/3 349/366/3
f 350/367/3 349/361/3 348/360/3
f 352/368/3 353/369/3 351/370/3
f 352/371/3 351/365/3 350/364/3
f 354/372/3 353/369/3 352/368/3
f 355/373/3 356/374/3 357/375/3
f 358/376/3 356/374/3 355/373/3
f 359/377/3 356/374/3 358/376/3
f 360/378/3 356/374/3 359/377/3
f 361/379/3 362/380/3 363/381/3
f 364/382/3 361/379/3 365/383/3
f 366/384/3 362/380/3 361/379/3
f 366/384/3 361/379/3 364/382/3
f 367/385/3 368/386/3 369/387/3
f 370/388/3 368/386/3 367/385/3
f 371/389/3 368/386/3 370/388/3
f 372/390/3 373/391/3 374/392/3
f 375/393/3 373/391/3 372/390/3
f 376/394/3 373/391/3 375/393/3
f 377/395/3 373/391/3 376/394/3
f 378/396/3 379/397/3 380/398/3
f 381/399/3 379/397/3 378/396/3
f 382/400/3 379/397/3 381/399/3
f 383/401/3 379/397/3 382/400/3
f 384/402/3 385/403/3 386/404/3
f 387/405/3 384/402/3 388/406/3
f 389/407/3 385/403/3 384/402/3
f 389/407/3 384/402/3 387/405/3
f 390/408/3 391/409/3 392/410/3
f 393/411/3 390/408/3 392/410/3
f 393/411/3 394/412/3 395/413/3
f 393/411/3 395/413/3 390/408/3
f 396/414/3 394/412/3 393/411/3
f 397/415/3 393/411/3 392/410/3
f 398/416/3 393/411/3 397/415/3
f 399/417/3 400/418/3 401/419/3
f 402/420/3 399/417/3 401/419/3
f 402/420/3 403/421/3 399/417/3
f 404/422/3 403/421/3 402/420/3
f 405/423/3 403/421/3 404/422/3
f 406/424/3 407/425/3 408/426/3
f 409/427/3 407/425/3 406/424/3
f 410/428/3 411/429/3 412/430/3
f 413/431/3 411/429/3 410/428/3
f 414/432/3 415/433/3 416/434/3
f 417/435/3 415/433/3 414/432/3
f 418/436/3 419/437/3 420/438/3
f 421/439/3 419/437/3 418/436/3
f 422/440/3 423/441/3 424/442/3
f 425/443/3 423/441/3 422/440/3
f 426/444/3 423/441/3 425/443/3
f 427/445/3 423/441/3 426/444/3
f 428/446/3 429/447/3 430/448/3
f 431/449/3 428/446/3 432/450/3
f 433/451/3 429/447/3 428/446/3
f 433/451/3 428/446/3 431/449/3
f 434/452/3 435/453/3 436/454/3
f 437/455/3 435/453/3 434/452/3
f 438/456/3 439/457/3 440/458/3
f 441/459/3 439/457/3 438/456/3
f 442/460/3 443/461/3 444/462/3
f 445/463/3 443/461/3 442/460/3
f 446/464/3 447/465/3 448/466/3
f 449/467/3 447/465/3 446/464/3
f 450/468/3 451/469/3 452/470/3
f 453/471/3 451/469/3 450/468/3
f 454/472/3 455/473/3 456/474/3
f 457/475/3 455/473/3 454/472/3
f 458/476/3 455/473/3 457/475/3
f 459/477/3 455/473/3 458/476/3
f 460/478/3 461/479/3 462/480/3
f 463/481/3 461/479/3 460/478/3
f 464/482/3 460/478/3 465/483/3
f 464/482/3 463/481/3 460/478/3
f 466/484/3 463/481/3 464/482/3
f 467/485/3 468/486/3 469/487/3
f 470/488/3 467/485/3 469/487/3
f 470/488/3 471/489/3 467/485/3
f 472/490/3 471/489/3 470/488/3
f 473/491/3 474/492/3 475/493/3
f 476/494/3 474/492/3 473/491/3
f 477/495/3 478/496/3 479/497/3
f 480/498/3 478/496/3 477/495/3
f 481/499/3 482/500/3 483/501/3
f 484/502/3 481/499/3 483/501/3
f 484/502/3 485/503/3 481/499/3
f 486/504/3 485/503/3 484/502/3
f 487/505/3 485/503/3 486/504/3
f 488/506/3 489/507/3 490/508/3
f 491/509/3 489/507/3 488/506/3
f 492/510/3 493/511/3 494/512/3
f 495/513/3 493/511/3 492/510/3
f 496/514/3 497/515/3 498/516/3
f 499/517/3 497/515/3 496/514/3
f 500/518/3 501/519/3 502/520/3
f 503/521/3 501/519/3 500/518/3
f 504/522/3 505/523/3 506/524/3
f 507/525/3 505/523/3 504/522/3
f 508/526/3 509/527/3 510/528/3
f 511/529/3 509/527/3 508/526/3
f 512/530/3 513/531/3 514/532/3
f 515/533/3 513/531/3 512/530/3
f 516/534/4 517/535/4 518/536/4
f 518/536/4 517/535/4 519/537/4
f 520/538/4 521/539/4 522/540/4
f 522/540/4 521/539/4 523/541/4
f 524/542/4 525/543/4 526/544/4
f 524/542/4 526/544/4 527/545/4
f 527/545/4 526/544/4 528/546/4
f 529/547/4 530/548/4 531/549/4
f 531/549/4 530/548/4 532/550/4
f 533/551/4 534/552/4 535/553/4
f 535/553/4 534/552/4 536/554/4
f 537/555/4 538/556/4 539/557/4
f 539/557/4 538/556/4 540/558/4
f 541/559/4 542/560/4 543/561/4
f 543/561/4 542/560/4 544/562/4
f 545/563/4 546/564/4 547/565/4
f 547/565/4 546/564/4 548/566/4
f 549/567/4 550/568/4 551/569/4
f 551/569/4 550/568/4 552/570/4
f 553/571/4 554/572/4 555/573/4
f 555/573/4 554/572/4 556/574/4
f 557/575/4 558/576/4 559/577/4
f 559/577/4 558/576/4 560/578/4
f 561/579/4 562/580/4 563/581/4
f 563/581/4 562/580/4 564/582/4
f 565/583/4 566/584/4 567/585/4
f 567/585/4 566/584/4 568/586/4
f 569/587/4 570/588/4 571/589/4
f 571/589/4 570/588/4 572/590/4
f 573/591/4 574/592/4 575/593/4
f 573/591/4 575/593/4 576/594/4
f 575/593/4 577/595/4 576/594/4
f 576/594/4 577/595/4 578/596/4
f 578/596/4 577/595/4 579/597/4
f 579/597/4 577/595/4 580/598/4
f 581/599/4 582/600/4 583/601/4
f 581/599/4 583/601/4 584/602/4
f 583/601/4 585/603/4 584/602/4
f 584/602/4 585/603/4 586/604/4
f 581/599/4 584/602/4 587/605/4
f 587/605/4 584/602/4 588/606/4
f 589/607/4 590/608/4 591/609/4
f 592/610/4 591/609/4 593/611/4
f 591/609/4 590/608/4 594/612/4
f 593/611/4 591/609/4 594/612/4
f 595/613/4 596/614/4 597/615/4
f 598/616/4 597/615/4 599/617/4
f 597/615/4 596/614/4 600/618/4
f 599/617/4 597/615/4 600/618/4
f 601/619/4 602/620/4 603/621/4
f 603/621/4 602/620/4 604/622/4
f 604/622/4 602/620/4 605/623/4
f 605/623/4 602/620/4 606/624/4
f 607/625/4 608/626/4 609/627/4
f 609/627/4 608/626/4 610/628/4
f 610/628/4 608/626/4 611/629/4
f 611/629/4 608/626/4 612/630/4
f 613/631/4 614/632/4 615/633/4
f 616/634/4 615/633/4 617/635/4
f 615/633/4 614/632/4 618/636/4
f 617/635/4 615/633/4 618/636/4
f 619/637/4 620/638/4 621/639/4
f 621/639/4 620/638/4 622/640/4
f 623/641/4 624/642/4 625/643/4
f 625/643/4 624/642/4 626/644/4
f 627/645/4 628/646/4 629/647/4
f 629/647/4 628/646/4 630/648/4
f 631/649/4 632/650/4 633/651/4
f 633/651/4 632/650/4 634/652/4
f 635/653/4 636/654/4 637/655/4
f 637/655/4 636/654/4 638/656/4
f 638/656/4 636/654/4 639/657/4
f 639/657/4 636/654/4 640/658/4
f 641/659/4 642/660/4 643/661/4
f 643/661/4 642/660/4 644/662/4
f 645/663/4 646/664/4 647/665/4
f 647/665/4 646/664/4 648/666/4
f 649/667/4 650/668/4 651/669/4
f 651/669/4 650/668/4 652/670/4
f 653/671/4 654/672/4 655/673/4
f 655/673/4 654/672/4 656/674/4
f 657/675/4 658/676/4 659/677/4
f 659/677/4 658/676/4 660/678/4
f 661/679/4 662/680/4 663/681/4
f 662/680/4 664/682/4 663/681/4
f 663/681/4 664/682/4 665/683/4
f 661/679/4 663/681/4 666/684/4
f 666/684/4 663/681/4 667/685/4
f 668/686/4 669/687/4 670/688/4
f 670/688/4 669/687/4 671/689/4
f 671/689/4 669/687/4 672/690/4
f 672/690/4 669/687/4 673/691/4
f 674/692/4 675/693/4 676/694/4
f 677/695/4 676/694/4 678/696/4
f 676/694/4 675/693/4 679/697/4
f 678/696/4 676/694/4 679/697/4
f 680/698/4 681/699/4 682/700/4
f 681/701/4 683/702/4 684/703/4
f 682/700/4 681/699/4 684/704/4
f 683/705/4 685/706/4 686/707/4
f 684/703/4 683/702/4 686/708/4
f 685/709/4 687/710/4 688/711/4
f 686/707/4 685/706/4 688/712/4
f 688/711/4 687/710/4 689/713/4
f 690/714/5 691/715/5 692/716/5
f 693/717/5 691/715/5 690/714/5
f 694/718/5 695/719/5 696/720/5
f 697/721/5 695/719/5 694/718/5
f 698/722/5 699/723/5 700/724/5
f 701/725/5 699/723/5 698/722/5
f 702/726/5 703/727/5 704/728/5
f 705/729/5 703/727/5 702/726/5
f 706/730/5 707/731/5 708/732/5
f 709/733/5 707/731/5 706/730/5
f 710/734/5 711/735/5 712/736/5
f 713/737/5 714/738/5 715/739/5
f 716/740/5 714/738/5 713/737/5
f 717/741/5 710/734/5 718/742/5
f 719/743/5 711/735/5 710/734/5
f 719/743/5 710/734/5 717/741/5
f 720/744/5 721/745/5 722/746/5
f 723/747/5 721/745/5 720/744/5
f 724/748/5 725/749/5 719/743/5
f 726/750/5 725/749/5 724/748/5
f 727/751/5 725/749/5 726/750/5
f 728/752/5 724/748/5 719/743/5
f 729/753/5 730/754/5 727/751/5
f 729/753/5 727/751/5 726/750/5
f 731/755/5 728/752/5 719/743/5
f 731/755/5 729/753/5 728/752/5
f 732/756/5 730/754/5 729/753/5
f 732/756/5 729/753/5 731/755/5
f 733/757/5 730/754/5 732/756/5
f 734/758/5 730/754/5 733/757/5
f 735/759/5 733/757/5 732/756/5
f 736/760/5 733/757/5 735/759/5
f 737/761/5 738/762/5 739/763/5
f 740/764/5 738/762/5 737/761/5
f 741/765/5 742/766/5 743/767/5
f 744/768/5 742/766/5 741/765/5
f 745/769/5 744/768/5 741/765/5
f 745/769/5 746/770/5 744/768/5
f 745/769/5 741/765/5 747/771/5
f 748/772/5 746/770/5 745/769/5
f 749/773/5 746/770/5 748/772/5
f 750/774/5 745/769/5 751/775/5
f 750/774/5 748/772/5 745/769/5
f 752/776/5 748/772/5 750/774/5
f 753/777/5 748/772/5 752/776/5
f 754/778/5 748/772/5 753/777/5
f 755/779/5 750/774/5 751/775/5
f 756/780/5 750/774/5 755/779/5
f 757/781/5 753/777/5 752/776/5
f 758/782/5 756/780/5 755/779/5
f 758/782/5 757/781/5 756/780/5
f 758/782/5 755/779/5 759/783/5
f 760/784/5 757/781/5 758/782/5
f 761/785/5 757/781/5 760/784/5
f 762/786/5 753/777/5 757/781/5
f 762/786/5 757/781/5 761/785/5
f 763/787/5 761/785/5 760/784/5
f 764/788/5 761/785/5 763/787/5
f 765/789/5 766/790/5 762/786/5
f 767/791/5 766/790/5 765/789/5
f 768/792/5 769/793/5 770/794/5
f 771/795/5 769/793/5 768/792/5
f 772/796/5 773/797/5 774/798/5
f 775/799/5 773/797/5 772/796/5
f 776/800/5 768/792/5 777/801/5
f 776/800/5 771/795/5 768/792/5
f 776/800/5 778/802/5 771/795/5
f 779/803/5 778/802/5 776/800/5
f 780/804/5 778/802/5 779/803/5
f 781/805/5 778/802/5 780/804/5
f 782/806/5 783/807/5 784/808/5
f 785/809/5 783/807/5 782/806/5
f 786/810/5 787/811/5 788/812/5
f 789/813/5 787/811/5 786/810/5
f 790/814/5 772/796/5 791/815/5
f 792/816/5 772/796/5 790/814/5
f 793/817/5 780/804/5 779/803/5
f 794/818/5 780/804/5 793/817/5
f 795/819/5 796/820/5 789/813/5
f 795/819/5 789/813/5 786/810/5
f 795/819/5 786/810/5 785/809/5
f 797/821/5 796/820/5 795/819/5
f 798/822/5 796/820/5 797/821/5
f 799/823/5 796/820/5 798/822/5
f 800/824/5 795/819/5 785/809/5
f 801/825/5 798/822/5 797/821/5
f 802/826/5 803/827/5 804/828/5
f 805/829/5 803/827/5 802/826/5
f 806/830/5 800/824/5 785/809/5
f 806/830/5 801/825/5 800/824/5
f 807/831/5 798/822/5 801/825/5
f 807/831/5 801/825/5 806/830/5
f 808/832/5 809/833/5 805/829/5
f 808/832/5 805/829/5 802/826/5
f 808/832/5 802/826/5 810/834/5
f 811/835/5 809/833/5 808/832/5
f 812/836/5 809/833/5 811/835/5
f 813/837/5 809/833/5 812/836/5
f 814/838/5 812/836/5 811/835/5
f 815/839/5 812/836/5 814/838/5
f 816/840/5 817/841/5 818/842/5
f 819/843/5 817/841/5 816/840/5
f 820/844/5 821/845/5 822/846/5
f 823/847/5 821/845/5 820/844/5
f 824/848/5 825/849/5 823/847/5
f 826/850/5 825/849/5 824/848/5
f 827/851/5 828/852/5 829/853/5
f 830/854/5 828/852/5 827/851/5
f 831/855/5 824/848/5 823/847/5
f 832/856/5 824/848/5 831/855/5
f 833/857/5 827/851/5 829/853/5
f 834/858/5 828/852/5 830/854/5
f 835/859/5 834/858/5 833/857/5
f 835/859/5 833/857/5 829/853/5
f 836/860/5 828/852/5 834/858/5
f 836/860/5 834/858/5 835/859/5
f 837/861/5 838/862/5 839/863/5
f 840/864/5 838/862/5 837/861/5
f 841/865/5 837/861/5 842/866/5
f 843/867/5 837/861/5 841/865/5
f 844/868/5 845/869/5 846/870/5
f 847/871/5 845/869/5 844/868/5
f 848/872/5 844/868/5 849/873/5
f 850/874/5 844/868/5 848/872/5
f 851/875/5 852/876/5 853/877/5
f 854/878/5 852/876/5 851/875/5
f 855/879/5 851/875/5 856/880/5
f 855/879/5 857/881/5 854/878/5
f 855/879/5 854/878/5 851/875/5
f 858/882/5 857/881/5 855/879/5
f 859/883/5 857/881/5 858/882/5
f 860/884/5 857/881/5 859/883/5
f 861/885/5 859/883/5 858/882/5
f 862/886/5 859/883/5 861/885/5
f 863/887/5 864/888/5 865/889/5
f 866/890/5 864/888/5 863/887/5
f 867/891/5 863/887/5 868/892/5
f 869/893/5 863/887/5 867/891/5
f 870/894/6 871/895/6 872/896/6
f 872/896/6 871/895/6 873/897/6
f 873/897/6 871/895/6 874/898/6
f 874/898/6 871/895/6 875/899/6
f 875/899/6 871/895/6 876/900/6
f 876/900/6 871/895/6 877/901/6
f 877/901/6 871/895/6 878/902/6
f 878/902/6 871/895/6 879/903/6
f 879/903/6 871/895/6 880/904/6
f 880/904/6 871/895/6 881/905/6
f 870/894/6 872/896/6 882/906/6
f 872/907/6 873/908/6 882/909/6
f 873/897/6 874/898/6 883/910/6
f 882/909/6 873/908/6 883/911/6
f 874/912/6 875/913/6 884/914/6
f 883/910/6 874/898/6 884/915/6
f 875/899/6 876/900/6 885/916/6
f 884/914/6 875/913/6 885/917/6
f 876/918/6 877/919/6 886/920/6
f 885/916/6 876/900/6 886/921/6
f 877/901/6 878/902/6 887/922/6
f 886/920/6 877/919/6 887/923/6
f 878/924/6 879/925/6 888/926/6
f 887/922/6 878/902/6 888/927/6
f 879/903/6 880/904/6 889/928/6
f 888/926/6 879/925/6 889/929/6
f 880/930/6 881/931/6 890/932/6
f 889/928/6 880/904/6 890/933/6
f 881/905/6 871/895/6 891/934/6
f 890/932/6 881/931/6 891/935/6
f 870/894/6 882/906/6 892/936/6
f 882/906/6 883/910/6 892/936/6
f 883/937/6 884/938/6 893/939/6
f 892/936/6 883/910/6 893/940/6
f 884/938/6 885/941/6 893/939/6
f 893/939/6 885/941/6 894/942/6
f 894/942/6 885/941/6 895/943/6
f 885/917/6 886/920/6 896/944/6
f 895/943/6 885/941/6 896/945/6
f 886/921/6 887/922/6 897/946/6
f 896/944/6 886/920/6 897/947/6
f 887/923/6 888/926/6 898/948/6
f 897/946/6 887/922/6 898/949/6
f 889/950/6 890/951/6 899/952/6
f 898/948/6 888/926/6 899/953/6
f 888/954/6 889/950/6 899/952/6
f 899/952/6 890/951/6 900/955/6
f 900/955/6 890/951/6 901/956/6
f 890/933/6 891/934/6 902/957/6
f 901/956/6 890/951/6 902/958/6
f 891/934/6 871/895/6 903/959/6
f 902/957/6 891/934/6 903/959/6
f 893/939/6 894/942/6 904/960/6
f 895/943/6 896/945/6 905/961/6
f 896/962/6 897/946/6 906/963/6
f 905/961/6 896/945/6 906/964/6
f 897/947/6 898/948/6 907/965/6
f 906/963/6 897/946/6 907/966/6
f 898/949/6 899/967/6 908/968/6
f 907/965/6 898/948/6 908/969/6
f 899/952/6 900/955/6 909/970/6
f 908/968/6 899/967/6 909/971/6
f 909/970/6 900/955/6 910/972/6
f 901/956/6 902/958/6 911/973/6
f 870/894/6 892/936/6 912/974/6
f 892/975/6 893/976/6 912/977/6
f 905/961/6 906/964/6 913/978/6
f 912/977/6 893/976/6 913/979/6
f 904/960/6 905/961/6 913/978/6
f 893/939/6 904/960/6 913/978/6
f 913/978/6 906/964/6 914/980/6
f 914/980/6 906/964/6 915/981/6
f 907/965/6 908/969/6 916/982/6
f 915/981/6 906/964/6 916/983/6
f 908/969/6 909/984/6 916/982/6
f 906/985/6 907/965/6 916/982/6
f 916/982/6 909/984/6 917/986/6
f 917/986/6 909/984/6 918/987/6
f 909/970/6 910/972/6 919/988/6
f 918/987/6 909/984/6 919/989/6
f 910/972/6 911/973/6 919/988/6
f 919/988/6 911/973/6 920/990/6
f 911/973/6 902/958/6 921/991/6
f 920/990/6 911/973/6 921/991/6
f 902/992/6 903/993/6 922/994/6
f 921/991/6 902/958/6 922/995/6
f 903/959/6 871/895/6 923/996/6
f 922/994/6 903/993/6 923/997/6
f 870/894/6 912/974/6 924/998/6
f 912/974/6 913/999/6 924/998/6
f 913/979/6 914/1000/6 925/1001/6
f 924/998/6 913/999/6 925/1002/6
f 914/1003/6 915/1004/6 926/1005/6
f 925/1001/6 914/1000/6 926/1006/6
f 915/1007/6 916/982/6 927/1008/6
f 926/1005/6 915/1004/6 927/1009/6
f 916/1010/6 917/1011/6 928/1012/6
f 927/1008/6 916/982/6 928/1013/6
f 917/986/6 918/987/6 929/1014/6
f 928/1012/6 917/1011/6 929/1015/6
f 918/1016/6 919/1017/6 930/1018/6
f 929/1014/6 918/987/6 930/1019/6
f 919/989/6 920/1020/6 931/1021/6
f 930/1018/6 919/1017/6 931/1022/6
f 920/1023/6 921/1024/6 932/1025/6
f 931/1021/6 920/1020/6 932/1026/6
f 921/1027/6 922/994/6 933/1028/6
f 932/1025/6 921/1024/6 933/1029/6
f 922/1030/6 923/996/6 934/1031/6
f 933/1028/6 922/994/6 934/1032/6
f 923/996/6 871/895/6 935/1033/6
f 934/1031/6 923/996/6 935/1033/6
f 924/1034/6 925/1001/6 936/1035/6
f 870/894/6 924/998/6 936/1036/6
f 925/1002/6 926/1005/6 937/1037/6
f 936/1035/6 925/1001/6 937/1038/6
f 927/1008/6 928/1013/6 938/1039/6
f 937/1037/6 926/1005/6 938/1040/6
f 926/1006/6 927/1008/6 938/1039/6
f 928/1013/6 929/1014/6 938/1039/6
f 938/1039/6 929/1014/6 939/1041/6
f 939/1041/6 929/1014/6 940/1042/6
f 929/1015/6 930/1018/6 941/1043/6
f 940/1042/6 929/1014/6 941/1044/6
f 931/1021/6 932/1026/6 942/1045/6
f 941/1043/6 930/1018/6 942/1046/6
f 930/1019/6 931/1021/6 942/1045/6
f 932/1026/6 933/1028/6 942/1045/6
f 942/1045/6 933/1028/6 943/1047/6
f 943/1047/6 933/1028/6 944/1048/6
f 933/1029/6 934/1031/6 945/1049/6
f 944/1048/6 933/1028/6 945/1050/6
f 934/1032/6 935/1051/6 946/1052/6
f 945/1049/6 934/1031/6 946/1053/6
f 935/1033/6 871/895/6 947/1054/6
f 946/1052/6 935/1051/6 947/1055/6
f 936/1036/6 937/1037/6 948/1056/6
f 870/894/6 936/1036/6 948/1056/6
f 937/1038/6 938/1039/6 949/1057/6
f 948/1056/6 937/1037/6 949/1058/6
f 938/1040/6 939/1059/6 950/1060/6
f 949/1057/6 938/1039/6 950/1061/6
f 939/1041/6 940/1042/6 951/1062/6
f 950/1060/6 939/1059/6 951/1063/6
f 940/1064/6 941/1043/6 952/1065/6
f 951/1062/6 940/1042/6 952/1066/6
f 941/1044/6 942/1045/6 953/1067/6
f 952/1065/6 941/1043/6 953/1068/6
f 942/1046/6 943/1069/6 954/1070/6
f 953/1067/6 942/1045/6 954/1071/6
f 943/1047/6 944/1048/6 955/1072/6
f 954/1070/6 943/1069/6 955/1073/6
f 944/1074/6 945/1049/6 956/1075/6
f 955/1072/6 944/1048/6 956/1076/6
f 945/1050/6 946/1052/6 957/1077/6
f 956/1075/6 945/1049/6 957/1078/6
f 946/1053/6 947/1054/6 958/1079/6
f 957/1077/6 946/1052/6 958/1080/6
f 947/1054/6 871/895/6 959/1081/6
f 958/1079/6 947/1054/6 959/1081/6
f 950/1082/6 951/1083/6 960/1084/6
f 949/1085/6 950/1082/6 960/1084/6
f 951/1083/6 952/1086/6 960/1084/6
f 960/1084/6 952/1086/6 961/1087/6
f 953/1067/6 954/1071/6 962/1088/6
f 961/1087/6 952/1086/6 962/1089/6
f 954/1071/6 955/1072/6 962/1088/6
f 952/1066/6 953/1067/6 962/1088/6
f 962/1088/6 955/1072/6 963/1090/6
f 963/1090/6 955/1072/6 964/1091/6
f 957/1092/6 958/1093/6 965/1094/6
f 964/1091/6 955/1072/6 965/1095/6
f 956/1096/6 957/1092/6 965/1094/6
f 955/1097/6 956/1096/6 965/1094/6
f 965/1094/6 958/1093/6 966/1098/6
f 966/1098/6 958/1093/6 967/1099/6
f 948/1100/6 949/1057/6 968/1101/6
f 870/894/6 948/1056/6 968/1102/6
f 949/1085/6 960/1084/6 969/1103/6
f 968/1101/6 949/1057/6 969/1104/6
f 969/1103/6 960/1084/6 970/1105/6
f 961/1087/6 962/1089/6 971/1106/6
f 962/1107/6 963/1108/6 972/1109/6
f 971/1106/6 962/1089/6 972/1110/6
f 963/1090/6 964/1091/6 973/1111/6
f 972/1109/6 963/1108/6 973/1112/6
f 964/1113/6 965/1114/6 974/1115/6
f 973/1111/6 964/1091/6 974/1116/6
f 965/1094/6 966/1098/6 975/1117/6
f 974/1115/6 965/1114/6 975/1118/6
f 975/1117/6 966/1098/6 976/1119/6
f 967/1099/6 958/1093/6 977/1120/6
f 958/1080/6 959/1121/6 978/1122/6
f 977/1120/6 958/1093/6 978/1123/6
f 959/1081/6 871/895/6 979/1124/6
f 978/1122/6 959/1121/6 979/1125/6
f 870/894/6 968/1102/6 980/1126/6
f 968/1102/6 969/1127/6 980/1126/6
f 971/1106/6 972/1110/6 981/1128/6
f 980/1126/6 969/1127/6 981/1129/6
f 970/1105/6 971/1106/6 981/1128/6
f 969/1103/6 970/1105/6 981/1128/6
f 981/1128/6 972/1110/6 982/1130/6
f 972/1131/6 973/1111/6 983/1132/6
f 982/1130/6 972/1110/6 983/1133/6
f 973/1112/6 974/1115/6 984/1134/6
f 983/1132/6 973/1111/6 984/1135/6
f 974/1116/6 975/1136/6 985/1137/6
f 984/1134/6 974/1115/6 985/1138/6
f 975/1117/6 976/1119/6 986/1139/6
f 985/1137/6 975/1136/6 986/1140/6
f 977/1120/6 978/1123/6 986/1139/6
f 976/1119/6 977/1120/6 986/1139/6
f 986/1139/6 978/1123/6 987/1141/6
f 978/1142/6 979/1124/6 988/1143/6
f 987/1141/6 978/1123/6 988/1144/6
f 979/1124/6 871/895/6 989/1145/6
f 988/1143/6 979/1124/6 989/1145/6
f 980/1146/6 981/1147/6 990/1148/6
f 870/894/6 980/1126/6 990/1149/6
f 981/1129/6 982/1150/6 991/1151/6
f 990/1148/6 981/1147/6 991/1152/6
f 982/1153/6 983/1132/6 992/1154/6
f 991/1151/6 982/1150/6 992/1155/6
f 983/1156/6 984/1134/6 993/1157/6
f 992/1154/6 983/1132/6 993/1158/6
f 984/1135/6 985/1137/6 994/1159/6
f 993/1157/6 984/1134/6 994/1160/6
f 985/1138/6 986/1161/6 995/1162/6
f 994/1159/6 985/1137/6 995/1163/6
f 986/1140/6 987/1164/6 996/1165/6
f 995/1162/6 986/1161/6 996/1166/6
f 987/1167/6 988/1143/6 997/1168/6
f 996/1165/6 987/1164/6 997/1169/6
f 988/1170/6 989/1171/6 998/1172/6
f 997/1168/6 988/1143/6 998/1173/6
f 989/1145/6 871/895/6 999/1174/6
f 998/1172/6 989/1171/6 999/1175/6
f 992/1155/6 993/1157/6 1000/1176/6
f 997/1168/6 998/1173/6 1000/1176/6
f 998/1173/6 999/1174/6 1000/1176/6
f 993/1157/6 994/1160/6 1000/1176/6
f 994/1160/6 995/1162/6 1000/1176/6
f 996/1166/6 997/1168/6 1000/1176/6
f 870/894/6 990/1149/6 1000/1176/6
f 990/1149/6 991/1151/6 1000/1176/6
f 995/1162/6 996/1166/6 1000/1176/6
f 991/1151/6 992/1155/6 1000/1176/6
f 999/1174/6 871/895/6 1001/1177/6
f 1000/1176/6 999/1174/6 1001/1177/6
f 1002/1178/6 1003/1179/6 1004/1180/6
f 1004/1180/6 1003/1179/6 1005/1181/6
f 1002/1178/6 1004/1180/6 1006/1182/6
f 1006/1182/6 1004/1180/6 1007/1183/6
f 1008/1184/6 1009/1185/6 1010/1186/6
f 1010/1186/6 1009/1185/6 1011/1187/6
f 1012/1188/6 1013/1189/6 1014/1190/6
f 1013/1189/6 1015/1191/6 1014/1190/6
f 1016/1192/6 1014/1190/6 1017/1193/6
f 1014/1190/6 1015/1191/6 1018/1194/6
f 1017/1193/6 1014/1190/6 1018/1194/6
f 1018/1194/6 1015/1191/6 1019/1195/6
f 1017/1193/6 1018/1194/6 1020/1196/6
f 1020/1196/6 1018/1194/6 1021/1197/6
f 1021/1197/6 1018/1194/6 1022/1198/6
f 1023/1199/6 1024/1200/6 1025/1201/6
f 1024/1200/6 1026/1202/6 1025/1201/6
f 1023/1199/6 1025/1201/6 1027/1203/6
f 1027/1203/6 1025/1201/6 1028/1204/6
f 1029/1205/6 1030/1206/6 1031/1207/6
f 1031/1207/6 1030/1206/6 1032/1208/6
f 1033/1209/6 1034/1210/6 1035/1211/6
f 1032/1208/6 1030/1206/6 1036/1212/6
f 1036/1212/6 1030/1206/6 1037/1213/6
f 1038/1214/6 1039/1215/6 1040/1216/6
f 1033/1209/6 1035/1211/6 1041/1217/6
f 1041/1217/6 1035/1211/6 1042/1218/6
f 1040/1216/6 1039/1215/6 1043/1219/6
f 1043/1219/6 1039/1215/6 1044/1220/6
f 1044/1220/6 1039/1215/6 1045/1221/6
f 1042/1218/6 1035/1211/6 1046/1222/6
f 1046/1222/6 1035/1211/6 1047/1223/6
f 1048/1224/6 1049/1225/6 1050/1226/6
f 1047/1223/6 1050/1226/6 1051/1227/6
f 1050/1226/6 1049/1225/6 1052/1228/6
f 1051/1227/6 1050/1226/6 1052/1228/6
f 1053/1229/6 1054/1230/6 1055/1231/6
f 1055/1231/6 1054/1230/6 1056/1232/6
f 1057/1233/6 1058/1234/6 1059/1235/6
f 1057/1233/6 1059/1235/6 1060/1236/6
f 1059/1235/6 1061/1237/6 1060/1236/6
f 1060/1236/6 1061/1237/6 1062/1238/6
f 1063/1239/6 1064/1240/6 1065/1241/6
f 1065/1241/6 1064/1240/6 1066/1242/6
f 1067/1243/6 1065/1241/6 1068/1244/6
f 1066/1242/6 1069/1245/6 1068/1244/6
f 1065/1241/6 1066/1242/6 1068/1244/6
f 1068/1244/6 1069/1245/6 1070/1246/6
f 1070/1246/6 1069/1245/6 1071/1247/6
f 1072/1248/6 1073/1249/6 1074/1250/6
f 1074/1250/6 1073/1249/6 1075/1251/6
f 1071/1247/6 1076/1252/6 1077/1253/6
f 1070/1246/6 1071/1247/6 1077/1253/6
f 1077/1253/6 1076/1252/6 1078/1254/6
f 1078/1254/6 1076/1252/6 1079/1255/6
f 1079/1255/6 1076/1252/6 1080/1256/6
f 1081/1257/6 1082/1258/6 1083/1259/6
f 1084/1260/6 1085/1261/6 1086/1262/6
f 1087/1263/6 1083/1259/6 1088/1264/6
f 1083/1259/6 1082/1258/6 1088/1264/6
f 1088/1264/6 1082/1258/6 1089/1265/6
f 1086/1262/6 1090/1266/6 1091/1267/6
f 1084/1260/6 1086/1262/6 1091/1267/6
f 1091/1267/6 1090/1266/6 1092/1268/6
f 1092/1268/6 1090/1266/6 1093/1269/6
f 1087/1263/6 1088/1264/6 1094/1270/6
f 1094/1270/6 1088/1264/6 1095/1271/6
f 1093/1269/6 1096/1272/6 1097/1273/6
f 1092/1268/6 1093/1269/6 1097/1273/6
f 1097/1273/6 1096/1272/6 1098/1274/6
f 1098/1274/6 1096/1272/6 1099/1275/6
f 1099/1275/6 1096/1272/6 1100/1276/6
f 1098/1274/6 1099/1275/6 1101/1277/6
f 1101/1277/6 1099/1275/6 1102/1278/6
f 1103/1279/6 1094/1270/6 1104/1280/6
f 1104/1280/6 1094/1270/6 1105/1281/6
f 1106/1282/6 1107/1283/6 1108/1284/6
f 1109/1285/6 1108/1284/6 1110/1286/6
f 1108/1284/6 1107/1283/6 1111/1287/6
f 1110/1286/6 1108/1284/6 1111/1287/6
f 1112/1288/6 1113/1289/6 1114/1290/6
f 1112/1288/6 1114/1290/6 1115/1291/6
f 1114/1290/6 1116/1292/6 1115/1291/6
f 1115/1291/6 1116/1292/6 1117/1293/6
f 1117/1293/6 1116/1292/6 1118/1294/6
f 1118/1294/6 1116/1292/6 1119/1295/6
f 1120/1296/6 1121/1297/6 1122/1298/6
f 1122/1298/6 1121/1297/6 1123/1299/6
