# Blender v2.79 (sub 0) OBJ File: ''
# www.blender.org
mtllib street_X.mtl
o street_X
v -0.800000 0.600000 0.800000
v -0.800000 0.000000 -0.800000
v -0.800000 -0.000000 0.800000
v -0.800000 0.600000 -0.800000
v -0.800000 1.000000 0.800000
v -0.800000 1.000000 -0.800000
v -0.800000 1.200000 0.800000
v -0.800000 1.200000 0.500000
v -0.800000 1.200000 -0.499999
v -0.800000 1.200000 -0.800000
v -0.800000 1.500000 0.500000
v -0.800000 1.500000 -0.499999
v -0.800000 1.600000 0.800000
v -0.800000 1.600000 0.500000
v -0.800000 1.600000 -0.499999
v -0.800000 1.600000 -0.800000
v 0.500000 1.600000 0.800000
v 0.500000 1.500000 0.500000
v 0.500000 1.500000 0.800000
v 0.500000 1.600000 0.500000
v 0.500000 1.600000 -0.499999
v 0.500000 1.500000 -0.800000
v 0.500000 1.500000 -0.499999
v 0.500000 1.600000 -0.800000
v -0.500000 1.500000 0.800000
v -0.500000 1.500000 0.500000
v -0.500000 1.600000 0.800000
v -0.500000 1.600000 0.500000
v -0.500000 1.500000 -0.499999
v -0.500000 1.500000 -0.800000
v -0.500000 1.600000 -0.499999
v -0.500000 1.600000 -0.800000
v 0.800000 -0.000000 0.800000
v 0.800000 0.000000 -0.800000
v 0.800000 0.600000 0.800000
v 0.800000 0.600000 -0.800000
v 0.800000 1.000000 0.800000
v 0.800000 1.000000 -0.800000
v 0.800000 1.200000 0.800000
v 0.800000 1.200000 0.500000
v 0.800000 1.200000 -0.499999
v 0.800000 1.200000 -0.800000
v 0.800000 1.500000 0.500000
v 0.800000 1.500000 -0.499999
v 0.800000 1.600000 0.800000
v 0.800000 1.600000 0.500000
v 0.800000 1.600000 -0.499999
v 0.800000 1.600000 -0.800000
v -0.500000 1.200000 0.800000
v -0.800000 1.200000 0.800000
v -0.800000 1.000000 0.800000
v -0.800000 1.600000 0.800000
v -0.500000 1.500000 0.800000
v -0.500000 1.600000 0.800000
v 0.500000 1.200000 0.800000
v 0.500000 1.500000 0.800000
v 0.800000 -0.000000 0.800000
v -0.800000 0.600000 0.800000
v -0.800000 -0.000000 0.800000
v 0.800000 0.600000 0.800000
v 0.800000 1.000000 0.800000
v 0.800000 1.200000 0.800000
v 0.500000 1.600000 0.800000
v 0.800000 1.600000 0.800000
v -0.500000 1.500000 -0.499999
v -0.800000 1.600000 -0.499999
v -0.800000 1.500000 -0.499999
v -0.500000 1.600000 -0.499999
v 0.800000 1.500000 -0.499999
v 0.500000 1.600000 -0.499999
v 0.500000 1.500000 -0.499999
v 0.800000 1.600000 -0.499999
v -0.800000 1.500000 0.500000
v -0.800000 1.600000 0.500000
v -0.500000 1.500000 0.500000
v -0.500000 1.600000 0.500000
v 0.500000 1.500000 0.500000
v 0.500000 1.600000 0.500000
v 0.800000 1.500000 0.500000
v 0.800000 1.600000 0.500000
v -0.800000 1.200000 -0.800000
v -0.800000 1.600000 -0.800000
v -0.500000 1.400000 -0.800000
v -0.500000 1.500000 -0.800000
v -0.500000 1.600000 -0.800000
v 0.500000 1.400000 -0.800000
v 0.500000 1.500000 -0.800000
v -0.800000 0.000000 -0.800000
v -0.800000 0.600000 -0.800000
v 0.800000 0.000000 -0.800000
v -0.800000 1.000000 -0.800000
v 0.800000 0.600000 -0.800000
v 0.800000 1.000000 -0.800000
v 0.500000 1.600000 -0.800000
v 0.800000 1.200000 -0.800000
v 0.800000 1.600000 -0.800000
v -0.800000 0.000000 -0.800000
v 0.800000 -0.000000 0.800000
v -0.800000 -0.000000 0.800000
v 0.800000 0.000000 -0.800000
v -0.500000 1.500000 0.800000
v 0.500000 1.500000 0.800000
v -0.100000 1.500000 0.700000
v 0.100000 1.500000 0.700000
v -0.500000 1.500000 0.500000
v -0.100000 1.500000 0.500000
v 0.100000 1.500000 0.500000
v 0.500000 1.500000 0.500000
v -0.100000 1.500000 0.300000
v 0.800000 1.500000 0.500000
v -0.800000 1.500000 0.500000
v 0.100000 1.500000 0.300000
v -0.700000 1.500000 0.100001
v -0.500000 1.500000 0.100001
v -0.300000 1.500000 0.100001
v -0.100000 1.500000 0.100001
v 0.100000 1.500000 0.100001
v 0.300000 1.500000 0.100001
v 0.500000 1.500000 0.100001
v 0.700000 1.500000 0.100001
v -0.700000 1.500000 -0.099999
v -0.500000 1.500000 -0.099999
v -0.300000 1.500000 -0.099999
v -0.100000 1.500000 -0.099999
v 0.100000 1.500000 -0.099999
v 0.300000 1.500000 -0.099999
v 0.500000 1.500000 -0.099999
v 0.700000 1.500000 -0.099999
v -0.100000 1.500000 -0.300000
v 0.100000 1.500000 -0.300000
v -0.800000 1.500000 -0.499999
v -0.500000 1.500000 -0.499999
v -0.100000 1.500000 -0.499999
v 0.100000 1.500000 -0.499999
v 0.500000 1.500000 -0.499999
v 0.800000 1.500000 -0.499999
v -0.100000 1.500000 -0.700000
v 0.100000 1.500000 -0.700000
v -0.500000 1.500000 -0.800000
v 0.500000 1.500000 -0.800000
v -0.800000 1.600000 0.800000
v -0.500000 1.600000 0.800000
v -0.800000 1.600000 0.500000
v -0.500000 1.600000 0.500000
v 0.500000 1.600000 0.800000
v 0.800000 1.600000 0.800000
v 0.500000 1.600000 0.500000
v 0.800000 1.600000 0.500000
v -0.800000 1.600000 -0.499999
v -0.500000 1.600000 -0.499999
v -0.800000 1.600000 -0.800000
v -0.500000 1.600000 -0.800000
v 0.500000 1.600000 -0.499999
v 0.800000 1.600000 -0.499999
v 0.500000 1.600000 -0.800000
v 0.800000 1.600000 -0.800000
vt 0.087891 0.500000
vt 0.087891 0.500000
vt 0.087891 0.500000
vt 0.087891 0.500000
vt 0.083984 0.500000
vt 0.083984 0.500000
vt 0.083984 0.500000
vt 0.083984 0.500000
vt 0.080078 0.500000
vt 0.080078 0.500000
vt 0.080078 0.500000
vt 0.080078 0.500000
vt 0.080078 0.500000
vt 0.080078 0.500000
vt 0.005859 0.500000
vt 0.005859 0.500000
vt 0.005859 0.500000
vt 0.021484 0.500000
vt 0.021484 0.500000
vt 0.021484 0.500000
vt 0.005859 0.500000
vt 0.005859 0.500000
vt 0.005859 0.500000
vt 0.021484 0.500000
vt 0.005859 0.500000
vt 0.005859 0.500000
vt 0.005859 0.500000
vt 0.005859 0.500000
vt 0.005859 0.500000
vt 0.005859 0.500000
vt 0.005859 0.500000
vt 0.005859 0.500000
vt 0.005859 0.500000
vt 0.005859 0.500000
vt 0.005859 0.500000
vt 0.005859 0.500000
vt 0.005859 0.500000
vt 0.005859 0.500000
vt 0.005859 0.500000
vt 0.005859 0.500000
vt 0.005859 0.500000
vt 0.005859 0.500000
vt 0.005859 0.500000
vt 0.005859 0.500000
vt 0.087891 0.500000
vt 0.087891 0.500000
vt 0.087891 0.500000
vt 0.087891 0.500000
vt 0.083984 0.500000
vt 0.083984 0.500000
vt 0.083984 0.500000
vt 0.083984 0.500000
vt 0.080078 0.500000
vt 0.080078 0.500000
vt 0.080078 0.500000
vt 0.080078 0.500000
vt 0.080078 0.500000
vt 0.080078 0.500000
vt 0.005859 0.500000
vt 0.005859 0.500000
vt 0.005859 0.500000
vt 0.021484 0.500000
vt 0.021484 0.500000
vt 0.021484 0.500000
vt 0.005859 0.500000
vt 0.005859 0.500000
vt 0.005859 0.500000
vt 0.021484 0.500000
vt 0.005859 0.500000
vt 0.005859 0.500000
vt 0.005859 0.500000
vt 0.005859 0.500000
vt 0.080078 0.500000
vt 0.080078 0.500000
vt 0.080078 0.500000
vt 0.005859 0.500000
vt 0.005859 0.500000
vt 0.005859 0.500000
vt 0.005859 0.500000
vt 0.005859 0.500000
vt 0.080078 0.500000
vt 0.021484 0.500000
vt 0.021484 0.500000
vt 0.021484 0.500000
vt 0.021484 0.500000
vt 0.087891 0.500000
vt 0.087891 0.500000
vt 0.087891 0.500000
vt 0.083984 0.500000
vt 0.083984 0.500000
vt 0.083984 0.500000
vt 0.087891 0.500000
vt 0.080078 0.500000
vt 0.083984 0.500000
vt 0.005859 0.500000
vt 0.005859 0.500000
vt 0.005859 0.500000
vt 0.080078 0.500000
vt 0.005859 0.500000
vt 0.005859 0.500000
vt 0.005859 0.500000
vt 0.005859 0.500000
vt 0.005859 0.500000
vt 0.005859 0.500000
vt 0.005859 0.500000
vt 0.005859 0.500000
vt 0.005859 0.500000
vt 0.005859 0.500000
vt 0.005859 0.500000
vt 0.005859 0.500000
vt 0.005859 0.500000
vt 0.005859 0.500000
vt 0.005859 0.500000
vt 0.005859 0.500000
vt 0.005859 0.500000
vt 0.005859 0.500000
vt 0.005859 0.500000
vt 0.005859 0.500000
vt 0.005859 0.500000
vt 0.005859 0.500000
vt 0.005859 0.500000
vt 0.005859 0.500000
vt 0.021484 0.500000
vt 0.021484 0.500000
vt 0.021484 0.500000
vt 0.021484 0.500000
vt 0.087891 0.500000
vt 0.087891 0.500000
vt 0.087891 0.500000
vt 0.083984 0.500000
vt 0.083984 0.500000
vt 0.083984 0.500000
vt 0.087891 0.500000
vt 0.080078 0.500000
vt 0.080078 0.500000
vt 0.080078 0.500000
vt 0.083984 0.500000
vt 0.005859 0.500000
vt 0.005859 0.500000
vt 0.005859 0.500000
vt 0.080078 0.500000
vt 0.005859 0.500000
vt 0.087891 0.500000
vt 0.087891 0.500000
vt 0.087891 0.500000
vt 0.087891 0.500000
vt 0.021484 0.500000
vt 0.021484 0.500000
vt 0.021484 0.500000
vt 0.021484 0.500000
vt 0.021484 0.500000
vt 0.001953 0.500000
vt 0.001953 0.500000
vt 0.001953 0.500000
vt 0.021484 0.500000
vt 0.021484 0.500000
vt 0.001953 0.500000
vt 0.021484 0.500000
vt 0.021484 0.500000
vt 0.021484 0.500000
vt 0.021484 0.500000
vt 0.021484 0.500000
vt 0.021484 0.500000
vt 0.021484 0.500000
vt 0.021484 0.500000
vt 0.001953 0.500000
vt 0.001953 0.500000
vt 0.001953 0.500000
vt 0.021484 0.500000
vt 0.021484 0.500000
vt 0.001953 0.500000
vt 0.021484 0.500000
vt 0.021484 0.500000
vt 0.021484 0.500000
vt 0.021484 0.500000
vt 0.001953 0.500000
vt 0.001953 0.500000
vt 0.001953 0.500000
vt 0.021484 0.500000
vt 0.001953 0.500000
vt 0.001953 0.500000
vt 0.001953 0.500000
vt 0.021484 0.500000
vt 0.001953 0.500000
vt 0.001953 0.500000
vt 0.001953 0.500000
vt 0.021484 0.500000
vt 0.001953 0.500000
vt 0.001953 0.500000
vt 0.001953 0.500000
vt 0.001953 0.500000
vt 0.021484 0.500000
vt 0.021484 0.500000
vt 0.001953 0.500000
vt 0.021484 0.500000
vt 0.001953 0.500000
vt 0.021484 0.500000
vt 0.021484 0.500000
vt 0.001953 0.500000
vt 0.021484 0.500000
vt 0.021484 0.500000
vt 0.021484 0.500000
vt 0.021484 0.500000
vt 0.021484 0.500000
vt 0.021484 0.500000
vt 0.021484 0.500000
vt 0.021484 0.500000
vt 0.001953 0.500000
vt 0.001953 0.500000
vt 0.001953 0.500000
vt 0.021484 0.500000
vt 0.001953 0.500000
vt 0.021484 0.500000
vt 0.021484 0.500000
vt 0.005859 0.500000
vt 0.005859 0.500000
vt 0.005859 0.500000
vt 0.005859 0.500000
vt 0.005859 0.500000
vt 0.005859 0.500000
vt 0.005859 0.500000
vt 0.005859 0.500000
vt 0.005859 0.500000
vt 0.005859 0.500000
vt 0.005859 0.500000
vt 0.005859 0.500000
vt 0.005859 0.500000
vt 0.005859 0.500000
vt 0.005859 0.500000
vt 0.005859 0.500000
vn -1.0000 0.0000 0.0000
vn 1.0000 0.0000 0.0000
vn 0.0000 -0.0000 1.0000
vn 0.0000 0.0000 -1.0000
vn 0.0000 -1.0000 -0.0000
vn 0.0000 1.0000 0.0000
usemtl palette.008
s 1
f 1/1/1 2/2/1 3/3/1
f 4/4/1 2/2/1 1/1/1
f 5/5/1 4/6/1 1/7/1
f 6/8/1 4/6/1 5/5/1
f 7/9/1 6/10/1 5/11/1
f 8/12/1 6/10/1 7/9/1
f 9/13/1 6/10/1 8/12/1
f 10/14/1 6/10/1 9/13/1
f 11/15/1 8/16/1 7/17/1
f 11/18/1 9/19/1 8/20/1
f 12/21/1 10/22/1 9/23/1
f 12/24/1 9/19/1 11/18/1
f 13/25/1 11/15/1 7/17/1
f 14/26/1 11/15/1 13/25/1
f 15/27/1 10/22/1 12/21/1
f 16/28/1 10/22/1 15/27/1
f 17/29/1 18/30/1 19/31/1
f 20/32/1 18/30/1 17/29/1
f 21/33/1 22/34/1 23/35/1
f 24/36/1 22/34/1 21/33/1
f 25/37/2 26/38/2 27/39/2
f 27/39/2 26/38/2 28/40/2
f 29/41/2 30/42/2 31/43/2
f 31/43/2 30/42/2 32/44/2
f 33/45/2 34/46/2 35/47/2
f 35/47/2 34/46/2 36/48/2
f 35/49/2 36/50/2 37/51/2
f 37/51/2 36/50/2 38/52/2
f 37/53/2 38/54/2 39/55/2
f 39/55/2 38/54/2 40/56/2
f 40/56/2 38/54/2 41/57/2
f 41/57/2 38/54/2 42/58/2
f 39/59/2 40/60/2 43/61/2
f 40/62/2 41/63/2 43/64/2
f 41/65/2 42/66/2 44/67/2
f 43/64/2 41/63/2 44/68/2
f 39/59/2 43/61/2 45/69/2
f 45/69/2 43/61/2 46/70/2
f 44/67/2 42/66/2 47/71/2
f 47/71/2 42/66/2 48/72/2
f 49/73/3 50/74/3 51/75/3
f 49/76/3 52/77/3 50/78/3
f 53/79/3 52/77/3 49/76/3
f 54/80/3 52/77/3 53/79/3
f 55/81/3 49/73/3 51/75/3
f 55/82/3 53/83/3 49/84/3
f 56/85/3 53/83/3 55/82/3
f 57/86/3 58/87/3 59/88/3
f 60/89/3 51/90/3 58/91/3
f 60/92/3 58/87/3 57/86/3
f 61/93/3 55/81/3 51/75/3
f 61/94/3 51/90/3 60/89/3
f 62/95/3 63/96/3 56/97/3
f 62/98/3 55/81/3 61/93/3
f 62/95/3 56/97/3 55/99/3
f 64/100/3 63/96/3 62/95/3
f 65/101/3 66/102/3 67/103/3
f 68/104/3 66/102/3 65/101/3
f 69/105/3 70/106/3 71/107/3
f 72/108/3 70/106/3 69/105/3
f 73/109/4 74/110/4 75/111/4
f 75/111/4 74/110/4 76/112/4
f 77/113/4 78/114/4 79/115/4
f 79/115/4 78/114/4 80/116/4
f 81/117/4 82/118/4 83/119/4
f 83/119/4 82/118/4 84/120/4
f 84/120/4 82/118/4 85/121/4
f 81/117/4 83/119/4 86/122/4
f 83/123/4 84/124/4 86/125/4
f 86/125/4 84/124/4 87/126/4
f 88/127/4 89/128/4 90/129/4
f 89/130/4 91/131/4 92/132/4
f 90/129/4 89/128/4 92/133/4
f 91/134/4 81/135/4 93/136/4
f 92/132/4 91/131/4 93/137/4
f 87/138/4 94/139/4 95/140/4
f 93/136/4 81/135/4 95/141/4
f 81/117/4 86/122/4 95/140/4
f 86/122/4 87/138/4 95/140/4
f 95/140/4 94/139/4 96/142/4
f 97/143/5 98/144/5 99/145/5
f 100/146/5 98/144/5 97/143/5
f 101/147/6 102/148/6 103/149/6
f 103/149/6 102/148/6 104/150/6
f 101/147/6 103/149/6 105/151/6
f 103/152/6 104/153/6 106/154/6
f 105/151/6 103/149/6 106/155/6
f 104/150/6 102/148/6 107/156/6
f 106/154/6 104/153/6 107/157/6
f 107/156/6 102/148/6 108/158/6
f 105/151/6 106/155/6 109/159/6
f 108/158/6 110/160/6 109/159/6
f 107/156/6 108/158/6 109/159/6
f 106/155/6 107/156/6 109/159/6
f 111/161/6 105/151/6 109/159/6
f 109/159/6 110/160/6 112/162/6
f 111/161/6 109/159/6 113/163/6
f 113/163/6 109/159/6 114/164/6
f 114/164/6 109/159/6 115/165/6
f 109/166/6 112/167/6 116/168/6
f 115/165/6 109/159/6 116/169/6
f 112/162/6 110/160/6 117/170/6
f 116/168/6 112/167/6 117/171/6
f 117/170/6 110/160/6 118/172/6
f 118/172/6 110/160/6 119/173/6
f 119/173/6 110/160/6 120/174/6
f 111/161/6 113/163/6 121/175/6
f 113/176/6 114/177/6 121/178/6
f 114/164/6 115/165/6 122/179/6
f 121/178/6 114/177/6 122/180/6
f 115/181/6 116/168/6 123/182/6
f 122/179/6 115/165/6 123/183/6
f 116/168/6 117/171/6 123/182/6
f 117/171/6 118/184/6 123/182/6
f 123/182/6 118/184/6 124/185/6
f 124/185/6 118/184/6 125/186/6
f 118/172/6 119/173/6 126/187/6
f 125/186/6 118/184/6 126/188/6
f 119/189/6 120/190/6 127/191/6
f 126/187/6 119/173/6 127/192/6
f 120/174/6 110/160/6 128/193/6
f 127/191/6 120/190/6 128/194/6
f 121/175/6 122/179/6 129/195/6
f 124/185/6 125/186/6 129/196/6
f 122/179/6 123/183/6 129/195/6
f 123/183/6 124/197/6 129/195/6
f 126/187/6 127/192/6 130/198/6
f 129/196/6 125/186/6 130/199/6
f 125/200/6 126/187/6 130/198/6
f 127/192/6 128/193/6 130/198/6
f 111/161/6 121/175/6 131/201/6
f 121/175/6 129/195/6 131/201/6
f 129/195/6 130/198/6 131/201/6
f 131/201/6 130/198/6 132/202/6
f 132/202/6 130/198/6 133/203/6
f 130/198/6 128/193/6 134/204/6
f 133/203/6 130/198/6 134/204/6
f 134/204/6 128/193/6 135/205/6
f 128/193/6 110/160/6 136/206/6
f 135/205/6 128/193/6 136/206/6
f 132/202/6 133/203/6 137/207/6
f 133/208/6 134/209/6 137/210/6
f 134/204/6 135/205/6 138/211/6
f 137/210/6 134/209/6 138/212/6
f 132/202/6 137/207/6 139/213/6
f 137/207/6 138/211/6 139/213/6
f 138/211/6 135/205/6 140/214/6
f 139/213/6 138/211/6 140/214/6
f 141/215/6 142/216/6 143/217/6
f 143/217/6 142/216/6 144/218/6
f 145/219/6 146/220/6 147/221/6
f 147/221/6 146/220/6 148/222/6
f 149/223/6 150/224/6 151/225/6
f 151/225/6 150/224/6 152/226/6
f 153/227/6 154/228/6 155/229/6
f 155/229/6 154/228/6 156/230/6
