# Blender v2.79 (sub 0) OBJ File: ''
# www.blender.org
mtllib street_I_00.mtl
o street_I_00
v -0.800000 0.600000 0.800000
v -0.800000 0.000000 -0.800000
v -0.800000 -0.000000 0.800000
v -0.800000 0.600000 -0.800000
v -0.800000 1.000000 0.800000
v -0.800000 1.000000 -0.800000
v -0.800000 1.200000 0.800000
v -0.800000 1.200000 -0.800000
v -0.800000 1.600000 0.800000
v -0.800000 1.600000 -0.800000
v 0.500000 1.600000 0.800000
v 0.500000 1.500000 -0.800000
v 0.500000 1.500000 0.800000
v 0.500000 1.600000 -0.800000
v -0.500000 1.500000 0.800000
v -0.500000 1.500000 -0.800000
v -0.500000 1.600000 0.800000
v -0.500000 1.600000 -0.800000
v 0.800000 -0.000000 0.800000
v 0.800000 0.000000 -0.800000
v 0.800000 0.600000 0.800000
v 0.800000 0.600000 -0.800000
v 0.800000 1.000000 0.800000
v 0.800000 1.000000 -0.800000
v 0.800000 1.200000 0.800000
v 0.800000 1.200000 -0.800000
v 0.800000 1.600000 0.800000
v 0.800000 1.600000 -0.800000
v -0.500000 1.200000 0.800000
v -0.800000 1.200000 0.800000
v -0.800000 1.000000 0.800000
v -0.800000 1.600000 0.800000
v -0.500000 1.500000 0.800000
v -0.500000 1.600000 0.800000
v 0.500000 1.200000 0.800000
v 0.500000 1.500000 0.800000
v 0.800000 -0.000000 0.800000
v -0.800000 0.600000 0.800000
v -0.800000 -0.000000 0.800000
v 0.800000 0.600000 0.800000
v 0.800000 1.000000 0.800000
v 0.800000 1.200000 0.800000
v 0.500000 1.600000 0.800000
v 0.800000 1.600000 0.800000
v -0.800000 1.200000 -0.800000
v -0.800000 1.600000 -0.800000
v -0.500000 1.400000 -0.800000
v -0.500000 1.500000 -0.800000
v -0.500000 1.600000 -0.800000
v 0.500000 1.400000 -0.800000
v 0.500000 1.500000 -0.800000
v -0.800000 0.000000 -0.800000
v -0.800000 0.600000 -0.800000
v 0.800000 0.000000 -0.800000
v -0.800000 1.000000 -0.800000
v 0.800000 0.600000 -0.800000
v 0.800000 1.000000 -0.800000
v 0.500000 1.600000 -0.800000
v 0.800000 1.200000 -0.800000
v 0.800000 1.600000 -0.800000
v -0.800000 0.000000 -0.800000
v 0.800000 -0.000000 0.800000
v -0.800000 -0.000000 0.800000
v 0.800000 0.000000 -0.800000
v -0.500000 1.500000 0.800000
v 0.500000 1.500000 0.800000
v -0.100000 1.500000 0.700000
v 0.100000 1.500000 0.700000
v -0.100000 1.500000 0.500000
v 0.100000 1.500000 0.500000
v -0.400000 1.500000 0.300000
v -0.200000 1.500000 0.300000
v -0.100000 1.500000 0.300000
v 0.100000 1.500000 0.300000
v 0.200000 1.500000 0.300000
v 0.400000 1.500000 0.300000
v -0.400000 1.500000 -0.300000
v -0.200000 1.500000 -0.300000
v -0.100000 1.500000 -0.300000
v 0.100000 1.500000 -0.300000
v 0.200000 1.500000 -0.300000
v 0.400000 1.500000 -0.300000
v -0.100000 1.500000 -0.499999
v 0.100000 1.500000 -0.499999
v -0.100000 1.500000 -0.700000
v 0.100000 1.500000 -0.700000
v -0.500000 1.500000 -0.800000
v 0.500000 1.500000 -0.800000
v -0.800000 1.600000 0.800000
v -0.500000 1.600000 0.800000
v -0.800000 1.600000 -0.800000
v -0.500000 1.600000 -0.800000
v 0.500000 1.600000 0.800000
v 0.800000 1.600000 0.800000
v 0.500000 1.600000 -0.800000
v 0.800000 1.600000 -0.800000
vt 0.087891 0.500000
vt 0.087891 0.500000
vt 0.087891 0.500000
vt 0.087891 0.500000
vt 0.083984 0.500000
vt 0.083984 0.500000
vt 0.083984 0.500000
vt 0.083984 0.500000
vt 0.080078 0.500000
vt 0.080078 0.500000
vt 0.080078 0.500000
vt 0.080078 0.500000
vt 0.005859 0.500000
vt 0.005859 0.500000
vt 0.005859 0.500000
vt 0.005859 0.500000
vt 0.005859 0.500000
vt 0.005859 0.500000
vt 0.005859 0.500000
vt 0.005859 0.500000
vt 0.005859 0.500000
vt 0.005859 0.500000
vt 0.005859 0.500000
vt 0.005859 0.500000
vt 0.087891 0.500000
vt 0.087891 0.500000
vt 0.087891 0.500000
vt 0.087891 0.500000
vt 0.083984 0.500000
vt 0.083984 0.500000
vt 0.083984 0.500000
vt 0.083984 0.500000
vt 0.080078 0.500000
vt 0.080078 0.500000
vt 0.080078 0.500000
vt 0.080078 0.500000
vt 0.005859 0.500000
vt 0.005859 0.500000
vt 0.005859 0.500000
vt 0.005859 0.500000
vt 0.080078 0.500000
vt 0.080078 0.500000
vt 0.080078 0.500000
vt 0.005859 0.500000
vt 0.005859 0.500000
vt 0.005859 0.500000
vt 0.005859 0.500000
vt 0.005859 0.500000
vt 0.080078 0.500000
vt 0.021484 0.500000
vt 0.021484 0.500000
vt 0.021484 0.500000
vt 0.021484 0.500000
vt 0.087891 0.500000
vt 0.087891 0.500000
vt 0.087891 0.500000
vt 0.083984 0.500000
vt 0.083984 0.500000
vt 0.083984 0.500000
vt 0.087891 0.500000
vt 0.080078 0.500000
vt 0.083984 0.500000
vt 0.005859 0.500000
vt 0.005859 0.500000
vt 0.005859 0.500000
vt 0.080078 0.500000
vt 0.005859 0.500000
vt 0.005859 0.500000
vt 0.005859 0.500000
vt 0.005859 0.500000
vt 0.005859 0.500000
vt 0.005859 0.500000
vt 0.005859 0.500000
vt 0.005859 0.500000
vt 0.021484 0.500000
vt 0.021484 0.500000
vt 0.021484 0.500000
vt 0.021484 0.500000
vt 0.087891 0.500000
vt 0.087891 0.500000
vt 0.087891 0.500000
vt 0.083984 0.500000
vt 0.083984 0.500000
vt 0.083984 0.500000
vt 0.087891 0.500000
vt 0.080078 0.500000
vt 0.080078 0.500000
vt 0.080078 0.500000
vt 0.083984 0.500000
vt 0.005859 0.500000
vt 0.005859 0.500000
vt 0.005859 0.500000
vt 0.080078 0.500000
vt 0.005859 0.500000
vt 0.087891 0.500000
vt 0.087891 0.500000
vt 0.087891 0.500000
vt 0.087891 0.500000
vt 0.021484 0.500000
vt 0.021484 0.500000
vt 0.021484 0.500000
vt 0.021484 0.500000
vt 0.021484 0.500000
vt 0.001953 0.500000
vt 0.001953 0.500000
vt 0.001953 0.500000
vt 0.021484 0.500000
vt 0.001953 0.500000
vt 0.021484 0.500000
vt 0.021484 0.500000
vt 0.021484 0.500000
vt 0.021484 0.500000
vt 0.021484 0.500000
vt 0.021484 0.500000
vt 0.021484 0.500000
vt 0.001953 0.500000
vt 0.001953 0.500000
vt 0.001953 0.500000
vt 0.021484 0.500000
vt 0.001953 0.500000
vt 0.001953 0.500000
vt 0.001953 0.500000
vt 0.001953 0.500000
vt 0.021484 0.500000
vt 0.021484 0.500000
vt 0.001953 0.500000
vt 0.001953 0.500000
vt 0.001953 0.500000
vt 0.001953 0.500000
vt 0.021484 0.500000
vt 0.021484 0.500000
vt 0.001953 0.500000
vt 0.021484 0.500000
vt 0.021484 0.500000
vt 0.021484 0.500000
vt 0.001953 0.500000
vt 0.001953 0.500000
vt 0.001953 0.500000
vt 0.021484 0.500000
vt 0.001953 0.500000
vt 0.021484 0.500000
vt 0.021484 0.500000
vt 0.005859 0.500000
vt 0.005859 0.500000
vt 0.005859 0.500000
vt 0.005859 0.500000
vt 0.005859 0.500000
vt 0.005859 0.500000
vt 0.005859 0.500000
vt 0.005859 0.500000
vn -1.0000 0.0000 0.0000
vn 1.0000 0.0000 0.0000
vn 0.0000 -0.0000 1.0000
vn 0.0000 0.0000 -1.0000
vn 0.0000 -1.0000 -0.0000
vn 0.0000 1.0000 0.0000
usemtl palette.004
s 1
f 1/1/1 2/2/1 3/3/1
f 4/4/1 2/2/1 1/1/1
f 5/5/1 4/6/1 1/7/1
f 6/8/1 4/6/1 5/5/1
f 7/9/1 6/10/1 5/11/1
f 8/12/1 6/10/1 7/9/1
f 9/13/1 8/14/1 7/15/1
f 10/16/1 8/14/1 9/13/1
f 11/17/1 12/18/1 13/19/1
f 14/20/1 12/18/1 11/17/1
f 15/21/2 16/22/2 17/23/2
f 17/23/2 16/22/2 18/24/2
f 19/25/2 20/26/2 21/27/2
f 21/27/2 20/26/2 22/28/2
f 21/29/2 22/30/2 23/31/2
f 23/31/2 22/30/2 24/32/2
f 23/33/2 24/34/2 25/35/2
f 25/35/2 24/34/2 26/36/2
f 25/37/2 26/38/2 27/39/2
f 27/39/2 26/38/2 28/40/2
f 29/41/3 30/42/3 31/43/3
f 29/44/3 32/45/3 30/46/3
f 33/47/3 32/45/3 29/44/3
f 34/48/3 32/45/3 33/47/3
f 35/49/3 29/41/3 31/43/3
f 35/50/3 33/51/3 29/52/3
f 36/53/3 33/51/3 35/50/3
f 37/54/3 38/55/3 39/56/3
f 40/57/3 31/58/3 38/59/3
f 40/60/3 38/55/3 37/54/3
f 41/61/3 35/49/3 31/43/3
f 41/62/3 31/58/3 40/57/3
f 42/63/3 43/64/3 36/65/3
f 42/66/3 35/49/3 41/61/3
f 42/63/3 36/65/3 35/67/3
f 44/68/3 43/64/3 42/63/3
f 45/69/4 46/70/4 47/71/4
f 47/71/4 46/70/4 48/72/4
f 48/72/4 46/70/4 49/73/4
f 45/69/4 47/71/4 50/74/4
f 47/75/4 48/76/4 50/77/4
f 50/77/4 48/76/4 51/78/4
f 52/79/4 53/80/4 54/81/4
f 53/82/4 55/83/4 56/84/4
f 54/81/4 53/80/4 56/85/4
f 55/86/4 45/87/4 57/88/4
f 56/84/4 55/83/4 57/89/4
f 51/90/4 58/91/4 59/92/4
f 57/88/4 45/87/4 59/93/4
f 45/69/4 50/74/4 59/92/4
f 50/74/4 51/90/4 59/92/4
f 59/92/4 58/91/4 60/94/4
f 61/95/5 62/96/5 63/97/5
f 64/98/5 62/96/5 61/95/5
f 65/99/6 66/100/6 67/101/6
f 67/101/6 66/100/6 68/102/6
f 65/99/6 67/101/6 69/103/6
f 67/104/6 68/105/6 69/106/6
f 68/102/6 66/100/6 70/107/6
f 69/106/6 68/105/6 70/108/6
f 65/99/6 69/103/6 71/109/6
f 69/103/6 70/107/6 71/109/6
f 71/109/6 70/107/6 72/110/6
f 72/110/6 70/107/6 73/111/6
f 70/107/6 66/100/6 74/112/6
f 73/111/6 70/107/6 74/112/6
f 74/112/6 66/100/6 75/113/6
f 75/113/6 66/100/6 76/114/6
f 65/99/6 71/109/6 77/115/6
f 71/116/6 72/117/6 77/118/6
f 72/110/6 73/111/6 78/119/6
f 77/118/6 72/117/6 78/120/6
f 73/121/6 74/122/6 79/123/6
f 78/119/6 73/111/6 79/124/6
f 74/112/6 75/113/6 80/125/6
f 79/123/6 74/122/6 80/126/6
f 75/127/6 76/128/6 81/129/6
f 80/125/6 75/113/6 81/130/6
f 76/114/6 66/100/6 82/131/6
f 81/129/6 76/128/6 82/132/6
f 80/125/6 81/130/6 83/133/6
f 79/124/6 80/125/6 83/133/6
f 81/130/6 82/131/6 83/133/6
f 78/119/6 79/124/6 83/133/6
f 77/115/6 78/119/6 83/133/6
f 83/133/6 82/131/6 84/134/6
f 77/115/6 83/133/6 85/135/6
f 83/136/6 84/137/6 85/138/6
f 84/134/6 82/131/6 86/139/6
f 85/138/6 84/137/6 86/140/6
f 65/99/6 77/115/6 87/141/6
f 77/115/6 85/135/6 87/141/6
f 85/135/6 86/139/6 87/141/6
f 86/139/6 82/131/6 88/142/6
f 87/141/6 86/139/6 88/142/6
f 82/131/6 66/100/6 88/142/6
f 89/143/6 90/144/6 91/145/6
f 91/145/6 90/144/6 92/146/6
f 93/147/6 94/148/6 95/149/6
f 95/149/6 94/148/6 96/150/6
