# 3ds Max Wavefront OBJ Exporter v0.97b - (c)2007 guruware
# File Created: 15.07.2019 23:05:58

mtllib house_1x1_00.mtl

#
# object house_1x1_00
#

v  -0.8000 0.6000 0.8000
v  -0.8000 0.0000 -0.8000
v  -0.8000 0.0000 0.8000
v  -0.8000 0.6000 -0.8000
v  -0.8000 1.0000 0.8000
v  -0.8000 1.0000 -0.8000
v  -0.8000 1.2000 0.8000
v  -0.8000 1.2000 -0.8000
v  -0.8000 1.6000 0.8000
v  -0.8000 1.6000 -0.8000
v  -0.7000 2.6000 -0.0000
v  -0.7000 2.5000 -0.4000
v  -0.7000 2.5000 -0.0000
v  -0.7000 2.6000 -0.4000
v  -0.7000 3.3000 0.7000
v  -0.7000 3.2000 -0.7000
v  -0.7000 3.2000 0.7000
v  -0.7000 3.3000 0.6000
v  -0.7000 3.3000 -0.6000
v  -0.7000 3.3000 -0.7000
v  -0.7000 3.4000 0.6000
v  -0.7000 3.4000 0.5000
v  -0.7000 3.4000 -0.5000
v  -0.7000 3.4000 -0.6000
v  -0.7000 3.5000 0.5000
v  -0.7000 3.5000 0.4000
v  -0.7000 3.5000 -0.4000
v  -0.7000 3.5000 -0.5000
v  -0.7000 3.6000 0.4000
v  -0.7000 3.6000 -0.4000
v  -0.6000 1.7000 0.5000
v  -0.6000 1.6000 0.4000
v  -0.6000 1.6000 0.6000
v  -0.6000 1.7000 0.4000
v  -0.6000 1.6000 0.3000
v  -0.6000 1.7000 0.3000
v  -0.6000 1.6000 0.2000
v  -0.6000 1.7000 0.2000
v  -0.6000 1.6000 0.1000
v  -0.6000 1.7000 0.1000
v  -0.6000 1.6000 -0.0000
v  -0.6000 1.7000 -0.0000
v  -0.6000 1.6000 -0.6000
v  -0.6000 1.8000 0.6000
v  -0.6000 1.8000 0.5000
v  -0.6000 1.8000 0.4000
v  -0.6000 1.8000 0.2000
v  -0.6000 1.9000 0.6000
v  -0.6000 1.9000 0.5000
v  -0.6000 1.9000 0.4000
v  -0.6000 1.9000 0.3000
v  -0.6000 1.9000 -0.0000
v  -0.6000 1.9000 -0.2000
v  -0.6000 2.0000 0.6000
v  -0.6000 2.0000 0.5000
v  -0.6000 2.0000 0.4000
v  -0.6000 2.0000 -0.0000
v  -0.6000 2.0000 -0.2000
v  -0.6000 2.1000 0.5000
v  -0.6000 2.1000 0.4000
v  -0.6000 2.2000 0.6000
v  -0.6000 2.2000 0.5000
v  -0.6000 2.2000 0.4000
v  -0.6000 2.2000 0.3000
v  -0.6000 2.3000 0.5000
v  -0.6000 2.3000 0.4000
v  -0.6000 2.4000 0.6000
v  -0.6000 2.5000 0.6000
v  -0.6000 2.4000 0.7000
v  -0.6000 2.5000 0.5000
v  -0.6000 2.5000 -0.0000
v  -0.6000 2.5000 -0.4000
v  -0.6000 2.6000 0.6000
v  -0.6000 2.6000 0.5000
v  -0.6000 2.6000 -0.0000
v  -0.6000 2.6000 -0.4000
v  -0.6000 2.7000 0.7000
v  -0.6000 2.7000 0.6000
v  -0.6000 2.9000 0.4000
v  -0.6000 2.9000 0.2000
v  -0.6000 3.0000 0.4000
v  -0.6000 3.0000 0.2000
v  -0.6000 3.0000 -0.1000
v  -0.6000 2.6000 -0.1000
v  -0.6000 3.0000 -0.3000
v  -0.6000 2.6000 -0.3000
v  -0.6000 3.1000 -0.0000
v  -0.6000 3.1000 -0.4000
v  -0.6000 3.2000 0.6000
v  -0.6000 3.2000 -0.6000
v  -0.6000 3.3000 0.8000
v  -0.6000 3.2000 0.7000
v  -0.6000 3.2000 0.8000
v  -0.6000 3.3000 0.7000
v  -0.6000 3.3000 -0.7000
v  -0.6000 3.2000 -0.8000
v  -0.6000 3.2000 -0.7000
v  -0.6000 3.3000 -0.8000
v  -0.6000 3.4000 0.7000
v  -0.6000 3.3000 0.6000
v  -0.6000 3.4000 0.6000
v  -0.6000 3.4000 -0.6000
v  -0.6000 3.3000 -0.6000
v  -0.6000 3.4000 -0.7000
v  -0.6000 3.5000 0.6000
v  -0.6000 3.4000 0.5000
v  -0.6000 3.5000 0.5000
v  -0.6000 3.5000 -0.5000
v  -0.6000 3.4000 -0.5000
v  -0.6000 3.5000 -0.6000
v  -0.6000 3.6000 0.5000
v  -0.6000 3.5000 0.4000
v  -0.6000 3.6000 0.4000
v  -0.6000 3.6000 -0.4000
v  -0.6000 3.5000 -0.4000
v  -0.6000 3.6000 -0.5000
v  -0.5000 1.7000 -0.6000
v  -0.5000 1.6000 -0.7000
v  -0.5000 1.6000 -0.6000
v  -0.5000 1.7000 -0.7000
v  -0.5000 2.6000 -0.6000
v  -0.5000 2.3000 -0.7000
v  -0.5000 2.3000 -0.6000
v  -0.5000 2.6000 -0.7000
v  -0.5000 2.8000 0.7000
v  -0.5000 2.7000 0.6000
v  -0.5000 2.7000 0.7000
v  -0.5000 2.8000 0.6000
v  -0.5000 3.0000 -0.1000
v  -0.5000 2.6000 -0.3000
v  -0.5000 2.6000 -0.1000
v  -0.5000 3.0000 -0.3000
v  -0.4000 2.3000 -0.6000
v  -0.4000 2.0000 -0.7000
v  -0.4000 2.0000 -0.6000
v  -0.4000 2.3000 -0.7000
v  -0.4000 2.7000 -0.6000
v  -0.4000 2.6000 -0.7000
v  -0.4000 2.6000 -0.6000
v  -0.4000 2.7000 -0.7000
v  -0.4000 3.0000 -0.0000
v  -0.4000 2.6000 -0.1000
v  -0.4000 2.6000 -0.0000
v  -0.4000 3.0000 -0.1000
v  -0.3000 2.0000 -0.6000
v  -0.3000 1.7000 -0.7000
v  -0.3000 1.7000 -0.6000
v  -0.3000 2.0000 -0.7000
v  -0.2000 2.7000 0.7000
v  -0.2000 2.6000 0.6000
v  -0.2000 2.6000 0.7000
v  -0.2000 2.7000 0.6000
v  -0.2000 2.6000 0.5000
v  -0.2000 3.0000 0.6000
v  -0.2000 3.0000 0.5000
v  0.1000 2.3000 0.6000
v  0.1000 2.2000 0.5000
v  0.1000 2.2000 0.6000
v  0.1000 2.3000 0.5000
v  0.1000 2.6000 0.7000
v  0.1000 2.5000 0.6000
v  0.1000 2.5000 0.7000
v  0.1000 2.6000 0.6000
v  0.1000 2.7000 -0.6000
v  0.1000 2.6000 -0.7000
v  0.1000 2.6000 -0.6000
v  0.1000 2.7000 -0.7000
v  0.2000 1.8000 0.5000
v  0.2000 1.6000 0.5000
v  0.2000 1.6000 0.6000
v  0.2000 1.9000 0.5000
v  0.2000 2.2000 0.6000
v  0.2000 2.2000 0.5000
v  0.2000 2.8000 -0.6000
v  0.2000 2.7000 -0.7000
v  0.2000 2.7000 -0.6000
v  0.2000 2.8000 -0.7000
v  0.3000 1.7000 0.8000
v  0.3000 1.6000 0.7000
v  0.3000 1.6000 0.8000
v  0.3000 1.7000 0.7000
v  0.3000 1.8000 0.8000
v  0.3000 1.8000 0.7000
v  0.3000 2.4000 -0.6000
v  0.3000 2.1000 -0.7000
v  0.3000 2.1000 -0.6000
v  0.3000 2.4000 -0.7000
v  0.3000 2.8000 -0.6000
v  0.3000 2.6000 -0.6000
v  0.3000 2.6000 -0.5000
v  0.3000 3.0000 -0.5000
v  0.3000 3.0000 -0.6000
v  0.4000 2.4000 0.7000
v  0.4000 2.1000 0.6000
v  0.4000 2.1000 0.7000
v  0.4000 2.4000 0.6000
v  0.4000 2.5000 -0.6000
v  0.4000 2.4000 -0.7000
v  0.4000 2.4000 -0.6000
v  0.4000 2.5000 -0.7000
v  0.4000 2.8000 0.7000
v  0.4000 2.6000 0.6000
v  0.4000 2.6000 0.7000
v  0.4000 2.8000 0.6000
v  0.4000 2.6000 0.5000
v  0.4000 3.0000 0.6000
v  0.4000 3.0000 0.5000
v  0.5000 2.5000 0.7000
v  0.5000 2.4000 0.6000
v  0.5000 2.4000 0.7000
v  0.5000 2.5000 0.6000
v  0.5000 3.0000 -0.0000
v  0.5000 2.6000 -0.1000
v  0.5000 2.6000 -0.0000
v  0.5000 3.0000 -0.1000
v  0.6000 1.7000 0.7000
v  0.6000 1.6000 0.6000
v  0.6000 1.6000 0.7000
v  0.6000 1.7000 0.6000
v  0.6000 1.8000 0.7000
v  0.6000 1.8000 0.6000
v  -0.5000 2.4000 0.7000
v  -0.5000 2.4000 0.6000
v  -0.5000 2.5000 0.7000
v  -0.5000 2.5000 0.6000
v  -0.5000 2.6000 -0.0000
v  -0.5000 3.0000 -0.0000
v  -0.4000 2.5000 -0.6000
v  -0.4000 2.5000 -0.7000
v  -0.4000 2.7000 0.7000
v  -0.4000 2.7000 0.6000
v  -0.4000 2.8000 0.7000
v  -0.4000 2.7000 0.5000
v  -0.4000 2.8000 0.6000
v  -0.4000 3.0000 0.6000
v  -0.4000 3.0000 0.5000
v  -0.3000 1.6000 -0.6000
v  -0.3000 1.6000 -0.7000
v  -0.3000 2.3000 -0.6000
v  -0.3000 2.3000 -0.7000
v  -0.3000 2.6000 0.7000
v  -0.3000 2.6000 0.5000
v  -0.3000 2.7000 0.7000
v  -0.3000 2.7000 0.5000
v  -0.3000 2.6000 -0.5000
v  -0.3000 2.6000 -0.6000
v  -0.3000 2.7000 -0.6000
v  -0.3000 3.0000 -0.5000
v  -0.3000 3.0000 -0.6000
v  -0.2000 1.7000 -0.6000
v  -0.2000 1.7000 -0.7000
v  -0.2000 2.0000 -0.6000
v  -0.2000 2.0000 -0.7000
v  -0.2000 1.6000 0.6000
v  -0.2000 1.6000 0.5000
v  -0.2000 2.2000 0.6000
v  -0.2000 2.2000 0.5000
v  -0.1000 2.2000 0.6000
v  -0.1000 2.2000 0.5000
v  -0.1000 2.3000 0.6000
v  -0.1000 2.3000 0.5000
v  -0.1000 2.5000 0.7000
v  -0.1000 2.5000 0.6000
v  -0.1000 2.6000 0.7000
v  -0.1000 2.6000 0.6000
v  -0.1000 2.7000 0.7000
v  -0.1000 2.7000 0.6000
v  -0.1000 2.6000 -0.6000
v  -0.1000 2.6000 -0.7000
v  -0.1000 2.7000 -0.6000
v  -0.1000 2.7000 -0.7000
v  0.2000 2.6000 0.6000
v  0.2000 2.6000 0.5000
v  0.2000 3.0000 0.6000
v  0.2000 3.0000 0.5000
v  0.3000 2.7000 -0.6000
v  0.3000 2.7000 -0.7000
v  0.3000 2.8000 -0.7000
v  0.4000 1.6000 0.8000
v  0.4000 1.6000 0.7000
v  0.4000 1.7000 0.8000
v  0.4000 1.7000 0.7000
v  0.4000 1.8000 0.8000
v  0.4000 1.8000 0.7000
v  0.4000 2.1000 -0.6000
v  0.4000 2.1000 -0.7000
v  0.4000 2.2000 -0.6000
v  0.4000 2.2000 -0.7000
v  0.4000 2.3000 -0.6000
v  0.4000 2.3000 -0.7000
v  0.4000 2.6000 -0.6000
v  0.4000 2.6000 -0.7000
v  0.4000 2.7000 -0.6000
v  0.4000 2.7000 -0.7000
v  0.4000 2.6000 -0.0000
v  0.4000 2.6000 -0.1000
v  0.4000 3.0000 -0.0000
v  0.4000 3.0000 -0.1000
v  0.5000 2.1000 0.7000
v  0.5000 2.1000 0.6000
v  0.5000 2.3000 0.7000
v  0.5000 2.3000 0.6000
v  0.5000 1.9000 0.3000
v  0.5000 1.9000 0.1000
v  0.5000 2.3000 0.3000
v  0.5000 2.3000 0.1000
v  0.5000 2.2000 -0.6000
v  0.5000 2.2000 -0.7000
v  0.5000 2.3000 -0.6000
v  0.5000 2.3000 -0.7000
v  0.5000 2.4000 -0.6000
v  0.5000 2.4000 -0.7000
v  0.5000 2.6000 -0.6000
v  0.5000 2.6000 -0.7000
v  0.5000 2.7000 0.7000
v  0.5000 2.7000 0.6000
v  0.5000 2.8000 0.7000
v  0.5000 2.8000 0.6000
v  0.5000 2.6000 -0.3000
v  0.5000 3.0000 -0.3000
v  0.6000 1.6000 -0.1000
v  0.6000 1.7000 0.4000
v  0.6000 1.6000 -0.3000
v  0.6000 1.7000 -0.1000
v  0.6000 1.6000 -0.6000
v  0.6000 1.7000 -0.3000
v  0.6000 1.8000 0.4000
v  0.6000 1.8000 -0.0000
v  0.6000 1.9000 0.4000
v  0.6000 1.9000 -0.0000
v  0.6000 2.2000 -0.3000
v  0.6000 2.2000 -0.5000
v  0.6000 2.3000 0.6000
v  0.6000 1.9000 0.3000
v  0.6000 2.3000 0.3000
v  0.6000 1.9000 0.1000
v  0.6000 2.3000 0.1000
v  0.6000 2.3000 -0.3000
v  0.6000 2.3000 -0.5000
v  0.6000 2.3000 0.7000
v  0.6000 2.4000 0.7000
v  0.6000 2.4000 0.6000
v  0.6000 2.4000 0.4000
v  0.6000 2.4000 -0.0000
v  0.6000 2.5000 0.7000
v  0.6000 2.5000 0.6000
v  0.6000 2.5000 0.5000
v  0.6000 2.5000 -0.0000
v  0.6000 2.5000 -0.4000
v  0.6000 2.6000 0.6000
v  0.6000 2.6000 0.5000
v  0.6000 2.6000 -0.0000
v  0.6000 2.6000 -0.4000
v  0.6000 2.7000 0.7000
v  0.6000 2.7000 0.6000
v  0.6000 2.8000 0.5000
v  0.6000 2.8000 0.3000
v  0.6000 2.9000 0.5000
v  0.6000 2.9000 0.3000
v  0.6000 2.6000 -0.1000
v  0.6000 3.0000 -0.1000
v  0.6000 2.6000 -0.3000
v  0.6000 3.0000 -0.3000
v  0.6000 3.1000 -0.0000
v  0.6000 3.1000 -0.4000
v  0.6000 3.2000 0.6000
v  0.6000 3.2000 -0.6000
v  0.6000 3.2000 0.8000
v  0.6000 3.2000 0.7000
v  0.6000 3.3000 0.8000
v  0.6000 3.3000 0.7000
v  0.6000 3.2000 -0.7000
v  0.6000 3.2000 -0.8000
v  0.6000 3.3000 -0.7000
v  0.6000 3.3000 -0.8000
v  0.6000 3.3000 0.6000
v  0.6000 3.4000 0.7000
v  0.6000 3.4000 0.6000
v  0.6000 3.3000 -0.6000
v  0.6000 3.4000 -0.6000
v  0.6000 3.4000 -0.7000
v  0.6000 3.4000 0.5000
v  0.6000 3.5000 0.6000
v  0.6000 3.5000 0.5000
v  0.6000 3.4000 -0.5000
v  0.6000 3.5000 -0.5000
v  0.6000 3.5000 -0.6000
v  0.6000 3.5000 0.4000
v  0.6000 3.6000 0.5000
v  0.6000 3.6000 0.4000
v  0.6000 3.5000 -0.4000
v  0.6000 3.6000 -0.4000
v  0.6000 3.6000 -0.5000
v  0.7000 1.6000 0.7000
v  0.7000 1.6000 0.6000
v  0.7000 1.7000 0.7000
v  0.7000 1.7000 0.6000
v  0.7000 1.8000 0.7000
v  0.7000 1.8000 0.6000
v  0.7000 1.8000 0.4000
v  0.7000 1.8000 -0.0000
v  0.7000 1.9000 0.4000
v  0.7000 1.9000 -0.0000
v  0.7000 2.5000 -0.0000
v  0.7000 2.5000 -0.4000
v  0.7000 2.6000 -0.0000
v  0.7000 2.6000 -0.4000
v  0.7000 3.2000 0.7000
v  0.7000 3.2000 -0.7000
v  0.7000 3.3000 0.7000
v  0.7000 3.3000 0.6000
v  0.7000 3.3000 -0.6000
v  0.7000 3.3000 -0.7000
v  0.7000 3.4000 0.6000
v  0.7000 3.4000 0.5000
v  0.7000 3.4000 -0.5000
v  0.7000 3.4000 -0.6000
v  0.7000 3.5000 0.5000
v  0.7000 3.5000 0.4000
v  0.7000 3.5000 -0.4000
v  0.7000 3.5000 -0.5000
v  0.7000 3.6000 0.4000
v  0.7000 3.6000 -0.4000
v  0.8000 0.0000 0.8000
v  0.8000 0.0000 -0.8000
v  0.8000 0.6000 0.8000
v  0.8000 0.6000 -0.8000
v  0.8000 1.0000 0.8000
v  0.8000 1.0000 -0.8000
v  0.8000 1.2000 0.8000
v  0.8000 1.2000 -0.8000
v  0.8000 1.6000 0.8000
v  0.8000 1.6000 -0.8000
v  -0.5000 2.6000 0.7000
v  0.5000 2.6000 0.7000
v  -0.5000 1.6000 0.6000
v  -0.5000 1.8000 0.6000
v  -0.5000 1.9000 0.6000
v  -0.5000 2.2000 0.6000
v  -0.5000 3.1000 0.6000
v  -0.4000 1.6000 0.6000
v  -0.4000 1.8000 0.6000
v  -0.4000 1.9000 0.6000
v  -0.4000 2.0000 0.6000
v  -0.4000 2.2000 0.6000
v  -0.4000 2.3000 0.6000
v  -0.3000 1.6000 0.6000
v  -0.3000 2.2000 0.6000
v  -0.3000 2.3000 0.6000
v  -0.2000 2.3000 0.6000
v  -0.2000 2.4000 0.6000
v  -0.1000 3.1000 0.6000
v  0.1000 3.1000 0.6000
v  0.2000 2.3000 0.6000
v  0.2000 2.4000 0.6000
v  0.3000 1.6000 0.6000
v  0.3000 2.3000 0.6000
v  0.5000 1.7000 0.6000
v  0.5000 1.8000 0.6000
v  0.5000 3.1000 0.6000
v  0.1000 1.8000 0.5000
v  0.1000 1.9000 0.5000
v  -0.4000 3.1000 -0.6000
v  -0.2000 2.3000 -0.6000
v  -0.2000 2.4000 -0.6000
v  0.0000 2.3000 -0.6000
v  0.0000 2.4000 -0.6000
v  0.3000 1.8000 -0.6000
v  0.3000 1.9000 -0.6000
v  0.4000 3.1000 -0.6000
v  0.5000 1.8000 -0.6000
v  0.5000 1.9000 -0.6000
# 472 vertices

vn -1.0000 0.0000 -0.0000
vn 1.0000 0.0000 -0.0000
vn 0.0000 0.0000 1.0000
vn 0.0000 0.0000 -1.0000
vn 0.0000 -1.0000 -0.0000
vn 0.0000 1.0000 -0.0000
# 6 vertex normals

vt 0.0879 0.5000 0.0000
vt 0.0840 0.5000 0.0000
vt 0.0801 0.5000 0.0000
vt 0.0059 0.5000 0.0000
vt 0.0762 0.5000 0.0000
vt 0.0723 0.5000 0.0000
vt 0.0332 0.5000 0.0000
vt 0.0371 0.5000 0.0000
vt 0.0605 0.5000 0.0000
vt 0.0176 0.5000 0.0000
# 10 texture coords

o house_1x1_00
g house_1x1_00
usemtl palette
s 1
f 1/1/1 2/1/1 3/1/1 
f 4/1/1 2/1/1 1/1/1 
f 5/2/1 4/2/1 1/2/1 
f 6/2/1 4/2/1 5/2/1 
f 7/3/1 6/3/1 5/3/1 
f 8/3/1 6/3/1 7/3/1 
f 9/4/1 8/4/1 7/4/1 
f 10/4/1 8/4/1 9/4/1 
f 11/5/1 12/5/1 13/5/1 
f 14/5/1 12/5/1 11/5/1 
f 15/2/1 16/2/1 17/2/1 
f 18/2/1 16/2/1 15/2/1 
f 19/2/1 16/2/1 18/2/1 
f 20/2/1 16/2/1 19/2/1 
f 21/2/1 19/2/1 18/2/1 
f 22/2/1 19/2/1 21/2/1 
f 23/2/1 19/2/1 22/2/1 
f 24/2/1 19/2/1 23/2/1 
f 25/2/1 23/2/1 22/2/1 
f 26/2/1 23/2/1 25/2/1 
f 27/2/1 23/2/1 26/2/1 
f 28/2/1 23/2/1 27/2/1 
f 29/2/1 27/2/1 26/2/1 
f 30/2/1 27/2/1 29/2/1 
f 31/6/1 32/6/1 33/6/1 
f 34/7/1 35/7/1 32/7/1 
f 34/6/1 32/6/1 31/6/1 
f 36/8/1 37/8/1 35/8/1 
f 36/7/1 35/7/1 34/7/1 
f 38/7/1 39/7/1 37/7/1 
f 38/8/1 37/8/1 36/8/1 
f 40/8/1 41/8/1 39/8/1 
f 40/7/1 39/7/1 38/7/1 
f 42/6/1 43/6/1 41/6/1 
f 42/8/1 41/8/1 40/8/1 
f 44/6/1 31/6/1 33/6/1 
f 45/8/1 34/8/1 31/8/1 
f 45/6/1 31/6/1 44/6/1 
f 45/8/1 36/8/1 34/8/1 
f 45/8/1 38/8/1 36/8/1 
f 46/8/1 38/8/1 45/8/1 
f 47/6/1 40/6/1 38/6/1 
f 47/8/1 38/8/1 46/8/1 
f 47/6/1 42/6/1 40/6/1 
f 48/8/1 46/8/1 45/8/1 
f 48/8/1 45/8/1 44/8/1 
f 49/8/1 46/8/1 48/8/1 
f 50/6/1 47/6/1 46/6/1 
f 50/8/1 46/8/1 49/8/1 
f 51/6/1 47/6/1 50/6/1 
f 52/6/1 42/6/1 47/6/1 
f 52/6/1 47/6/1 51/6/1 
f 52/6/1 43/6/1 42/6/1 
f 53/6/1 43/6/1 52/6/1 
f 54/5/1 49/5/1 48/5/1 
f 55/8/1 51/8/1 50/8/1 
f 55/5/1 49/5/1 54/5/1 
f 55/8/1 50/8/1 49/8/1 
f 56/8/1 51/8/1 55/8/1 
f 57/5/1 53/5/1 52/5/1 
f 57/6/1 52/6/1 51/6/1 
f 58/6/1 43/6/1 53/6/1 
f 58/5/1 53/5/1 57/5/1 
f 59/6/1 56/6/1 55/6/1 
f 59/6/1 55/6/1 54/6/1 
f 60/8/1 51/8/1 56/8/1 
f 60/6/1 56/6/1 59/6/1 
f 61/6/1 59/6/1 54/6/1 
f 62/8/1 60/8/1 59/8/1 
f 62/6/1 59/6/1 61/6/1 
f 63/8/1 51/8/1 60/8/1 
f 63/8/1 60/8/1 62/8/1 
f 64/6/1 57/6/1 51/6/1 
f 64/8/1 51/8/1 63/8/1 
f 64/6/1 58/6/1 57/6/1 
f 65/8/1 62/8/1 61/8/1 
f 65/8/1 63/8/1 62/8/1 
f 66/6/1 64/6/1 63/6/1 
f 66/8/1 63/8/1 65/8/1 
f 67/8/1 65/8/1 61/8/1 
f 68/8/1 65/8/1 67/8/1 
f 68/8/1 67/8/1 69/8/1 
f 70/6/1 66/6/1 65/6/1 
f 70/8/1 65/8/1 68/8/1 
f 71/6/1 58/6/1 64/6/1 
f 71/6/1 66/6/1 70/6/1 
f 71/6/1 64/6/1 66/6/1 
f 72/6/1 43/6/1 58/6/1 
f 72/6/1 58/6/1 71/6/1 
f 73/7/1 70/7/1 68/7/1 
f 73/8/1 68/8/1 69/8/1 
f 74/6/1 71/6/1 70/6/1 
f 74/7/1 70/7/1 73/7/1 
f 75/6/1 71/6/1 74/6/1 
f 76/6/1 43/6/1 72/6/1 
f 77/8/1 73/8/1 69/8/1 
f 78/6/1 74/6/1 73/6/1 
f 78/8/1 73/8/1 77/8/1 
f 78/6/1 75/6/1 74/6/1 
f 79/6/1 75/6/1 78/6/1 
f 80/6/1 75/6/1 79/6/1 
f 81/6/1 79/6/1 78/6/1 
f 81/5/1 80/5/1 79/5/1 
f 82/6/1 75/6/1 80/6/1 
f 82/5/1 80/5/1 81/5/1 
f 83/5/1 84/5/1 75/5/1 
f 85/5/1 76/5/1 86/5/1 
f 87/6/1 75/6/1 82/6/1 
f 87/5/1 85/5/1 83/5/1 
f 87/5/1 83/5/1 75/5/1 
f 87/6/1 82/6/1 81/6/1 
f 88/5/1 76/5/1 85/5/1 
f 88/5/1 85/5/1 87/5/1 
f 88/6/1 43/6/1 76/6/1 
f 89/6/1 87/6/1 81/6/1 
f 89/6/1 81/6/1 78/6/1 
f 89/6/1 88/6/1 87/6/1 
f 90/6/1 43/6/1 88/6/1 
f 90/6/1 88/6/1 89/6/1 
f 91/2/1 92/2/1 93/2/1 
f 94/2/1 92/2/1 91/2/1 
f 95/2/1 96/2/1 97/2/1 
f 98/2/1 96/2/1 95/2/1 
f 99/2/1 100/2/1 94/2/1 
f 101/2/1 100/2/1 99/2/1 
f 102/2/1 95/2/1 103/2/1 
f 104/2/1 95/2/1 102/2/1 
f 105/2/1 106/2/1 101/2/1 
f 107/2/1 106/2/1 105/2/1 
f 108/2/1 102/2/1 109/2/1 
f 110/2/1 102/2/1 108/2/1 
f 111/2/1 112/2/1 107/2/1 
f 113/2/1 112/2/1 111/2/1 
f 114/2/1 108/2/1 115/2/1 
f 116/2/1 108/2/1 114/2/1 
f 117/8/1 118/8/1 119/8/1 
f 120/8/1 118/8/1 117/8/1 
f 121/8/1 122/8/1 123/8/1 
f 124/8/1 122/8/1 121/8/1 
f 125/8/1 126/8/1 127/8/1 
f 128/8/1 126/8/1 125/8/1 
f 129/9/1 130/9/1 131/9/1 
f 132/9/1 130/9/1 129/9/1 
f 133/8/1 134/8/1 135/8/1 
f 136/8/1 134/8/1 133/8/1 
f 137/8/1 138/8/1 139/8/1 
f 140/8/1 138/8/1 137/8/1 
f 141/6/1 142/6/1 143/6/1 
f 144/6/1 142/6/1 141/6/1 
f 145/8/1 146/8/1 147/8/1 
f 148/8/1 146/8/1 145/8/1 
f 149/3/1 150/3/1 151/3/1 
f 152/5/1 153/5/1 150/5/1 
f 152/3/1 150/3/1 149/3/1 
f 154/5/1 153/5/1 152/5/1 
f 155/5/1 153/5/1 154/5/1 
f 156/5/1 157/5/1 158/5/1 
f 159/5/1 157/5/1 156/5/1 
f 160/5/1 161/5/1 162/5/1 
f 163/5/1 161/5/1 160/5/1 
f 164/8/1 165/8/1 166/8/1 
f 167/8/1 165/8/1 164/8/1 
f 168/5/1 169/5/1 170/5/1 
f 171/5/1 168/5/1 170/5/1 
f 172/5/1 171/5/1 170/5/1 
f 173/5/1 171/5/1 172/5/1 
f 174/8/1 175/8/1 176/8/1 
f 177/8/1 175/8/1 174/8/1 
f 178/3/1 179/3/1 180/3/1 
f 181/3/1 179/3/1 178/3/1 
f 182/8/1 181/8/1 178/8/1 
f 183/8/1 181/8/1 182/8/1 
f 184/8/1 185/8/1 186/8/1 
f 187/8/1 185/8/1 184/8/1 
f 188/5/1 189/5/1 190/5/1 
f 191/5/1 188/5/1 190/5/1 
f 192/5/1 188/5/1 191/5/1 
f 193/8/1 194/8/1 195/8/1 
f 196/8/1 194/8/1 193/8/1 
f 197/8/1 198/8/1 199/8/1 
f 200/8/1 198/8/1 197/8/1 
f 201/8/1 202/8/1 203/8/1 
f 204/5/1 205/5/1 202/5/1 
f 204/8/1 202/8/1 201/8/1 
f 206/5/1 205/5/1 204/5/1 
f 207/5/1 205/5/1 206/5/1 
f 208/7/1 209/7/1 210/7/1 
f 211/7/1 209/7/1 208/7/1 
f 212/5/1 213/5/1 214/5/1 
f 215/5/1 213/5/1 212/5/1 
f 216/3/1 217/3/1 218/3/1 
f 219/3/1 217/3/1 216/3/1 
f 220/8/1 219/8/1 216/8/1 
f 221/8/1 219/8/1 220/8/1 
f 222/8/2 223/8/2 224/8/2 
f 224/8/2 223/8/2 225/8/2 
f 226/5/2 131/5/2 227/5/2 
f 227/5/2 131/5/2 129/5/2 
f 133/8/2 136/8/2 228/8/2 
f 228/8/2 136/8/2 229/8/2 
f 230/8/2 231/8/2 232/8/2 
f 231/5/2 233/5/2 234/5/2 
f 232/8/2 231/8/2 234/8/2 
f 234/5/2 233/5/2 235/5/2 
f 235/5/2 233/5/2 236/5/2 
f 237/8/2 238/8/2 147/8/2 
f 147/8/2 238/8/2 146/8/2 
f 145/8/2 148/8/2 239/8/2 
f 239/8/2 148/8/2 240/8/2 
f 241/8/2 242/8/2 243/8/2 
f 243/8/2 242/8/2 244/8/2 
f 245/5/2 246/5/2 247/5/2 
f 245/5/2 247/5/2 248/5/2 
f 248/5/2 247/5/2 249/5/2 
f 250/8/2 251/8/2 252/8/2 
f 252/8/2 251/8/2 253/8/2 
f 254/5/2 255/5/2 256/5/2 
f 256/5/2 255/5/2 257/5/2 
f 258/5/2 259/5/2 260/5/2 
f 260/5/2 259/5/2 261/5/2 
f 262/5/2 263/5/2 264/5/2 
f 264/5/2 263/5/2 265/5/2 
f 264/3/2 265/3/2 266/3/2 
f 266/3/2 265/3/2 267/3/2 
f 268/8/2 269/8/2 270/8/2 
f 270/8/2 269/8/2 271/8/2 
f 272/5/2 273/5/2 274/5/2 
f 274/5/2 273/5/2 275/5/2 
f 276/8/2 277/8/2 188/8/2 
f 188/8/2 277/8/2 278/8/2 
f 279/3/2 280/3/2 281/3/2 
f 281/3/2 280/3/2 282/3/2 
f 281/8/2 282/8/2 283/8/2 
f 283/8/2 282/8/2 284/8/2 
f 285/8/2 286/8/2 287/8/2 
f 287/8/2 286/8/2 288/8/2 
f 289/8/2 290/8/2 199/8/2 
f 199/8/2 290/8/2 198/8/2 
f 291/8/2 292/8/2 293/8/2 
f 293/8/2 292/8/2 294/8/2 
f 295/6/2 296/6/2 297/6/2 
f 297/6/2 296/6/2 298/6/2 
f 299/8/2 300/8/2 301/8/2 
f 301/8/2 300/8/2 302/8/2 
f 303/9/2 304/9/2 305/9/2 
f 305/9/2 304/9/2 306/9/2 
f 307/8/2 308/8/2 309/8/2 
f 309/8/2 308/8/2 310/8/2 
f 311/8/2 312/8/2 313/8/2 
f 313/8/2 312/8/2 314/8/2 
f 315/8/2 316/8/2 317/8/2 
f 317/8/2 316/8/2 318/8/2 
f 213/9/2 319/9/2 215/9/2 
f 215/9/2 319/9/2 320/9/2 
f 217/6/2 321/6/2 219/6/2 
f 219/6/2 321/6/2 322/6/2 
f 321/5/2 323/5/2 324/5/2 
f 322/6/2 321/6/2 324/6/2 
f 323/6/2 325/6/2 326/6/2 
f 324/5/2 323/5/2 326/5/2 
f 219/5/2 322/5/2 221/5/2 
f 322/6/2 324/6/2 327/6/2 
f 221/5/2 322/5/2 327/5/2 
f 324/6/2 326/6/2 327/6/2 
f 327/6/2 326/6/2 328/6/2 
f 221/6/2 327/6/2 329/6/2 
f 328/6/2 326/6/2 330/6/2 
f 326/6/2 325/6/2 331/6/2 
f 330/6/2 326/6/2 331/6/2 
f 331/6/2 325/6/2 332/6/2 
f 221/6/2 329/6/2 333/6/2 
f 329/5/2 334/5/2 335/5/2 
f 336/5/2 330/5/2 337/5/2 
f 330/6/2 331/6/2 338/6/2 
f 331/5/2 332/5/2 338/5/2 
f 332/6/2 325/6/2 339/6/2 
f 338/5/2 332/5/2 339/5/2 
f 340/8/2 333/8/2 341/8/2 
f 333/6/2 329/6/2 342/6/2 
f 341/8/2 333/8/2 342/8/2 
f 329/5/2 335/5/2 343/5/2 
f 342/6/2 329/6/2 343/6/2 
f 335/5/2 337/5/2 343/5/2 
f 330/6/2 338/6/2 344/6/2 
f 343/5/2 337/5/2 344/5/2 
f 338/6/2 339/6/2 344/6/2 
f 337/5/2 330/5/2 344/5/2 
f 341/7/2 342/7/2 345/7/2 
f 342/6/2 343/6/2 346/6/2 
f 345/7/2 342/7/2 346/7/2 
f 343/6/2 344/6/2 346/6/2 
f 346/6/2 344/6/2 347/6/2 
f 344/6/2 339/6/2 348/6/2 
f 347/6/2 344/6/2 348/6/2 
f 348/6/2 339/6/2 349/6/2 
f 346/7/2 347/7/2 350/7/2 
f 345/8/2 346/8/2 350/8/2 
f 347/6/2 348/6/2 351/6/2 
f 350/7/2 347/7/2 351/7/2 
f 351/6/2 348/6/2 352/6/2 
f 349/6/2 339/6/2 353/6/2 
f 345/8/2 350/8/2 354/8/2 
f 350/6/2 351/6/2 355/6/2 
f 354/8/2 350/8/2 355/8/2 
f 351/6/2 352/6/2 355/6/2 
f 355/6/2 352/6/2 356/6/2 
f 356/6/2 352/6/2 357/6/2 
f 355/6/2 356/6/2 358/6/2 
f 356/5/2 357/5/2 358/5/2 
f 357/6/2 352/6/2 359/6/2 
f 358/5/2 357/5/2 359/5/2 
f 352/5/2 360/5/2 361/5/2 
f 362/5/2 353/5/2 363/5/2 
f 359/6/2 352/6/2 364/6/2 
f 361/5/2 363/5/2 364/5/2 
f 352/5/2 361/5/2 364/5/2 
f 358/6/2 359/6/2 364/6/2 
f 363/5/2 353/5/2 365/5/2 
f 364/5/2 363/5/2 365/5/2 
f 353/6/2 339/6/2 365/6/2 
f 358/6/2 364/6/2 366/6/2 
f 355/6/2 358/6/2 366/6/2 
f 364/6/2 365/6/2 366/6/2 
f 339/6/2 325/6/2 367/6/2 
f 366/6/2 365/6/2 367/6/2 
f 365/6/2 339/6/2 367/6/2 
f 368/2/2 369/2/2 370/2/2 
f 370/2/2 369/2/2 371/2/2 
f 372/2/2 373/2/2 374/2/2 
f 374/2/2 373/2/2 375/2/2 
f 371/2/2 376/2/2 377/2/2 
f 377/2/2 376/2/2 378/2/2 
f 379/2/2 374/2/2 380/2/2 
f 380/2/2 374/2/2 381/2/2 
f 378/2/2 382/2/2 383/2/2 
f 383/2/2 382/2/2 384/2/2 
f 385/2/2 380/2/2 386/2/2 
f 386/2/2 380/2/2 387/2/2 
f 384/2/2 388/2/2 389/2/2 
f 389/2/2 388/2/2 390/2/2 
f 391/2/2 386/2/2 392/2/2 
f 392/2/2 386/2/2 393/2/2 
f 394/3/2 395/3/2 396/3/2 
f 396/3/2 395/3/2 397/3/2 
f 396/8/2 397/8/2 398/8/2 
f 398/8/2 397/8/2 399/8/2 
f 400/5/2 401/5/2 402/5/2 
f 402/5/2 401/5/2 403/5/2 
f 404/5/2 405/5/2 406/5/2 
f 406/5/2 405/5/2 407/5/2 
f 408/2/2 409/2/2 410/2/2 
f 410/2/2 409/2/2 411/2/2 
f 411/2/2 409/2/2 412/2/2 
f 412/2/2 409/2/2 413/2/2 
f 411/2/2 412/2/2 414/2/2 
f 414/2/2 412/2/2 415/2/2 
f 415/2/2 412/2/2 416/2/2 
f 416/2/2 412/2/2 417/2/2 
f 415/2/2 416/2/2 418/2/2 
f 418/2/2 416/2/2 419/2/2 
f 419/2/2 416/2/2 420/2/2 
f 420/2/2 416/2/2 421/2/2 
f 419/2/2 420/2/2 422/2/2 
f 422/2/2 420/2/2 423/2/2 
f 424/1/2 425/1/2 426/1/2 
f 426/1/2 425/1/2 427/1/2 
f 426/2/2 427/2/2 428/2/2 
f 428/2/2 427/2/2 429/2/2 
f 428/3/2 429/3/2 430/3/2 
f 430/3/2 429/3/2 431/3/2 
f 430/4/2 431/4/2 432/4/2 
f 432/4/2 431/4/2 433/4/2 
f 180/4/3 9/4/3 7/4/3 
f 279/4/3 180/4/3 7/4/3 
f 279/3/3 178/3/3 180/3/3 
f 281/8/3 182/8/3 178/8/3 
f 281/3/3 178/3/3 279/3/3 
f 283/8/3 182/8/3 281/8/3 
f 368/2/3 91/2/3 93/2/3 
f 370/2/3 91/2/3 368/2/3 
f 424/1/3 1/1/3 3/1/3 
f 426/2/3 5/2/3 1/2/3 
f 426/1/3 1/1/3 424/1/3 
f 428/3/3 7/3/3 5/3/3 
f 428/2/3 5/2/3 426/2/3 
f 430/4/3 279/4/3 7/4/3 
f 430/3/3 7/3/3 428/3/3 
f 432/4/3 279/4/3 430/4/3 
f 92/2/3 15/2/3 17/2/3 
f 94/2/3 15/2/3 92/2/3 
f 222/8/3 77/8/3 69/8/3 
f 224/8/3 77/8/3 222/8/3 
f 434/8/3 77/8/3 224/8/3 
f 127/8/3 77/8/3 434/8/3 
f 230/8/3 125/8/3 127/8/3 
f 230/8/3 127/8/3 434/8/3 
f 232/8/3 125/8/3 230/8/3 
f 241/5/3 434/5/3 224/5/3 
f 241/8/3 230/8/3 434/8/3 
f 243/8/3 230/8/3 241/8/3 
f 151/5/3 241/5/3 224/5/3 
f 262/5/3 151/5/3 224/5/3 
f 264/3/3 149/3/3 151/3/3 
f 264/5/3 151/5/3 262/5/3 
f 266/3/3 149/3/3 264/3/3 
f 203/5/3 160/5/3 162/5/3 
f 299/8/3 193/8/3 195/8/3 
f 301/8/3 193/8/3 299/8/3 
f 210/8/3 193/8/3 301/8/3 
f 208/5/3 203/5/3 162/5/3 
f 435/8/3 201/8/3 203/8/3 
f 435/5/3 203/5/3 208/5/3 
f 315/8/3 201/8/3 435/8/3 
f 317/8/3 201/8/3 315/8/3 
f 340/8/3 210/8/3 301/8/3 
f 341/7/3 208/7/3 210/7/3 
f 341/8/3 210/8/3 340/8/3 
f 345/8/3 435/8/3 208/8/3 
f 345/7/3 208/7/3 341/7/3 
f 345/8/3 315/8/3 435/8/3 
f 354/8/3 315/8/3 345/8/3 
f 371/2/3 99/2/3 94/2/3 
f 377/2/3 99/2/3 371/2/3 
f 394/3/3 216/3/3 218/3/3 
f 396/8/3 220/8/3 216/8/3 
f 396/3/3 216/3/3 394/3/3 
f 398/8/3 220/8/3 396/8/3 
f 408/2/3 371/2/3 369/2/3 
f 410/2/3 371/2/3 408/2/3 
f 100/2/3 21/2/3 18/2/3 
f 101/2/3 21/2/3 100/2/3 
f 436/6/3 44/6/3 33/6/3 
f 437/8/3 48/8/3 44/8/3 
f 437/6/3 44/6/3 436/6/3 
f 438/5/3 54/5/3 48/5/3 
f 438/8/3 48/8/3 437/8/3 
f 439/6/3 61/6/3 54/6/3 
f 439/8/3 67/8/3 61/8/3 
f 223/8/3 67/8/3 439/8/3 
f 126/6/3 89/6/3 78/6/3 
f 128/6/3 89/6/3 126/6/3 
f 440/6/3 89/6/3 128/6/3 
f 441/8/3 437/8/3 436/8/3 
f 442/6/3 438/6/3 437/6/3 
f 442/8/3 437/8/3 441/8/3 
f 443/5/3 54/5/3 438/5/3 
f 443/6/3 438/6/3 442/6/3 
f 444/6/3 225/6/3 223/6/3 
f 444/5/3 54/5/3 443/5/3 
f 444/6/3 439/6/3 54/6/3 
f 444/6/3 223/6/3 439/6/3 
f 445/6/3 225/6/3 444/6/3 
f 446/6/3 225/6/3 445/6/3 
f 234/5/3 440/5/3 128/5/3 
f 235/5/3 440/5/3 234/5/3 
f 447/6/3 443/6/3 442/6/3 
f 447/6/3 442/6/3 441/6/3 
f 447/6/3 444/6/3 443/6/3 
f 447/6/3 445/6/3 444/6/3 
f 448/10/3 446/10/3 445/10/3 
f 448/6/3 445/6/3 447/6/3 
f 449/6/3 225/6/3 446/6/3 
f 449/10/3 446/10/3 448/10/3 
f 254/5/3 448/5/3 447/5/3 
f 254/5/3 449/5/3 448/5/3 
f 256/5/3 449/5/3 254/5/3 
f 450/6/3 225/6/3 449/6/3 
f 450/5/3 449/5/3 256/5/3 
f 451/6/3 225/6/3 450/6/3 
f 154/5/3 440/5/3 235/5/3 
f 258/5/3 450/5/3 256/5/3 
f 258/5/3 451/5/3 450/5/3 
f 260/5/3 451/5/3 258/5/3 
f 263/6/3 225/6/3 451/6/3 
f 267/5/3 154/5/3 152/5/3 
f 452/6/3 89/6/3 440/6/3 
f 452/5/3 440/5/3 154/5/3 
f 452/5/3 154/5/3 267/5/3 
f 156/5/3 451/5/3 260/5/3 
f 161/6/3 452/6/3 267/6/3 
f 161/6/3 267/6/3 265/6/3 
f 161/6/3 265/6/3 263/6/3 
f 161/6/3 263/6/3 451/6/3 
f 163/6/3 452/6/3 161/6/3 
f 453/6/3 89/6/3 452/6/3 
f 453/6/3 452/6/3 163/6/3 
f 172/5/3 156/5/3 158/5/3 
f 454/5/3 451/5/3 156/5/3 
f 454/5/3 156/5/3 172/5/3 
f 455/6/3 161/6/3 451/6/3 
f 455/5/3 451/5/3 454/5/3 
f 272/5/3 453/5/3 163/5/3 
f 274/5/3 453/5/3 272/5/3 
f 456/5/3 172/5/3 170/5/3 
f 456/5/3 454/5/3 172/5/3 
f 457/6/3 455/6/3 454/6/3 
f 457/5/3 454/5/3 456/5/3 
f 194/6/3 457/6/3 456/6/3 
f 196/6/3 161/6/3 455/6/3 
f 196/6/3 457/6/3 194/6/3 
f 196/6/3 455/6/3 457/6/3 
f 206/5/3 453/5/3 274/5/3 
f 458/6/3 194/6/3 456/6/3 
f 459/6/3 194/6/3 458/6/3 
f 300/6/3 194/6/3 459/6/3 
f 209/6/3 161/6/3 196/6/3 
f 211/6/3 161/6/3 209/6/3 
f 318/5/3 206/5/3 204/5/3 
f 460/6/3 89/6/3 453/6/3 
f 460/5/3 453/5/3 206/5/3 
f 460/5/3 206/5/3 318/5/3 
f 217/6/3 458/6/3 456/6/3 
f 219/5/3 459/5/3 458/5/3 
f 219/6/3 458/6/3 217/6/3 
f 221/6/3 302/6/3 300/6/3 
f 221/5/3 459/5/3 219/5/3 
f 221/6/3 300/6/3 459/6/3 
f 333/6/3 302/6/3 221/6/3 
f 355/6/3 318/6/3 316/6/3 
f 355/6/3 460/6/3 318/6/3 
f 366/6/3 89/6/3 460/6/3 
f 366/6/3 460/6/3 355/6/3 
f 378/2/3 105/2/3 101/2/3 
f 383/2/3 105/2/3 378/2/3 
f 411/2/3 378/2/3 376/2/3 
f 414/2/3 378/2/3 411/2/3 
f 106/2/3 25/2/3 22/2/3 
f 107/2/3 25/2/3 106/2/3 
f 244/9/3 236/9/3 233/9/3 
f 153/9/3 244/9/3 242/9/3 
f 155/9/3 236/9/3 244/9/3 
f 155/9/3 244/9/3 153/9/3 
f 259/2/3 257/2/3 255/2/3 
f 461/2/3 259/2/3 255/2/3 
f 461/2/3 261/2/3 259/2/3 
f 462/2/3 261/2/3 461/2/3 
f 157/2/3 261/2/3 462/2/3 
f 159/2/3 261/2/3 157/2/3 
f 169/2/3 461/2/3 255/2/3 
f 168/1/3 462/1/3 461/1/3 
f 168/2/3 461/2/3 169/2/3 
f 171/2/3 157/2/3 462/2/3 
f 171/1/3 462/1/3 168/1/3 
f 173/2/3 157/2/3 171/2/3 
f 205/9/3 275/9/3 273/9/3 
f 207/9/3 275/9/3 205/9/3 
f 384/2/3 111/2/3 107/2/3 
f 389/2/3 111/2/3 384/2/3 
f 415/2/3 384/2/3 382/2/3 
f 418/2/3 384/2/3 415/2/3 
f 112/2/3 29/2/3 26/2/3 
f 113/2/3 29/2/3 112/2/3 
f 400/5/3 329/5/3 327/5/3 
f 402/5/3 329/5/3 400/5/3 
f 419/2/3 390/2/3 388/2/3 
f 422/2/3 390/2/3 419/2/3 
f 336/5/3 306/5/3 304/5/3 
f 337/5/3 306/5/3 336/5/3 
f 71/5/3 11/5/3 13/5/3 
f 75/5/3 11/5/3 71/5/3 
f 404/5/3 352/5/3 348/5/3 
f 406/5/3 352/5/3 404/5/3 
f 142/9/3 129/9/3 131/9/3 
f 144/9/3 129/9/3 142/9/3 
f 213/9/3 298/9/3 296/9/3 
f 215/9/3 298/9/3 213/9/3 
f 130/5/3 85/5/3 86/5/3 
f 132/5/3 85/5/3 130/5/3 
f 362/5/3 320/5/3 319/5/3 
f 363/5/3 320/5/3 362/5/3 
f 268/8/3 247/8/3 246/8/3 
f 270/8/3 247/8/3 268/8/3 
f 176/8/3 164/8/3 166/8/3 
f 189/8/3 176/8/3 166/8/3 
f 189/8/3 174/8/3 176/8/3 
f 188/8/3 174/8/3 189/8/3 
f 179/3/4 181/3/4 280/3/4 
f 181/8/4 183/8/4 282/8/4 
f 280/3/4 181/3/4 282/3/4 
f 282/8/4 183/8/4 284/8/4 
f 217/3/4 219/3/4 395/3/4 
f 219/8/4 221/8/4 397/8/4 
f 395/3/4 219/3/4 397/3/4 
f 397/8/4 221/8/4 399/8/4 
f 303/5/4 305/5/4 334/5/4 
f 334/5/4 305/5/4 335/5/4 
f 226/6/4 227/6/4 143/6/4 
f 143/6/4 227/6/4 141/6/4 
f 295/6/4 297/6/4 214/6/4 
f 214/6/4 297/6/4 212/6/4 
f 328/5/4 330/5/4 401/5/4 
f 401/5/4 330/5/4 403/5/4 
f 84/5/4 83/5/4 131/5/4 
f 131/5/4 83/5/4 129/5/4 
f 213/5/4 215/5/4 360/5/4 
f 360/5/4 215/5/4 361/5/4 
f 12/5/4 14/5/4 72/5/4 
f 72/5/4 14/5/4 76/5/4 
f 27/2/4 30/2/4 115/2/4 
f 115/2/4 30/2/4 114/2/4 
f 349/5/4 353/5/4 405/5/4 
f 405/5/4 353/5/4 407/5/4 
f 391/2/4 392/2/4 420/2/4 
f 420/2/4 392/2/4 423/2/4 
f 23/2/4 28/2/4 109/2/4 
f 109/2/4 28/2/4 108/2/4 
f 245/9/4 248/9/4 190/9/4 
f 190/9/4 248/9/4 191/9/4 
f 108/2/4 116/2/4 386/2/4 
f 386/2/4 116/2/4 393/2/4 
f 385/2/4 386/2/4 416/2/4 
f 416/2/4 386/2/4 421/2/4 
f 19/2/4 24/2/4 103/2/4 
f 103/2/4 24/2/4 102/2/4 
f 43/6/4 90/6/4 119/6/4 
f 119/6/4 90/6/4 117/6/4 
f 117/6/4 90/6/4 123/6/4 
f 123/6/4 90/6/4 121/6/4 
f 117/6/4 123/6/4 135/6/4 
f 135/6/4 123/6/4 133/6/4 
f 121/6/4 90/6/4 139/6/4 
f 139/6/4 90/6/4 137/6/4 
f 137/6/4 90/6/4 463/6/4 
f 117/6/4 135/6/4 147/6/4 
f 147/6/4 135/6/4 145/6/4 
f 133/6/4 228/6/4 239/6/4 
f 137/5/4 463/5/4 247/5/4 
f 247/5/4 463/5/4 249/5/4 
f 237/6/4 147/6/4 250/6/4 
f 145/6/4 239/6/4 252/6/4 
f 239/6/4 228/6/4 464/6/4 
f 252/6/4 239/6/4 464/6/4 
f 464/6/4 228/6/4 465/6/4 
f 250/6/4 252/6/4 466/6/4 
f 252/6/4 464/6/4 466/6/4 
f 464/5/4 465/5/4 466/5/4 
f 465/6/4 228/6/4 467/6/4 
f 466/5/4 465/5/4 467/5/4 
f 250/6/4 466/6/4 468/6/4 
f 466/6/4 467/6/4 468/6/4 
f 468/6/4 467/6/4 469/6/4 
f 469/6/4 467/6/4 186/6/4 
f 467/6/4 228/6/4 184/6/4 
f 186/6/4 467/6/4 184/6/4 
f 249/5/4 463/5/4 192/5/4 
f 469/6/4 186/6/4 285/6/4 
f 184/6/4 228/6/4 199/6/4 
f 199/6/4 228/6/4 197/6/4 
f 276/5/4 188/5/4 293/5/4 
f 188/5/4 192/5/4 293/5/4 
f 463/6/4 90/6/4 470/6/4 
f 192/5/4 463/5/4 470/5/4 
f 293/5/4 192/5/4 470/5/4 
f 250/6/4 468/6/4 471/6/4 
f 468/5/4 469/5/4 471/5/4 
f 285/6/4 287/6/4 472/6/4 
f 471/5/4 469/5/4 472/5/4 
f 469/6/4 285/6/4 472/6/4 
f 472/6/4 287/6/4 307/6/4 
f 289/6/4 199/6/4 309/6/4 
f 309/6/4 199/6/4 311/6/4 
f 291/6/4 293/6/4 313/6/4 
f 293/6/4 470/6/4 313/6/4 
f 237/6/4 250/6/4 325/6/4 
f 311/6/4 313/6/4 325/6/4 
f 309/6/4 311/6/4 325/6/4 
f 472/6/4 307/6/4 325/6/4 
f 307/6/4 309/6/4 325/6/4 
f 471/6/4 472/6/4 325/6/4 
f 250/6/4 471/6/4 325/6/4 
f 470/6/4 90/6/4 367/6/4 
f 325/6/4 313/6/4 367/6/4 
f 313/6/4 470/6/4 367/6/4 
f 102/2/4 110/2/4 380/2/4 
f 380/2/4 110/2/4 387/2/4 
f 379/2/4 380/2/4 412/2/4 
f 412/2/4 380/2/4 417/2/4 
f 16/2/4 20/2/4 97/2/4 
f 97/2/4 20/2/4 95/2/4 
f 122/8/4 124/8/4 136/8/4 
f 136/8/4 124/8/4 229/8/4 
f 229/8/4 124/8/4 138/8/4 
f 118/8/4 120/8/4 238/8/4 
f 238/8/4 120/8/4 146/8/4 
f 134/8/4 136/8/4 148/8/4 
f 148/8/4 136/8/4 240/8/4 
f 146/8/4 148/8/4 251/8/4 
f 251/8/4 148/8/4 253/8/4 
f 138/8/4 140/8/4 269/8/4 
f 229/5/4 138/5/4 269/5/4 
f 269/8/4 140/8/4 271/8/4 
f 229/5/4 269/5/4 165/5/4 
f 165/8/4 167/8/4 175/8/4 
f 165/8/4 175/8/4 277/8/4 
f 175/8/4 177/8/4 277/8/4 
f 277/8/4 177/8/4 278/8/4 
f 185/8/4 187/8/4 286/8/4 
f 286/8/4 187/8/4 288/8/4 
f 288/8/4 187/8/4 290/8/4 
f 290/8/4 187/8/4 198/8/4 
f 229/5/4 165/5/4 200/5/4 
f 165/8/4 277/8/4 292/8/4 
f 200/5/4 165/5/4 292/5/4 
f 292/8/4 277/8/4 294/8/4 
f 288/8/4 290/8/4 308/8/4 
f 308/8/4 290/8/4 310/8/4 
f 198/8/4 200/8/4 312/8/4 
f 200/8/4 292/8/4 312/8/4 
f 312/8/4 292/8/4 314/8/4 
f 95/2/4 104/2/4 374/2/4 
f 374/2/4 104/2/4 381/2/4 
f 372/2/4 374/2/4 409/2/4 
f 409/2/4 374/2/4 413/2/4 
f 96/2/4 98/2/4 373/2/4 
f 373/2/4 98/2/4 375/2/4 
f 2/1/4 4/1/4 425/1/4 
f 4/2/4 6/2/4 427/2/4 
f 425/1/4 4/1/4 427/1/4 
f 6/3/4 8/3/4 429/3/4 
f 427/2/4 6/2/4 429/2/4 
f 8/4/4 10/4/4 431/4/4 
f 429/3/4 8/3/4 431/3/4 
f 431/4/4 10/4/4 433/4/4 
f 2/1/5 424/1/5 3/1/5 
f 425/1/5 424/1/5 2/1/5 
f 146/8/5 250/8/5 147/8/5 
f 251/8/5 250/8/5 146/8/5 
f 328/5/5 400/5/5 327/5/5 
f 401/5/5 400/5/5 328/5/5 
f 134/8/5 145/8/5 135/8/5 
f 148/8/5 145/8/5 134/8/5 
f 194/8/5 299/8/5 195/8/5 
f 300/8/5 299/8/5 194/8/5 
f 185/8/5 285/8/5 186/8/5 
f 286/8/5 285/8/5 185/8/5 
f 257/5/5 258/5/5 256/5/5 
f 259/5/5 258/5/5 257/5/5 
f 157/5/5 172/5/5 158/5/5 
f 173/5/5 172/5/5 157/5/5 
f 288/8/5 307/8/5 287/8/5 
f 308/8/5 307/8/5 288/8/5 
f 302/8/5 340/8/5 301/8/5 
f 333/8/5 340/8/5 302/8/5 
f 261/5/5 156/5/5 260/5/5 
f 159/5/5 156/5/5 261/5/5 
f 306/5/5 335/5/5 305/5/5 
f 337/5/5 335/5/5 306/5/5 
f 122/8/5 133/8/5 123/8/5 
f 136/8/5 133/8/5 122/8/5 
f 67/8/5 222/8/5 69/8/5 
f 223/8/5 222/8/5 67/8/5 
f 198/8/5 311/8/5 199/8/5 
f 312/8/5 311/8/5 198/8/5 
f 225/5/5 262/5/5 224/5/5 
f 263/5/5 262/5/5 225/5/5 
f 161/5/5 208/5/5 162/5/5 
f 211/5/5 208/5/5 161/5/5 
f 12/5/5 71/5/5 13/5/5 
f 72/5/5 71/5/5 12/5/5 
f 349/5/5 404/5/5 348/5/5 
f 405/5/5 404/5/5 349/5/5 
f 229/5/5 197/5/5 228/5/5 
f 200/5/5 197/5/5 229/5/5 
f 236/5/5 154/5/5 235/5/5 
f 155/5/5 154/5/5 236/5/5 
f 275/5/5 206/5/5 274/5/5 
f 207/5/5 206/5/5 275/5/5 
f 129/6/5 141/6/5 227/6/5 
f 144/6/5 141/6/5 129/6/5 
f 298/6/5 212/6/5 297/6/5 
f 215/6/5 212/6/5 298/6/5 
f 85/5/5 129/5/5 83/5/5 
f 132/5/5 129/5/5 85/5/5 
f 320/5/5 361/5/5 215/5/5 
f 363/5/5 361/5/5 320/5/5 
f 249/5/5 191/5/5 248/5/5 
f 192/5/5 191/5/5 249/5/5 
f 92/2/5 368/2/5 93/2/5 
f 369/2/5 368/2/5 92/2/5 
f 89/2/5 92/2/5 17/2/5 
f 89/2/5 408/2/5 369/2/5 
f 89/2/5 369/2/5 92/2/5 
f 366/2/5 408/2/5 89/2/5 
f 90/2/5 89/2/5 17/2/5 
f 367/2/5 408/2/5 366/2/5 
f 16/2/5 90/2/5 17/2/5 
f 16/2/5 367/2/5 90/2/5 
f 97/2/5 367/2/5 16/2/5 
f 372/2/5 408/2/5 367/2/5 
f 372/2/5 367/2/5 97/2/5 
f 409/2/5 408/2/5 372/2/5 
f 96/2/5 372/2/5 97/2/5 
f 373/2/5 372/2/5 96/2/5 
f 9/4/6 180/4/6 179/4/6 
f 279/4/6 432/4/6 280/4/6 
f 280/4/6 432/4/6 218/4/6 
f 218/4/6 432/4/6 394/4/6 
f 9/4/6 179/4/6 33/4/6 
f 179/4/6 280/4/6 33/4/6 
f 280/4/6 218/4/6 33/4/6 
f 33/4/6 218/4/6 436/4/6 
f 436/4/6 218/4/6 441/4/6 
f 441/4/6 218/4/6 447/4/6 
f 447/4/6 218/4/6 254/4/6 
f 254/4/6 218/4/6 170/4/6 
f 170/4/6 218/4/6 456/4/6 
f 456/4/6 218/4/6 217/4/6 
f 394/4/6 432/4/6 395/4/6 
f 254/4/6 170/4/6 255/4/6 
f 255/4/6 170/4/6 169/4/6 
f 9/4/6 33/4/6 32/4/6 
f 9/4/6 32/4/6 35/4/6 
f 9/4/6 35/4/6 37/4/6 
f 9/4/6 37/4/6 39/4/6 
f 9/4/6 39/4/6 41/4/6 
f 217/4/6 395/4/6 321/4/6 
f 321/4/6 395/4/6 323/4/6 
f 9/4/6 41/4/6 43/4/6 
f 323/4/6 395/4/6 325/4/6 
f 43/4/6 119/4/6 118/4/6 
f 237/4/6 325/4/6 238/4/6 
f 43/4/6 118/4/6 10/4/6 
f 118/4/6 238/4/6 10/4/6 
f 9/4/6 43/4/6 10/4/6 
f 238/4/6 325/4/6 433/4/6 
f 10/4/6 238/4/6 433/4/6 
f 395/4/6 432/4/6 433/4/6 
f 325/4/6 395/4/6 433/4/6 
f 117/8/6 147/8/6 120/8/6 
f 120/8/6 147/8/6 146/8/6 
f 182/8/6 283/8/6 183/8/6 
f 183/8/6 283/8/6 284/8/6 
f 220/8/6 398/8/6 221/8/6 
f 221/8/6 398/8/6 399/8/6 
f 329/5/6 402/5/6 334/5/6 
f 303/5/6 334/5/6 304/5/6 
f 334/5/6 402/5/6 336/5/6 
f 304/5/6 334/5/6 336/5/6 
f 336/5/6 402/5/6 330/5/6 
f 330/5/6 402/5/6 403/5/6 
f 145/8/6 252/8/6 148/8/6 
f 148/8/6 252/8/6 253/8/6 
f 133/8/6 239/8/6 136/8/6 
f 136/8/6 239/8/6 240/8/6 
f 289/8/6 309/8/6 290/8/6 
f 290/8/6 309/8/6 310/8/6 
f 193/8/6 210/8/6 196/8/6 
f 196/8/6 210/8/6 209/8/6 
f 184/8/6 199/8/6 187/8/6 
f 187/8/6 199/8/6 198/8/6 
f 241/5/6 151/5/6 150/5/6 
f 160/5/6 203/5/6 163/5/6 
f 163/5/6 203/5/6 272/5/6 
f 272/5/6 203/5/6 202/5/6 
f 241/5/6 150/5/6 242/5/6 
f 242/5/6 150/5/6 153/5/6 
f 272/5/6 202/5/6 273/5/6 
f 273/5/6 202/5/6 205/5/6 
f 11/5/6 75/5/6 84/5/6 
f 226/6/6 143/6/6 131/6/6 
f 131/6/6 143/6/6 142/6/6 
f 295/6/6 214/6/6 296/6/6 
f 296/6/6 214/6/6 213/6/6 
f 352/5/6 406/5/6 360/5/6 
f 11/5/6 84/5/6 86/5/6 
f 84/5/6 131/5/6 86/5/6 
f 86/5/6 131/5/6 130/5/6 
f 213/5/6 360/5/6 319/5/6 
f 360/5/6 406/5/6 362/5/6 
f 319/5/6 360/5/6 362/5/6 
f 11/5/6 86/5/6 14/5/6 
f 14/5/6 86/5/6 76/5/6 
f 362/5/6 406/5/6 353/5/6 
f 353/5/6 406/5/6 407/5/6 
f 245/5/6 190/5/6 246/5/6 
f 246/5/6 190/5/6 268/5/6 
f 268/5/6 190/5/6 166/5/6 
f 166/5/6 190/5/6 189/5/6 
f 121/8/6 139/8/6 124/8/6 
f 124/8/6 139/8/6 138/8/6 
f 268/5/6 166/5/6 269/5/6 
f 269/5/6 166/5/6 165/5/6 
f 291/8/6 313/8/6 292/8/6 
f 292/8/6 313/8/6 314/8/6 
f 77/8/6 127/8/6 78/8/6 
f 78/8/6 127/8/6 126/8/6 
f 230/8/6 243/8/6 231/8/6 
f 149/3/6 266/3/6 152/3/6 
f 152/3/6 266/3/6 267/3/6 
f 315/8/6 354/8/6 316/8/6 
f 316/8/6 354/8/6 355/8/6 
f 231/8/6 243/8/6 233/8/6 
f 233/8/6 243/8/6 244/8/6 
f 137/8/6 247/8/6 140/8/6 
f 247/8/6 270/8/6 140/8/6 
f 140/8/6 270/8/6 271/8/6 
f 164/8/6 176/8/6 167/8/6 
f 167/8/6 176/8/6 175/8/6 
f 276/8/6 293/8/6 277/8/6 
f 277/8/6 293/8/6 294/8/6 
f 125/8/6 232/8/6 128/8/6 
f 128/8/6 232/8/6 234/8/6 
f 201/8/6 317/8/6 204/8/6 
f 204/8/6 317/8/6 318/8/6 
f 174/8/6 188/8/6 177/8/6 
f 177/8/6 188/8/6 278/8/6 
f 91/2/6 370/2/6 94/2/6 
f 94/2/6 370/2/6 371/2/6 
f 15/2/6 94/2/6 18/2/6 
f 18/2/6 94/2/6 100/2/6 
f 371/2/6 410/2/6 376/2/6 
f 376/2/6 410/2/6 411/2/6 
f 19/2/6 103/2/6 20/2/6 
f 20/2/6 103/2/6 95/2/6 
f 379/2/6 412/2/6 374/2/6 
f 374/2/6 412/2/6 413/2/6 
f 95/2/6 374/2/6 98/2/6 
f 98/2/6 374/2/6 375/2/6 
f 99/2/6 377/2/6 101/2/6 
f 101/2/6 377/2/6 378/2/6 
f 21/2/6 101/2/6 22/2/6 
f 22/2/6 101/2/6 106/2/6 
f 378/2/6 414/2/6 382/2/6 
f 382/2/6 414/2/6 415/2/6 
f 23/2/6 109/2/6 24/2/6 
f 24/2/6 109/2/6 102/2/6 
f 385/2/6 416/2/6 380/2/6 
f 380/2/6 416/2/6 417/2/6 
f 102/2/6 380/2/6 104/2/6 
f 104/2/6 380/2/6 381/2/6 
f 105/2/6 383/2/6 107/2/6 
f 107/2/6 383/2/6 384/2/6 
f 25/2/6 107/2/6 26/2/6 
f 26/2/6 107/2/6 112/2/6 
f 384/2/6 418/2/6 388/2/6 
f 388/2/6 418/2/6 419/2/6 
f 27/2/6 115/2/6 28/2/6 
f 28/2/6 115/2/6 108/2/6 
f 391/2/6 420/2/6 386/2/6 
f 386/2/6 420/2/6 421/2/6 
f 108/2/6 386/2/6 110/2/6 
f 110/2/6 386/2/6 387/2/6 
f 111/2/6 389/2/6 113/2/6 
f 113/2/6 389/2/6 390/2/6 
f 29/2/6 113/2/6 30/2/6 
f 390/2/6 422/2/6 30/2/6 
f 113/2/6 390/2/6 30/2/6 
f 30/2/6 422/2/6 114/2/6 
f 114/2/6 422/2/6 392/2/6 
f 392/2/6 422/2/6 423/2/6 
f 114/2/6 392/2/6 116/2/6 
f 116/2/6 392/2/6 393/2/6 
# 0 polygons - 952 triangles

